%!PS-Adobe-3.0 EPSF-3.0
%%Creator: Graphviz version 2.20.3 (Tue Oct 14 12:23:50 UTC 2008)
%%For: (ashishdepankaj) Ashish Depankaj
%%Title: FSM
%%Pages: (atend)
%%BoundingBox: (atend)
%%EndComments
save
%%BeginProlog
/DotDict 200 dict def
DotDict begin

/setupLatin1 {
mark
/EncodingVector 256 array def
 EncodingVector 0

ISOLatin1Encoding 0 255 getinterval putinterval
EncodingVector 45 /hyphen put

% Set up ISO Latin 1 character encoding
/starnetISO {
        dup dup findfont dup length dict begin
        { 1 index /FID ne { def }{ pop pop } ifelse
        } forall
        /Encoding EncodingVector def
        currentdict end definefont
} def
/Times-Roman starnetISO def
/Times-Italic starnetISO def
/Times-Bold starnetISO def
/Times-BoldItalic starnetISO def
/Helvetica starnetISO def
/Helvetica-Oblique starnetISO def
/Helvetica-Bold starnetISO def
/Helvetica-BoldOblique starnetISO def
/Courier starnetISO def
/Courier-Oblique starnetISO def
/Courier-Bold starnetISO def
/Courier-BoldOblique starnetISO def
cleartomark
} bind def

%%BeginResource: procset graphviz 0 0
/coord-font-family /Times-Roman def
/default-font-family /Times-Roman def
/coordfont coord-font-family findfont 8 scalefont def

/InvScaleFactor 1.0 def
/set_scale {
       dup 1 exch div /InvScaleFactor exch def
       scale
} bind def

% styles
/solid { [] 0 setdash } bind def
/dashed { [9 InvScaleFactor mul dup ] 0 setdash } bind def
/dotted { [1 InvScaleFactor mul 6 InvScaleFactor mul] 0 setdash } bind def
/invis {/fill {newpath} def /stroke {newpath} def /show {pop newpath} def} bind def
/bold { 2 setlinewidth } bind def
/filled { } bind def
/unfilled { } bind def
/rounded { } bind def
/diagonals { } bind def

% hooks for setting color 
/nodecolor { sethsbcolor } bind def
/edgecolor { sethsbcolor } bind def
/graphcolor { sethsbcolor } bind def
/nopcolor {pop pop pop} bind def

/beginpage {	% i j npages
	/npages exch def
	/j exch def
	/i exch def
	/str 10 string def
	npages 1 gt {
		gsave
			coordfont setfont
			0 0 moveto
			(\() show i str cvs show (,) show j str cvs show (\)) show
		grestore
	} if
} bind def

/set_font {
	findfont exch
	scalefont setfont
} def

% draw text fitted to its expected width
/alignedtext {			% width text
	/text exch def
	/width exch def
	gsave
		width 0 gt {
			[] 0 setdash
			text stringwidth pop width exch sub text length div 0 text ashow
		} if
	grestore
} def

/boxprim {				% xcorner ycorner xsize ysize
		4 2 roll
		moveto
		2 copy
		exch 0 rlineto
		0 exch rlineto
		pop neg 0 rlineto
		closepath
} bind def

/ellipse_path {
	/ry exch def
	/rx exch def
	/y exch def
	/x exch def
	matrix currentmatrix
	newpath
	x y translate
	rx ry scale
	0 0 1 0 360 arc
	setmatrix
} bind def

/endpage { showpage } bind def
/showpage { } def

/layercolorseq
	[	% layer color sequence - darkest to lightest
		[0 0 0]
		[.2 .8 .8]
		[.4 .8 .8]
		[.6 .8 .8]
		[.8 .8 .8]
	]
def

/layerlen layercolorseq length def

/setlayer {/maxlayer exch def /curlayer exch def
	layercolorseq curlayer 1 sub layerlen mod get
	aload pop sethsbcolor
	/nodecolor {nopcolor} def
	/edgecolor {nopcolor} def
	/graphcolor {nopcolor} def
} bind def

/onlayer { curlayer ne {invis} if } def

/onlayers {
	/myupper exch def
	/mylower exch def
	curlayer mylower lt
	curlayer myupper gt
	or
	{invis} if
} def

/curlayer 0 def

%%EndResource
%%EndProlog
%%BeginSetup
14 default-font-family set_font
1 setmiterlimit
% /arrowlength 10 def
% /arrowwidth 5 def

% make sure pdfmark is harmless for PS-interpreters other than Distiller
/pdfmark where {pop} {userdict /pdfmark /cleartomark load put} ifelse
% make '<<' and '>>' safe on PS Level 1 devices
/languagelevel where {pop languagelevel}{1} ifelse
2 lt {
    userdict (<<) cvn ([) cvn load put
    userdict (>>) cvn ([) cvn load put
} if

%%EndSetup
setupLatin1
%%Page: 1 1
%%PageBoundingBox: 225 187 387 605
%%PageOrientation: Landscape
0 0 1 beginpage
gsave
225 187 162 418 boxprim clip newpath
1 1 set_scale 90 rotate 191 -383 translate
0.000 0.000 0.000 graphcolor
14 /Times-Roman set_font
173.5 7.9 moveto 63 (a2.min.fsm) alignedtext
% 0
gsave
2 setlinewidth
bold
0.000 0.000 0.000 nodecolor
18 71 18 18 ellipse_path stroke
0.000 0.000 0.000 nodecolor
14 /Times-Roman set_font
14 66.9 moveto 8 (0) alignedtext
grestore
% 0->0
gsave
1 setlinewidth
0.000 0.000 0.000 edgecolor
newpath 12 88 moveto
10 98 12 107 18 107 curveto
22 107 24 103 25 98 curveto
stroke
0.000 0.000 0.000 edgecolor
newpath 28.48 97.6 moveto
24 88 lineto
21.51 98.3 lineto
closepath fill
1 setlinewidth
solid
0.000 0.000 0.000 edgecolor
newpath 28.48 97.6 moveto
24 88 lineto
21.51 98.3 lineto
closepath stroke
0.000 0.000 0.000 edgecolor
14 /Times-Roman set_font
14.5 110.9 moveto 7 (b) alignedtext
grestore
% 1
gsave
1 setlinewidth
solid
0.000 0.000 0.000 nodecolor
90 71 18 18 ellipse_path stroke
0.000 0.000 0.000 nodecolor
14 /Times-Roman set_font
86 66.9 moveto 8 (1) alignedtext
grestore
% 0->1
gsave
1 setlinewidth
0.000 0.000 0.000 edgecolor
newpath 36 71 moveto
44 71 53 71 62 71 curveto
stroke
0.000 0.000 0.000 edgecolor
newpath 62 74.5 moveto
72 71 lineto
62 67.5 lineto
closepath fill
1 setlinewidth
solid
0.000 0.000 0.000 edgecolor
newpath 62 74.5 moveto
72 71 lineto
62 67.5 lineto
closepath stroke
0.000 0.000 0.000 edgecolor
14 /Times-Roman set_font
51 75.9 moveto 6 (a) alignedtext
grestore
% 1->1
gsave
1 setlinewidth
0.000 0.000 0.000 edgecolor
newpath 84 88 moveto
82 98 84 107 90 107 curveto
94 107 96 103 97 98 curveto
stroke
0.000 0.000 0.000 edgecolor
newpath 100.48 97.6 moveto
96 88 lineto
93.51 98.3 lineto
closepath fill
1 setlinewidth
solid
0.000 0.000 0.000 edgecolor
newpath 100.48 97.6 moveto
96 88 lineto
93.51 98.3 lineto
closepath stroke
0.000 0.000 0.000 edgecolor
14 /Times-Roman set_font
87 110.9 moveto 6 (a) alignedtext
grestore
% 2
gsave
1 setlinewidth
solid
0.000 0.000 0.000 nodecolor
164 125 18 18 ellipse_path stroke
0.000 0.000 0.000 nodecolor
14 /Times-Roman set_font
160 120.9 moveto 8 (2) alignedtext
grestore
% 1->2
gsave
1 setlinewidth
0.000 0.000 0.000 edgecolor
newpath 105 82 moveto
115 89 129 100 141 108 curveto
stroke
0.000 0.000 0.000 edgecolor
newpath 138.9 110.8 moveto
149 114 lineto
143.1 105.2 lineto
closepath fill
1 setlinewidth
solid
0.000 0.000 0.000 edgecolor
newpath 138.9 110.8 moveto
149 114 lineto
143.1 105.2 lineto
closepath stroke
0.000 0.000 0.000 edgecolor
14 /Times-Roman set_font
123.5 102.9 moveto 7 (b) alignedtext
grestore
% 2->0
gsave
1 setlinewidth
0.000 0.000 0.000 edgecolor
newpath 147 131 moveto
128 137 97 144 72 133 curveto
56 125 42 109 33 96 curveto
stroke
0.000 0.000 0.000 edgecolor
newpath 35.46 93.38 moveto
27 87 lineto
29.63 97.26 lineto
closepath fill
1 setlinewidth
solid
0.000 0.000 0.000 edgecolor
newpath 35.46 93.38 moveto
27 87 lineto
29.63 97.26 lineto
closepath stroke
0.000 0.000 0.000 edgecolor
14 /Times-Roman set_font
86.5 141.9 moveto 7 (b) alignedtext
grestore
% 3
gsave
1 setlinewidth
solid
0.000 0.000 0.000 nodecolor
238 123 18 18 ellipse_path stroke
0.000 0.000 0.000 nodecolor
14 /Times-Roman set_font
234 118.9 moveto 8 (3) alignedtext
grestore
% 2->3
gsave
1 setlinewidth
0.000 0.000 0.000 edgecolor
newpath 180 117 moveto
186 115 191 113 197 112 curveto
202 111 207 111 212 112 curveto
stroke
0.000 0.000 0.000 edgecolor
newpath 211.42 115.48 moveto
222 115 lineto
213.43 108.77 lineto
closepath fill
1 setlinewidth
solid
0.000 0.000 0.000 edgecolor
newpath 211.42 115.48 moveto
222 115 lineto
213.43 108.77 lineto
closepath stroke
0.000 0.000 0.000 edgecolor
14 /Times-Roman set_font
198 115.9 moveto 6 (a) alignedtext
grestore
% 3->2
gsave
1 setlinewidth
0.000 0.000 0.000 edgecolor
newpath 220 127 moveto
215 127 210 128 205 129 curveto
201 129 196 129 192 129 curveto
stroke
0.000 0.000 0.000 edgecolor
newpath 192.3 125.51 moveto
182 128 lineto
191.6 132.48 lineto
closepath fill
1 setlinewidth
solid
0.000 0.000 0.000 edgecolor
newpath 192.3 125.51 moveto
182 128 lineto
191.6 132.48 lineto
closepath stroke
0.000 0.000 0.000 edgecolor
14 /Times-Roman set_font
197.5 132.9 moveto 7 (b) alignedtext
grestore
% 4
gsave
1 setlinewidth
solid
0.000 0.000 0.000 nodecolor
310 75 18 18 ellipse_path stroke
0.000 0.000 0.000 nodecolor
14 /Times-Roman set_font
306 70.9 moveto 8 (4) alignedtext
grestore
% 3->4
gsave
1 setlinewidth
0.000 0.000 0.000 edgecolor
newpath 253 113 moveto
262 107 275 98 286 91 curveto
stroke
0.000 0.000 0.000 edgecolor
newpath 288.62 93.46 moveto
295 85 lineto
284.74 87.63 lineto
closepath fill
1 setlinewidth
solid
0.000 0.000 0.000 edgecolor
newpath 288.62 93.46 moveto
295 85 lineto
284.74 87.63 lineto
closepath stroke
0.000 0.000 0.000 edgecolor
14 /Times-Roman set_font
271 104.9 moveto 6 (a) alignedtext
grestore
% 4->1
gsave
1 setlinewidth
0.000 0.000 0.000 edgecolor
newpath 292 75 moveto
253 74 165 72 118 71 curveto
stroke
0.000 0.000 0.000 edgecolor
newpath 118 67.5 moveto
108 71 lineto
118 74.5 lineto
closepath fill
1 setlinewidth
solid
0.000 0.000 0.000 edgecolor
newpath 118 67.5 moveto
108 71 lineto
118 74.5 lineto
closepath stroke
0.000 0.000 0.000 edgecolor
14 /Times-Roman set_font
198 79.9 moveto 6 (a) alignedtext
grestore
% 5
gsave
1 setlinewidth
solid
0.000 0.000 0.000 nodecolor
388 75 18 18 ellipse_path stroke
1 setlinewidth
solid
0.000 0.000 0.000 nodecolor
388 75 22 22 ellipse_path stroke
0.000 0.000 0.000 nodecolor
14 /Times-Roman set_font
384.5 70.9 moveto 7 (5) alignedtext
grestore
% 4->5
gsave
1 setlinewidth
0.000 0.000 0.000 edgecolor
newpath 328 75 moveto
336 75 346 75 356 75 curveto
stroke
0.000 0.000 0.000 edgecolor
newpath 356 78.5 moveto
366 75 lineto
356 71.5 lineto
closepath fill
1 setlinewidth
solid
0.000 0.000 0.000 edgecolor
newpath 356 78.5 moveto
366 75 lineto
356 71.5 lineto
closepath stroke
0.000 0.000 0.000 edgecolor
14 /Times-Roman set_font
343.5 79.9 moveto 7 (b) alignedtext
grestore
% 5->0
gsave
1 setlinewidth
0.000 0.000 0.000 edgecolor
newpath 374 58 moveto
359 44 336 25 310 25 curveto
90 25 90 25 90 25 curveto
70 25 51 38 38 50 curveto
stroke
0.000 0.000 0.000 edgecolor
newpath 35.22 47.78 moveto
30 57 lineto
39.83 53.05 lineto
closepath fill
1 setlinewidth
solid
0.000 0.000 0.000 edgecolor
newpath 35.22 47.78 moveto
30 57 lineto
39.83 53.05 lineto
closepath stroke
0.000 0.000 0.000 edgecolor
14 /Times-Roman set_font
197.5 29.9 moveto 7 (b) alignedtext
grestore
% 5->3
gsave
1 setlinewidth
0.000 0.000 0.000 edgecolor
newpath 369 87 moveto
364 90 357 94 351 96 curveto
320 109 311 112 277 119 curveto
273 120 270 120 266 121 curveto
stroke
0.000 0.000 0.000 edgecolor
newpath 265.6 117.52 moveto
256 122 lineto
266.3 124.49 lineto
closepath fill
1 setlinewidth
solid
0.000 0.000 0.000 edgecolor
newpath 265.6 117.52 moveto
256 122 lineto
266.3 124.49 lineto
closepath stroke
0.000 0.000 0.000 edgecolor
14 /Times-Roman set_font
307 118.9 moveto 6 (a) alignedtext
grestore
endpage
showpage
grestore
%%PageTrailer
%%EndPage: 1
%%Trailer
%%Pages: 1
%%BoundingBox: 225 187 387 605
end
restore
%%EOF
