%!PS-Adobe-3.0 EPSF-3.0
%%Creator: Graphviz version 2.20.3 (Tue Oct 14 12:23:50 UTC 2008)
%%For: (ashishdepankaj) Ashish Depankaj
%%Title: FSM
%%Pages: (atend)
%%BoundingBox: (atend)
%%EndComments
save
%%BeginProlog
/DotDict 200 dict def
DotDict begin

/setupLatin1 {
mark
/EncodingVector 256 array def
 EncodingVector 0

ISOLatin1Encoding 0 255 getinterval putinterval
EncodingVector 45 /hyphen put

% Set up ISO Latin 1 character encoding
/starnetISO {
        dup dup findfont dup length dict begin
        { 1 index /FID ne { def }{ pop pop } ifelse
        } forall
        /Encoding EncodingVector def
        currentdict end definefont
} def
/Times-Roman starnetISO def
/Times-Italic starnetISO def
/Times-Bold starnetISO def
/Times-BoldItalic starnetISO def
/Helvetica starnetISO def
/Helvetica-Oblique starnetISO def
/Helvetica-Bold starnetISO def
/Helvetica-BoldOblique starnetISO def
/Courier starnetISO def
/Courier-Oblique starnetISO def
/Courier-Bold starnetISO def
/Courier-BoldOblique starnetISO def
cleartomark
} bind def

%%BeginResource: procset graphviz 0 0
/coord-font-family /Times-Roman def
/default-font-family /Times-Roman def
/coordfont coord-font-family findfont 8 scalefont def

/InvScaleFactor 1.0 def
/set_scale {
       dup 1 exch div /InvScaleFactor exch def
       scale
} bind def

% styles
/solid { [] 0 setdash } bind def
/dashed { [9 InvScaleFactor mul dup ] 0 setdash } bind def
/dotted { [1 InvScaleFactor mul 6 InvScaleFactor mul] 0 setdash } bind def
/invis {/fill {newpath} def /stroke {newpath} def /show {pop newpath} def} bind def
/bold { 2 setlinewidth } bind def
/filled { } bind def
/unfilled { } bind def
/rounded { } bind def
/diagonals { } bind def

% hooks for setting color 
/nodecolor { sethsbcolor } bind def
/edgecolor { sethsbcolor } bind def
/graphcolor { sethsbcolor } bind def
/nopcolor {pop pop pop} bind def

/beginpage {	% i j npages
	/npages exch def
	/j exch def
	/i exch def
	/str 10 string def
	npages 1 gt {
		gsave
			coordfont setfont
			0 0 moveto
			(\() show i str cvs show (,) show j str cvs show (\)) show
		grestore
	} if
} bind def

/set_font {
	findfont exch
	scalefont setfont
} def

% draw text fitted to its expected width
/alignedtext {			% width text
	/text exch def
	/width exch def
	gsave
		width 0 gt {
			[] 0 setdash
			text stringwidth pop width exch sub text length div 0 text ashow
		} if
	grestore
} def

/boxprim {				% xcorner ycorner xsize ysize
		4 2 roll
		moveto
		2 copy
		exch 0 rlineto
		0 exch rlineto
		pop neg 0 rlineto
		closepath
} bind def

/ellipse_path {
	/ry exch def
	/rx exch def
	/y exch def
	/x exch def
	matrix currentmatrix
	newpath
	x y translate
	rx ry scale
	0 0 1 0 360 arc
	setmatrix
} bind def

/endpage { showpage } bind def
/showpage { } def

/layercolorseq
	[	% layer color sequence - darkest to lightest
		[0 0 0]
		[.2 .8 .8]
		[.4 .8 .8]
		[.6 .8 .8]
		[.8 .8 .8]
	]
def

/layerlen layercolorseq length def

/setlayer {/maxlayer exch def /curlayer exch def
	layercolorseq curlayer 1 sub layerlen mod get
	aload pop sethsbcolor
	/nodecolor {nopcolor} def
	/edgecolor {nopcolor} def
	/graphcolor {nopcolor} def
} bind def

/onlayer { curlayer ne {invis} if } def

/onlayers {
	/myupper exch def
	/mylower exch def
	curlayer mylower lt
	curlayer myupper gt
	or
	{invis} if
} def

/curlayer 0 def

%%EndResource
%%EndProlog
%%BeginSetup
14 default-font-family set_font
1 setmiterlimit
% /arrowlength 10 def
% /arrowwidth 5 def

% make sure pdfmark is harmless for PS-interpreters other than Distiller
/pdfmark where {pop} {userdict /pdfmark /cleartomark load put} ifelse
% make '<<' and '>>' safe on PS Level 1 devices
/languagelevel where {pop languagelevel}{1} ifelse
2 lt {
    userdict (<<) cvn ([) cvn load put
    userdict (>>) cvn ([) cvn load put
} if

%%EndSetup
setupLatin1
%%Page: 1 1
%%PageBoundingBox: 180 222 433 570
%%PageOrientation: Landscape
0 0 1 beginpage
gsave
180 222 253 348 boxprim clip newpath
1 1 set_scale 90 rotate 226 -428.5 translate
0.000 0.000 0.000 graphcolor
14 /Times-Roman set_font
151 7.9 moveto 38 (a3.fsm) alignedtext
% 0
gsave
2 setlinewidth
bold
0.000 0.000 0.000 nodecolor
18 160 18 18 ellipse_path stroke
0.000 0.000 0.000 nodecolor
14 /Times-Roman set_font
14 155.9 moveto 8 (0) alignedtext
grestore
% 1
gsave
1 setlinewidth
solid
0.000 0.000 0.000 nodecolor
92 192 18 18 ellipse_path stroke
0.000 0.000 0.000 nodecolor
14 /Times-Roman set_font
88 187.9 moveto 8 (1) alignedtext
grestore
% 0->1
gsave
1 setlinewidth
0.000 0.000 0.000 edgecolor
newpath 35 167 moveto
44 172 55 177 66 181 curveto
stroke
0.000 0.000 0.000 edgecolor
newpath 64.44 184.14 moveto
75 185 lineto
67.28 177.74 lineto
closepath fill
1 setlinewidth
solid
0.000 0.000 0.000 edgecolor
newpath 64.44 184.14 moveto
75 185 lineto
67.28 177.74 lineto
closepath stroke
0.000 0.000 0.000 edgecolor
14 /Times-Roman set_font
51 179.9 moveto 8 (0) alignedtext
grestore
% 2
gsave
1 setlinewidth
solid
0.000 0.000 0.000 nodecolor
166 139 18 18 ellipse_path stroke
0.000 0.000 0.000 nodecolor
14 /Times-Roman set_font
162 134.9 moveto 8 (2) alignedtext
grestore
% 0->2
gsave
1 setlinewidth
0.000 0.000 0.000 edgecolor
newpath 36 155 moveto
47 153 61 150 74 148 curveto
96 145 120 142 138 141 curveto
stroke
0.000 0.000 0.000 edgecolor
newpath 138.4 144.48 moveto
148 140 lineto
137.7 137.51 lineto
closepath fill
1 setlinewidth
solid
0.000 0.000 0.000 edgecolor
newpath 138.4 144.48 moveto
148 140 lineto
137.7 137.51 lineto
closepath stroke
0.000 0.000 0.000 edgecolor
14 /Times-Roman set_font
88 151.9 moveto 8 (1) alignedtext
grestore
% 1->1
gsave
1 setlinewidth
0.000 0.000 0.000 edgecolor
newpath 86 209 moveto
84 219 86 228 92 228 curveto
96 228 98 224 99 219 curveto
stroke
0.000 0.000 0.000 edgecolor
newpath 102.48 218.6 moveto
98 209 lineto
95.51 219.3 lineto
closepath fill
1 setlinewidth
solid
0.000 0.000 0.000 edgecolor
newpath 102.48 218.6 moveto
98 209 lineto
95.51 219.3 lineto
closepath stroke
0.000 0.000 0.000 edgecolor
14 /Times-Roman set_font
88 231.9 moveto 8 (0) alignedtext
grestore
% 1->2
gsave
1 setlinewidth
0.000 0.000 0.000 edgecolor
newpath 107 181 moveto
117 174 131 164 143 156 curveto
stroke
0.000 0.000 0.000 edgecolor
newpath 145.1 158.8 moveto
151 150 lineto
140.9 153.2 lineto
closepath fill
1 setlinewidth
solid
0.000 0.000 0.000 edgecolor
newpath 145.1 158.8 moveto
151 150 lineto
140.9 153.2 lineto
closepath stroke
0.000 0.000 0.000 edgecolor
14 /Times-Roman set_font
125 171.9 moveto 8 (1) alignedtext
grestore
% 3
gsave
1 setlinewidth
solid
0.000 0.000 0.000 nodecolor
322 144 18 18 ellipse_path stroke
0.000 0.000 0.000 nodecolor
14 /Times-Roman set_font
318 139.9 moveto 8 (3) alignedtext
grestore
% 2->3
gsave
1 setlinewidth
0.000 0.000 0.000 edgecolor
newpath 184 143 moveto
195 145 209 147 222 149 curveto
247 151 274 149 294 147 curveto
stroke
0.000 0.000 0.000 edgecolor
newpath 294.4 150.48 moveto
304 146 lineto
293.7 143.51 lineto
closepath fill
1 setlinewidth
solid
0.000 0.000 0.000 edgecolor
newpath 294.4 150.48 moveto
304 146 lineto
293.7 143.51 lineto
closepath stroke
0.000 0.000 0.000 edgecolor
14 /Times-Roman set_font
240 152.9 moveto 8 (0) alignedtext
grestore
% 4
gsave
1 setlinewidth
solid
0.000 0.000 0.000 nodecolor
244 83 18 18 ellipse_path stroke
1 setlinewidth
solid
0.000 0.000 0.000 nodecolor
244 83 22 22 ellipse_path stroke
0.000 0.000 0.000 nodecolor
14 /Times-Roman set_font
240 78.9 moveto 8 (4) alignedtext
grestore
% 2->4
gsave
1 setlinewidth
0.000 0.000 0.000 edgecolor
newpath 181 128 moveto
192 121 205 111 218 102 curveto
stroke
0.000 0.000 0.000 edgecolor
newpath 220.1 104.8 moveto
226 96 lineto
215.9 99.2 lineto
closepath fill
1 setlinewidth
solid
0.000 0.000 0.000 edgecolor
newpath 220.1 104.8 moveto
226 96 lineto
215.9 99.2 lineto
closepath stroke
0.000 0.000 0.000 edgecolor
14 /Times-Roman set_font
199 121.9 moveto 8 (1) alignedtext
grestore
% 3->1
gsave
1 setlinewidth
0.000 0.000 0.000 edgecolor
newpath 306 153 moveto
295 159 280 166 266 170 curveto
216 183 155 188 120 190 curveto
stroke
0.000 0.000 0.000 edgecolor
newpath 119.6 186.52 moveto
110 191 lineto
120.3 193.49 lineto
closepath fill
1 setlinewidth
solid
0.000 0.000 0.000 edgecolor
newpath 119.6 186.52 moveto
110 191 lineto
120.3 193.49 lineto
closepath stroke
0.000 0.000 0.000 edgecolor
14 /Times-Roman set_font
199 184.9 moveto 8 (0) alignedtext
grestore
% 3->2
gsave
1 setlinewidth
0.000 0.000 0.000 edgecolor
newpath 319 126 moveto
313 101 299 55 266 35 curveto
250 25 239 25 222 35 curveto
195 52 180 87 173 111 curveto
stroke
0.000 0.000 0.000 edgecolor
newpath 169.52 110.42 moveto
170 121 lineto
176.23 112.43 lineto
closepath fill
1 setlinewidth
solid
0.000 0.000 0.000 edgecolor
newpath 169.52 110.42 moveto
170 121 lineto
176.23 112.43 lineto
closepath stroke
0.000 0.000 0.000 edgecolor
14 /Times-Roman set_font
240 42.9 moveto 8 (1) alignedtext
grestore
% 4->3
gsave
1 setlinewidth
0.000 0.000 0.000 edgecolor
newpath 262 97 moveto
273 106 288 117 300 127 curveto
stroke
0.000 0.000 0.000 edgecolor
newpath 297.9 129.8 moveto
308 133 lineto
302.1 124.2 lineto
closepath fill
1 setlinewidth
solid
0.000 0.000 0.000 edgecolor
newpath 297.9 129.8 moveto
308 133 lineto
302.1 124.2 lineto
closepath stroke
0.000 0.000 0.000 edgecolor
14 /Times-Roman set_font
281 122.9 moveto 8 (0) alignedtext
grestore
% 4->4
gsave
1 setlinewidth
0.000 0.000 0.000 edgecolor
newpath 237 104 moveto
236 114 238 123 244 123 curveto
248 123 250 119 251 114 curveto
stroke
0.000 0.000 0.000 edgecolor
newpath 254.5 114 moveto
251 104 lineto
247.5 114 lineto
closepath fill
1 setlinewidth
solid
0.000 0.000 0.000 edgecolor
newpath 254.5 114 moveto
251 104 lineto
247.5 114 lineto
closepath stroke
0.000 0.000 0.000 edgecolor
14 /Times-Roman set_font
240 127.9 moveto 8 (1) alignedtext
grestore
endpage
showpage
grestore
%%PageTrailer
%%EndPage: 1
%%Trailer
%%Pages: 1
%%BoundingBox: 180 222 433 570
end
restore
%%EOF
