%!PS-Adobe-3.0 EPSF-3.0
%%Creator: Graphviz version 2.20.3 (Tue Oct 14 12:23:50 UTC 2008)
%%For: (ashishdepankaj) Ashish Depankaj
%%Title: FSM
%%Pages: (atend)
%%BoundingBox: (atend)
%%EndComments
save
%%BeginProlog
/DotDict 200 dict def
DotDict begin

/setupLatin1 {
mark
/EncodingVector 256 array def
 EncodingVector 0

ISOLatin1Encoding 0 255 getinterval putinterval
EncodingVector 45 /hyphen put

% Set up ISO Latin 1 character encoding
/starnetISO {
        dup dup findfont dup length dict begin
        { 1 index /FID ne { def }{ pop pop } ifelse
        } forall
        /Encoding EncodingVector def
        currentdict end definefont
} def
/Times-Roman starnetISO def
/Times-Italic starnetISO def
/Times-Bold starnetISO def
/Times-BoldItalic starnetISO def
/Helvetica starnetISO def
/Helvetica-Oblique starnetISO def
/Helvetica-Bold starnetISO def
/Helvetica-BoldOblique starnetISO def
/Courier starnetISO def
/Courier-Oblique starnetISO def
/Courier-Bold starnetISO def
/Courier-BoldOblique starnetISO def
cleartomark
} bind def

%%BeginResource: procset graphviz 0 0
/coord-font-family /Times-Roman def
/default-font-family /Times-Roman def
/coordfont coord-font-family findfont 8 scalefont def

/InvScaleFactor 1.0 def
/set_scale {
       dup 1 exch div /InvScaleFactor exch def
       scale
} bind def

% styles
/solid { [] 0 setdash } bind def
/dashed { [9 InvScaleFactor mul dup ] 0 setdash } bind def
/dotted { [1 InvScaleFactor mul 6 InvScaleFactor mul] 0 setdash } bind def
/invis {/fill {newpath} def /stroke {newpath} def /show {pop newpath} def} bind def
/bold { 2 setlinewidth } bind def
/filled { } bind def
/unfilled { } bind def
/rounded { } bind def
/diagonals { } bind def

% hooks for setting color 
/nodecolor { sethsbcolor } bind def
/edgecolor { sethsbcolor } bind def
/graphcolor { sethsbcolor } bind def
/nopcolor {pop pop pop} bind def

/beginpage {	% i j npages
	/npages exch def
	/j exch def
	/i exch def
	/str 10 string def
	npages 1 gt {
		gsave
			coordfont setfont
			0 0 moveto
			(\() show i str cvs show (,) show j str cvs show (\)) show
		grestore
	} if
} bind def

/set_font {
	findfont exch
	scalefont setfont
} def

% draw text fitted to its expected width
/alignedtext {			% width text
	/text exch def
	/width exch def
	gsave
		width 0 gt {
			[] 0 setdash
			text stringwidth pop width exch sub text length div 0 text ashow
		} if
	grestore
} def

/boxprim {				% xcorner ycorner xsize ysize
		4 2 roll
		moveto
		2 copy
		exch 0 rlineto
		0 exch rlineto
		pop neg 0 rlineto
		closepath
} bind def

/ellipse_path {
	/ry exch def
	/rx exch def
	/y exch def
	/x exch def
	matrix currentmatrix
	newpath
	x y translate
	rx ry scale
	0 0 1 0 360 arc
	setmatrix
} bind def

/endpage { showpage } bind def
/showpage { } def

/layercolorseq
	[	% layer color sequence - darkest to lightest
		[0 0 0]
		[.2 .8 .8]
		[.4 .8 .8]
		[.6 .8 .8]
		[.8 .8 .8]
	]
def

/layerlen layercolorseq length def

/setlayer {/maxlayer exch def /curlayer exch def
	layercolorseq curlayer 1 sub layerlen mod get
	aload pop sethsbcolor
	/nodecolor {nopcolor} def
	/edgecolor {nopcolor} def
	/graphcolor {nopcolor} def
} bind def

/onlayer { curlayer ne {invis} if } def

/onlayers {
	/myupper exch def
	/mylower exch def
	curlayer mylower lt
	curlayer myupper gt
	or
	{invis} if
} def

/curlayer 0 def

%%EndResource
%%EndProlog
%%BeginSetup
14 default-font-family set_font
1 setmiterlimit
% /arrowlength 10 def
% /arrowwidth 5 def

% make sure pdfmark is harmless for PS-interpreters other than Distiller
/pdfmark where {pop} {userdict /pdfmark /cleartomark load put} ifelse
% make '<<' and '>>' safe on PS Level 1 devices
/languagelevel where {pop languagelevel}{1} ifelse
2 lt {
    userdict (<<) cvn ([) cvn load put
    userdict (>>) cvn ([) cvn load put
} if

%%EndSetup
setupLatin1
%%Page: 1 1
%%PageBoundingBox: 236 107 377 685
%%PageOrientation: Landscape
0 0 1 beginpage
gsave
236 107 141 578 boxprim clip newpath
1 1 set_scale 90 rotate 111 -372.5 translate
0.000 0.000 0.000 graphcolor
14 /Times-Roman set_font
264.5 7.9 moveto 41 (B1.fsm) alignedtext
% 0
gsave
2 setlinewidth
bold
0.000 0.000 0.000 nodecolor
18 70 18 18 ellipse_path stroke
0.000 0.000 0.000 nodecolor
14 /Times-Roman set_font
14 65.9 moveto 8 (0) alignedtext
grestore
% 1
gsave
1 setlinewidth
solid
0.000 0.000 0.000 nodecolor
128 70 18 18 ellipse_path stroke
0.000 0.000 0.000 nodecolor
14 /Times-Roman set_font
124 65.9 moveto 8 (1) alignedtext
grestore
% 0->1
gsave
1 setlinewidth
0.000 0.000 0.000 edgecolor
newpath 36 70 moveto
53 70 79 70 100 70 curveto
stroke
0.000 0.000 0.000 edgecolor
newpath 100 73.5 moveto
110 70 lineto
100 66.5 lineto
closepath fill
1 setlinewidth
solid
0.000 0.000 0.000 edgecolor
newpath 100 73.5 moveto
110 70 lineto
100 66.5 lineto
closepath stroke
0.000 0.000 0.000 edgecolor
14 /Times-Roman set_font
51.5 73.9 moveto 43 (a/0.300) alignedtext
grestore
% 2
gsave
1 setlinewidth
solid
0.000 0.000 0.000 nodecolor
248 70 23.89 23.89 ellipse_path stroke
1 setlinewidth
solid
0.000 0.000 0.000 nodecolor
248 70 27.82 27.82 ellipse_path stroke
0.000 0.000 0.000 nodecolor
14 /Times-Roman set_font
238.5 65.9 moveto 19 (2/0) alignedtext
grestore
% 1->2
gsave
1 setlinewidth
0.000 0.000 0.000 edgecolor
newpath 146 70 moveto
163 70 188 70 210 70 curveto
stroke
0.000 0.000 0.000 edgecolor
newpath 210 73.5 moveto
220 70 lineto
210 66.5 lineto
closepath fill
1 setlinewidth
solid
0.000 0.000 0.000 edgecolor
newpath 210 73.5 moveto
220 70 lineto
210 66.5 lineto
closepath stroke
0.000 0.000 0.000 edgecolor
14 /Times-Roman set_font
161.5 73.9 moveto 43 (b/0.899) alignedtext
grestore
% 3
gsave
1 setlinewidth
solid
0.000 0.000 0.000 nodecolor
395 70 41.23 41.23 ellipse_path stroke
1 setlinewidth
solid
0.000 0.000 0.000 nodecolor
395 70 45.19 45.19 ellipse_path stroke
0.000 0.000 0.000 nodecolor
14 /Times-Roman set_font
373 65.9 moveto 44 (3/0.361) alignedtext
grestore
% 2->3
gsave
1 setlinewidth
0.000 0.000 0.000 edgecolor
newpath 276 70 moveto
294 70 318 70 340 70 curveto
stroke
0.000 0.000 0.000 edgecolor
newpath 340 73.5 moveto
350 70 lineto
340 66.5 lineto
closepath fill
1 setlinewidth
solid
0.000 0.000 0.000 edgecolor
newpath 340 73.5 moveto
350 70 lineto
340 66.5 lineto
closepath stroke
0.000 0.000 0.000 edgecolor
14 /Times-Roman set_font
291.5 73.9 moveto 43 (a/0.400) alignedtext
grestore
% 3->2
gsave
1 setlinewidth
0.000 0.000 0.000 edgecolor
newpath 353 53 moveto
347 51 341 50 335 49 curveto
316 46 311 45 291 49 curveto
288 50 285 51 281 52 curveto
stroke
0.000 0.000 0.000 edgecolor
newpath 279.72 48.74 moveto
272 56 lineto
282.56 55.14 lineto
closepath fill
1 setlinewidth
solid
0.000 0.000 0.000 edgecolor
newpath 279.72 48.74 moveto
272 56 lineto
282.56 55.14 lineto
closepath stroke
0.000 0.000 0.000 edgecolor
14 /Times-Roman set_font
291 53.9 moveto 44 (b/0.600) alignedtext
grestore
% 4
gsave
1 setlinewidth
solid
0.000 0.000 0.000 nodecolor
542 70 23.89 23.89 ellipse_path stroke
1 setlinewidth
solid
0.000 0.000 0.000 nodecolor
542 70 27.82 27.82 ellipse_path stroke
0.000 0.000 0.000 nodecolor
14 /Times-Roman set_font
532.5 65.9 moveto 19 (4/0) alignedtext
grestore
% 3->4
gsave
1 setlinewidth
0.000 0.000 0.000 edgecolor
newpath 440 70 moveto
460 70 484 70 504 70 curveto
stroke
0.000 0.000 0.000 edgecolor
newpath 504 73.5 moveto
514 70 lineto
504 66.5 lineto
closepath fill
1 setlinewidth
solid
0.000 0.000 0.000 edgecolor
newpath 504 73.5 moveto
514 70 lineto
504 66.5 lineto
closepath stroke
0.000 0.000 0.000 edgecolor
14 /Times-Roman set_font
455.5 73.9 moveto 43 (a/0.036) alignedtext
grestore
% 4->4
gsave
1 setlinewidth
0.000 0.000 0.000 edgecolor
newpath 530 95 moveto
529 106 533 116 542 116 curveto
548 116 552 111 553 105 curveto
stroke
0.000 0.000 0.000 edgecolor
newpath 556.49 105.3 moveto
554 95 lineto
549.52 104.6 lineto
closepath fill
1 setlinewidth
solid
0.000 0.000 0.000 edgecolor
newpath 556.49 105.3 moveto
554 95 lineto
549.52 104.6 lineto
closepath stroke
0.000 0.000 0.000 edgecolor
14 /Times-Roman set_font
520.5 119.9 moveto 43 (a/0.100) alignedtext
grestore
endpage
showpage
grestore
%%PageTrailer
%%EndPage: 1
%%Trailer
%%Pages: 1
%%BoundingBox: 236 107 377 685
end
restore
%%EOF
