T O M E N E P E R S O N ' S 
T W O M E N E P E R S O N ' S 
T W O M E N E P E R S U N Z 
T W O M E N E P E R S E U N Z 
T O M E N E P E R S U N Z 
T O M E N E P E R S E U N Z 
T W O M E N E P U R S E U N Z 
T W O M E N E . P E R S O N ' S 
T W O M E N E . P E R S U N Z 
T W O M E N E . P E R S E U N Z 
T W O M E N E . P U R S E U N Z 
T W O M E N E . P U R S U N ' S 
T W O M E N E . P U R S U N S 
T W O M E N E P U R S U N ' S 
T W O M E N E P U R S U N S 
T O M E N E P U R S E U N Z 
T O M E N E P U R S U N ' S 
T W O M E N N E P E R S U N Z 
T W O M E N N E P E R S O N ' S 
T W O M E N N E P E R S E U N Z 
T W O M E N N E P U R S E U N Z 
T W O M E N N E P U R S U N S 
T W O M E N N E P U R S U N ' S 
T O M E N E P U R S U N S 
T W O M E N N E . P E R S O N ' S 
T O M E N E . P E R S O N ' S 
T O M E N E . P E R S U N Z 
T O M E N E . P E R S E U N Z 
T W O M E N N E . P E R S U N Z 
T W O M E N N E . P E R S E U N Z 
T O M E N E . P U R S E U N Z 
T W O M E N N E . P U R S E U N Z 
T W O M E N N E . P U R S U N ' S 
T O M E N E . P U R S U N ' S 
T O M E N E . P U R S U N S 
T W O M E N N E . P U R S U N S 
T O M E N N E P E R S O N ' S 
T W O M A N Y P E R S O N ' S 
T W O M A N Y P E R S U N Z 
T W O M A N Y P E R S E U N Z 
T W O M A N Y P U R S E U N Z 
T W O M A N Y P U R S U N ' S 
T W O M A N Y P U R S U N S 
T O M E N N E P E R S U N Z 
T O M E N N E P E R S E U N Z 
T O M E N N E P U R S E U N Z 
T O M E N N E . P E R S O N ' S 
T O M E N N E . P E R S U N Z 
T O M E N N E . P E R S E U N Z 
T O M E N N E . P U R S E U N Z 
T O M E N N E . P U R S U N ' S 
T O M E N N E . P U R S U N S 
T O M E N N E P U R S U N ' S 
T O M A N Y P E R S O N ' S 
T O M A N Y P U R S E U N Z 
T O M A N Y P U R S U N ' S 
T O M A N Y P E R S U N Z 
T O M A N Y P U R S U N S 
T O M E N N E P U R S U N S 
T O M A N Y P E R S E U N Z 
T O M B E N E P E R S O N ' S 
T O O M E N E P E R S O N ' S 
T O O M E N E P E R S U N Z 
T O O M E N E P E R S E U N Z 
T O M B E N E P E R S U N Z 
T O M B E N E P E R S E U N Z 
T O O M E N E P U R S E U N Z 
T O O M E N E . P E R S O N ' S 
T O O M E N E . P E R S U N Z 
T O O M E N E . P E R S E U N Z 
T O O M E N E . P U R S E U N Z 
T O O M E N E . P U R S U N ' S 
T O O M E N E . P U R S U N S 
T O O M E N E P U R S U N ' S 
T O O M E N E P U R S U N S 
T O M B E N E P U R S E U N Z 
T O M B E N E P U R S U N ' S 
T O O M E N N E P E R S U N Z 
T O O M E N N E P E R S O N ' S 
T O O M E N N E P E R S E U N Z 
T O O M E N N E P U R S E U N Z 
T O O M E N N E P U R S U N S 
T O O M E N N E P U R S U N ' S 
T O M B E N E P U R S U N S 
T O O M E N N E . P E R S O N ' S 
T O M B E N E . P E R S O N ' S 
T O M B E N E . P E R S U N Z 
T O M B E N E . P E R S E U N Z 
T O O M E N N E . P E R S U N Z 
T O O M E N N E . P E R S E U N Z 
T O M B E N E . P U R S E U N Z 
T O O M E N N E . P U R S E U N Z 
T O O M E N N E . P U R S U N ' S 
T O M B E N E . P U R S U N ' S 
T O M B E N E . P U R S U N S 
T O O M E N N E . P U R S U N S 
T O O M A N Y P E R S O N ' S 
T O M B E H N E P E R S O N ' S 
T O M B E H N E P E R S U N Z 
T O M B E H N E P E R S E U N Z 
T O O M A N Y P E R S U N Z 
T O O M A N Y P E R S E U N Z 
T O M B E H N E P U R S E U N Z 
T O M B E H N E E P E R S U N ' S 
T O M B E H N E P U R S U N S 
T O M B E H N E P U R S U N ' S 
T O M B E H N E E P E R S U N S 
T O O M A N Y P U R S E U N Z 
T O M B E H N E E P E R S O N ' S 
T O M B E H N E E P E R S U N Z 
T O O M A N Y P U R S U N ' S 
T O O M A N Y P U R S U N S 
T O M B E H N E E P E R S E U N Z 
T O M B E H N E E P U R S E U N Z 
T O M B E H N E E P U R S U N S 
T O M B E H N E E P U R S U N ' S 
T O M B E H N I P E R S O N ' S 
T O M B E H K N E I P E R S U N ' S 
T O M B E H K N E I P E R S U N S 
T O M B E H K N E I P E U R E S U N ' S 
T O M B E H K N E I P E U R E S U N S 
T O M B E H K N E I P A R E S U N ' S 
T O M B E H K N E I P A R E S U N S 
T O M B E H K N E I P O R S U N S 
T O M B E H K N E I P O R S U N ' S 
T O M B E H N I P E R S U N Z 
T O M B E H K N I E P E R S U N ' S 
T O M B E H K N I E P E U R E S U N S 
T O M B E H K N I E P E U R E S U N ' S 
T O M B E H K N I E P E R S U N S 
T O M B E H K N I E P A R E S U N ' S 
T O M B E H K N I E P O R S U N ' S 
T O M B E H K N I E P O R S U N S 
T O M B E H K N I E P A R E S U N S 
T O M B E H N I P E R S E U N Z 
T O M B E H N I P U R S E U N Z 
T O M B E H N I P U R S U N S 
T O M B E H N I P U R S U N ' S 
T O M B N E P E R S O N ' S 
T O M B N E P E R S O N ' S 
T O M B N E P E R S U N Z 
T O M B N E P E R S U N Z 
T O M B N E P E R S E U N Z 
T O M B N E P E R S E U N Z 
T O M B N E P U R S E U N Z 
T O M B N E P U R S E U N Z 
T O M B N E P U R S U N ' S 
T O M B N E P U R S U N ' S 
T O M B N E P U R S U N S 
T O M B N E P U R S U N S 
T O M B N E . P U R S E U N Z 
T O M B N E . P E R S O N ' S 
T O M B N E . P E R S U N Z 
T O M B N E . P U R S U N ' S 
T O M B N E . P U R S U N S 
T O M B N E . P E R S E U N Z 

