%!PS-Adobe-3.0 EPSF-3.0
%%Creator: Graphviz version 2.20.3 (Tue Oct 14 12:23:50 UTC 2008)
%%For: (ashishdepankaj) Ashish Depankaj
%%Title: FSM
%%Pages: (atend)
%%BoundingBox: (atend)
%%EndComments
save
%%BeginProlog
/DotDict 200 dict def
DotDict begin

/setupLatin1 {
mark
/EncodingVector 256 array def
 EncodingVector 0

ISOLatin1Encoding 0 255 getinterval putinterval
EncodingVector 45 /hyphen put

% Set up ISO Latin 1 character encoding
/starnetISO {
        dup dup findfont dup length dict begin
        { 1 index /FID ne { def }{ pop pop } ifelse
        } forall
        /Encoding EncodingVector def
        currentdict end definefont
} def
/Times-Roman starnetISO def
/Times-Italic starnetISO def
/Times-Bold starnetISO def
/Times-BoldItalic starnetISO def
/Helvetica starnetISO def
/Helvetica-Oblique starnetISO def
/Helvetica-Bold starnetISO def
/Helvetica-BoldOblique starnetISO def
/Courier starnetISO def
/Courier-Oblique starnetISO def
/Courier-Bold starnetISO def
/Courier-BoldOblique starnetISO def
cleartomark
} bind def

%%BeginResource: procset graphviz 0 0
/coord-font-family /Times-Roman def
/default-font-family /Times-Roman def
/coordfont coord-font-family findfont 8 scalefont def

/InvScaleFactor 1.0 def
/set_scale {
       dup 1 exch div /InvScaleFactor exch def
       scale
} bind def

% styles
/solid { [] 0 setdash } bind def
/dashed { [9 InvScaleFactor mul dup ] 0 setdash } bind def
/dotted { [1 InvScaleFactor mul 6 InvScaleFactor mul] 0 setdash } bind def
/invis {/fill {newpath} def /stroke {newpath} def /show {pop newpath} def} bind def
/bold { 2 setlinewidth } bind def
/filled { } bind def
/unfilled { } bind def
/rounded { } bind def
/diagonals { } bind def

% hooks for setting color 
/nodecolor { sethsbcolor } bind def
/edgecolor { sethsbcolor } bind def
/graphcolor { sethsbcolor } bind def
/nopcolor {pop pop pop} bind def

/beginpage {	% i j npages
	/npages exch def
	/j exch def
	/i exch def
	/str 10 string def
	npages 1 gt {
		gsave
			coordfont setfont
			0 0 moveto
			(\() show i str cvs show (,) show j str cvs show (\)) show
		grestore
	} if
} bind def

/set_font {
	findfont exch
	scalefont setfont
} def

% draw text fitted to its expected width
/alignedtext {			% width text
	/text exch def
	/width exch def
	gsave
		width 0 gt {
			[] 0 setdash
			text stringwidth pop width exch sub text length div 0 text ashow
		} if
	grestore
} def

/boxprim {				% xcorner ycorner xsize ysize
		4 2 roll
		moveto
		2 copy
		exch 0 rlineto
		0 exch rlineto
		pop neg 0 rlineto
		closepath
} bind def

/ellipse_path {
	/ry exch def
	/rx exch def
	/y exch def
	/x exch def
	matrix currentmatrix
	newpath
	x y translate
	rx ry scale
	0 0 1 0 360 arc
	setmatrix
} bind def

/endpage { showpage } bind def
/showpage { } def

/layercolorseq
	[	% layer color sequence - darkest to lightest
		[0 0 0]
		[.2 .8 .8]
		[.4 .8 .8]
		[.6 .8 .8]
		[.8 .8 .8]
	]
def

/layerlen layercolorseq length def

/setlayer {/maxlayer exch def /curlayer exch def
	layercolorseq curlayer 1 sub layerlen mod get
	aload pop sethsbcolor
	/nodecolor {nopcolor} def
	/edgecolor {nopcolor} def
	/graphcolor {nopcolor} def
} bind def

/onlayer { curlayer ne {invis} if } def

/onlayers {
	/myupper exch def
	/mylower exch def
	curlayer mylower lt
	curlayer myupper gt
	or
	{invis} if
} def

/curlayer 0 def

%%EndResource
%%EndProlog
%%BeginSetup
14 default-font-family set_font
1 setmiterlimit
% /arrowlength 10 def
% /arrowwidth 5 def

% make sure pdfmark is harmless for PS-interpreters other than Distiller
/pdfmark where {pop} {userdict /pdfmark /cleartomark load put} ifelse
% make '<<' and '>>' safe on PS Level 1 devices
/languagelevel where {pop languagelevel}{1} ifelse
2 lt {
    userdict (<<) cvn ([) cvn load put
    userdict (>>) cvn ([) cvn load put
} if

%%EndSetup
setupLatin1
%%Page: 1 1
%%PageBoundingBox: 257 90 355 702
%%PageOrientation: Landscape
0 0 1 beginpage
gsave
257 90 98 612 boxprim clip newpath
0.165584 0.165584 set_scale 90 rotate 547.529 -2142 translate
0.000 0.000 0.000 graphcolor
14 /Times-Roman set_font
1808.5 7.9 moveto 71 (last.question) alignedtext
% 0
gsave
2 setlinewidth
bold
0.000 0.000 0.000 nodecolor
18 174 18 18 ellipse_path stroke
0.000 0.000 0.000 nodecolor
14 /Times-Roman set_font
14 169.9 moveto 8 (0) alignedtext
grestore
% 1
gsave
1 setlinewidth
solid
0.000 0.000 0.000 nodecolor
126 174 18 18 ellipse_path stroke
0.000 0.000 0.000 nodecolor
14 /Times-Roman set_font
122 169.9 moveto 8 (1) alignedtext
grestore
% 0->1
gsave
1 setlinewidth
0.000 0.000 0.000 edgecolor
newpath 36 174 moveto
53 174 78 174 98 174 curveto
stroke
0.000 0.000 0.000 edgecolor
newpath 98 177.5 moveto
108 174 lineto
98 170.5 lineto
closepath fill
1 setlinewidth
solid
0.000 0.000 0.000 edgecolor
newpath 98 177.5 moveto
108 174 lineto
98 170.5 lineto
closepath stroke
0.000 0.000 0.000 edgecolor
14 /Times-Roman set_font
51.5 178.9 moveto 41 (eps:eps) alignedtext
grestore
% 2
gsave
1 setlinewidth
solid
0.000 0.000 0.000 nodecolor
214 174 18 18 ellipse_path stroke
0.000 0.000 0.000 nodecolor
14 /Times-Roman set_font
210 169.9 moveto 8 (2) alignedtext
grestore
% 1->2
gsave
1 setlinewidth
0.000 0.000 0.000 edgecolor
newpath 144 174 moveto
156 174 172 174 186 174 curveto
stroke
0.000 0.000 0.000 edgecolor
newpath 186 177.5 moveto
196 174 lineto
186 170.5 lineto
closepath fill
1 setlinewidth
solid
0.000 0.000 0.000 edgecolor
newpath 186 177.5 moveto
196 174 lineto
186 170.5 lineto
closepath stroke
0.000 0.000 0.000 edgecolor
14 /Times-Roman set_font
159.5 178.9 moveto 21 (T:T) alignedtext
grestore
% 3
gsave
1 setlinewidth
solid
0.000 0.000 0.000 nodecolor
431 203 18 18 ellipse_path stroke
0.000 0.000 0.000 nodecolor
14 /Times-Roman set_font
427 198.9 moveto 8 (3) alignedtext
grestore
% 2->3
gsave
1 setlinewidth
0.000 0.000 0.000 edgecolor
newpath 231 179 moveto
237 180 242 181 247 182 curveto
302 192 367 198 403 201 curveto
stroke
0.000 0.000 0.000 edgecolor
newpath 402.7 204.49 moveto
413 202 lineto
403.4 197.52 lineto
closepath fill
1 setlinewidth
solid
0.000 0.000 0.000 edgecolor
newpath 402.7 204.49 moveto
413 202 lineto
403.4 197.52 lineto
closepath stroke
0.000 0.000 0.000 edgecolor
14 /Times-Roman set_font
306 200.9 moveto 38 (UW:O) alignedtext
grestore
% 86
gsave
1 setlinewidth
solid
0.000 0.000 0.000 nodecolor
325 139 20.85 20.85 ellipse_path stroke
0.000 0.000 0.000 nodecolor
14 /Times-Roman set_font
318 134.9 moveto 14 (86) alignedtext
grestore
% 2->86
gsave
1 setlinewidth
0.000 0.000 0.000 edgecolor
newpath 231 169 moveto
248 164 275 155 295 148 curveto
stroke
0.000 0.000 0.000 edgecolor
newpath 296.43 151.23 moveto
305 145 lineto
294.42 144.52 lineto
closepath fill
1 setlinewidth
solid
0.000 0.000 0.000 edgecolor
newpath 296.43 151.23 moveto
305 145 lineto
294.42 144.52 lineto
closepath stroke
0.000 0.000 0.000 edgecolor
14 /Times-Roman set_font
247.5 169.9 moveto 41 (UW:W) alignedtext
grestore
% 4
gsave
1 setlinewidth
solid
0.000 0.000 0.000 nodecolor
659 145 18 18 ellipse_path stroke
0.000 0.000 0.000 nodecolor
14 /Times-Roman set_font
655 140.9 moveto 8 (4) alignedtext
grestore
% 3->4
gsave
1 setlinewidth
0.000 0.000 0.000 edgecolor
newpath 449 202 moveto
484 199 563 191 623 166 curveto
627 165 631 163 635 161 curveto
stroke
0.000 0.000 0.000 edgecolor
newpath 636.96 163.92 moveto
644 156 lineto
633.56 157.8 lineto
closepath fill
1 setlinewidth
solid
0.000 0.000 0.000 edgecolor
newpath 636.96 163.92 moveto
644 156 lineto
633.56 157.8 lineto
closepath stroke
0.000 0.000 0.000 edgecolor
14 /Times-Roman set_font
524.5 198.9 moveto 41 (eps:eps) alignedtext
grestore
% 45
gsave
1 setlinewidth
solid
0.000 0.000 0.000 nodecolor
545 145 20.85 20.85 ellipse_path stroke
0.000 0.000 0.000 nodecolor
14 /Times-Roman set_font
538 140.9 moveto 14 (45) alignedtext
grestore
% 3->45
gsave
1 setlinewidth
0.000 0.000 0.000 edgecolor
newpath 445 191 moveto
451 186 459 180 467 176 curveto
482 168 501 160 515 155 curveto
stroke
0.000 0.000 0.000 edgecolor
newpath 517.02 157.96 moveto
525 151 lineto
514.42 151.46 lineto
closepath fill
1 setlinewidth
solid
0.000 0.000 0.000 edgecolor
newpath 517.02 157.96 moveto
525 151 lineto
514.42 151.46 lineto
closepath stroke
0.000 0.000 0.000 edgecolor
14 /Times-Roman set_font
471.5 183.9 moveto 33 (eps:O) alignedtext
grestore
% 46
gsave
1 setlinewidth
solid
0.000 0.000 0.000 nodecolor
545 265 21.04 21.04 ellipse_path stroke
0.000 0.000 0.000 nodecolor
14 /Times-Roman set_font
537.5 260.9 moveto 15 (46) alignedtext
grestore
% 3->46
gsave
1 setlinewidth
0.000 0.000 0.000 edgecolor
newpath 447 212 moveto
465 222 495 238 517 250 curveto
stroke
0.000 0.000 0.000 edgecolor
newpath 515.56 253.2 moveto
526 255 lineto
518.96 247.08 lineto
closepath fill
1 setlinewidth
solid
0.000 0.000 0.000 edgecolor
newpath 515.56 253.2 moveto
526 255 lineto
518.96 247.08 lineto
closepath stroke
0.000 0.000 0.000 edgecolor
14 /Times-Roman set_font
473.5 246.9 moveto 29 (M:M) alignedtext
grestore
% 87
gsave
1 setlinewidth
solid
0.000 0.000 0.000 nodecolor
431 139 20.85 20.85 ellipse_path stroke
0.000 0.000 0.000 nodecolor
14 /Times-Roman set_font
424 134.9 moveto 14 (87) alignedtext
grestore
% 86->87
gsave
1 setlinewidth
0.000 0.000 0.000 edgecolor
newpath 346 139 moveto
362 139 382 139 400 139 curveto
stroke
0.000 0.000 0.000 edgecolor
newpath 400 142.5 moveto
410 139 lineto
400 135.5 lineto
closepath fill
1 setlinewidth
solid
0.000 0.000 0.000 edgecolor
newpath 400 142.5 moveto
410 139 lineto
400 135.5 lineto
closepath stroke
0.000 0.000 0.000 edgecolor
14 /Times-Roman set_font
361.5 143.9 moveto 33 (eps:O) alignedtext
grestore
% 5
gsave
1 setlinewidth
solid
0.000 0.000 0.000 nodecolor
773 145 18 18 ellipse_path stroke
0.000 0.000 0.000 nodecolor
14 /Times-Roman set_font
769.5 140.9 moveto 7 (5) alignedtext
grestore
% 4->5
gsave
1 setlinewidth
0.000 0.000 0.000 edgecolor
newpath 677 145 moveto
695 145 724 145 745 145 curveto
stroke
0.000 0.000 0.000 edgecolor
newpath 745 148.5 moveto
755 145 lineto
745 141.5 lineto
closepath fill
1 setlinewidth
solid
0.000 0.000 0.000 edgecolor
newpath 745 148.5 moveto
755 145 lineto
745 141.5 lineto
closepath stroke
0.000 0.000 0.000 edgecolor
14 /Times-Roman set_font
701.5 149.9 moveto 29 (M:M) alignedtext
grestore
% 45->4
gsave
1 setlinewidth
0.000 0.000 0.000 edgecolor
newpath 566 145 moveto
585 145 611 145 631 145 curveto
stroke
0.000 0.000 0.000 edgecolor
newpath 631 148.5 moveto
641 145 lineto
631 141.5 lineto
closepath fill
1 setlinewidth
solid
0.000 0.000 0.000 edgecolor
newpath 631 148.5 moveto
641 145 lineto
631 141.5 lineto
closepath stroke
0.000 0.000 0.000 edgecolor
14 /Times-Roman set_font
581.5 149.9 moveto 41 (eps:eps) alignedtext
grestore
% 47
gsave
1 setlinewidth
solid
0.000 0.000 0.000 nodecolor
659 265 20.85 20.85 ellipse_path stroke
0.000 0.000 0.000 nodecolor
14 /Times-Roman set_font
652 260.9 moveto 14 (47) alignedtext
grestore
% 46->47
gsave
1 setlinewidth
0.000 0.000 0.000 edgecolor
newpath 566 265 moveto
583 265 608 265 628 265 curveto
stroke
0.000 0.000 0.000 edgecolor
newpath 628 268.5 moveto
638 265 lineto
628 261.5 lineto
closepath fill
1 setlinewidth
solid
0.000 0.000 0.000 edgecolor
newpath 628 268.5 moveto
638 265 lineto
628 261.5 lineto
closepath stroke
0.000 0.000 0.000 edgecolor
14 /Times-Roman set_font
586 268.9 moveto 32 (eps:B) alignedtext
grestore
% 6
gsave
1 setlinewidth
solid
0.000 0.000 0.000 nodecolor
887 73 18 18 ellipse_path stroke
0.000 0.000 0.000 nodecolor
14 /Times-Roman set_font
883 68.9 moveto 8 (6) alignedtext
grestore
% 5->6
gsave
1 setlinewidth
0.000 0.000 0.000 edgecolor
newpath 788 135 moveto
807 124 841 102 863 88 curveto
stroke
0.000 0.000 0.000 edgecolor
newpath 864.96 90.92 moveto
872 83 lineto
861.56 84.8 lineto
closepath fill
1 setlinewidth
solid
0.000 0.000 0.000 edgecolor
newpath 864.96 90.92 moveto
872 83 lineto
861.56 84.8 lineto
closepath stroke
0.000 0.000 0.000 edgecolor
14 /Times-Roman set_font
814 127.9 moveto 32 (EH:A) alignedtext
grestore
% 39
gsave
1 setlinewidth
solid
0.000 0.000 0.000 nodecolor
887 145 21.04 21.04 ellipse_path stroke
0.000 0.000 0.000 nodecolor
14 /Times-Roman set_font
879.5 140.9 moveto 15 (39) alignedtext
grestore
% 5->39
gsave
1 setlinewidth
0.000 0.000 0.000 edgecolor
newpath 791 145 moveto
808 145 835 145 856 145 curveto
stroke
0.000 0.000 0.000 edgecolor
newpath 856 148.5 moveto
866 145 lineto
856 141.5 lineto
closepath fill
1 setlinewidth
solid
0.000 0.000 0.000 edgecolor
newpath 856 148.5 moveto
866 145 lineto
856 141.5 lineto
closepath stroke
0.000 0.000 0.000 edgecolor
14 /Times-Roman set_font
815 149.9 moveto 30 (EH:E) alignedtext
grestore
% 7
gsave
1 setlinewidth
solid
0.000 0.000 0.000 nodecolor
991 61 18 18 ellipse_path stroke
0.000 0.000 0.000 nodecolor
14 /Times-Roman set_font
987.5 56.9 moveto 7 (7) alignedtext
grestore
% 6->7
gsave
1 setlinewidth
0.000 0.000 0.000 edgecolor
newpath 905 71 moveto
921 68 944 66 963 64 curveto
stroke
0.000 0.000 0.000 edgecolor
newpath 963.4 67.48 moveto
973 63 lineto
962.7 60.51 lineto
closepath fill
1 setlinewidth
solid
0.000 0.000 0.000 edgecolor
newpath 963.4 67.48 moveto
973 63 lineto
962.7 60.51 lineto
closepath stroke
0.000 0.000 0.000 edgecolor
14 /Times-Roman set_font
927.5 74.9 moveto 23 (N:N) alignedtext
grestore
% 40
gsave
1 setlinewidth
solid
0.000 0.000 0.000 nodecolor
991 145 21.04 21.04 ellipse_path stroke
0.000 0.000 0.000 nodecolor
14 /Times-Roman set_font
983.5 140.9 moveto 15 (40) alignedtext
grestore
% 39->40
gsave
1 setlinewidth
0.000 0.000 0.000 edgecolor
newpath 908 145 moveto
923 145 943 145 960 145 curveto
stroke
0.000 0.000 0.000 edgecolor
newpath 960 148.5 moveto
970 145 lineto
960 141.5 lineto
closepath fill
1 setlinewidth
solid
0.000 0.000 0.000 edgecolor
newpath 960 148.5 moveto
970 145 lineto
960 141.5 lineto
closepath stroke
0.000 0.000 0.000 edgecolor
14 /Times-Roman set_font
927.5 149.9 moveto 23 (N:N) alignedtext
grestore
% 8
gsave
1 setlinewidth
solid
0.000 0.000 0.000 nodecolor
1097 43 18 18 ellipse_path stroke
0.000 0.000 0.000 nodecolor
14 /Times-Roman set_font
1093.5 38.9 moveto 7 (8) alignedtext
grestore
% 7->8
gsave
1 setlinewidth
0.000 0.000 0.000 edgecolor
newpath 1009 58 moveto
1025 55 1050 51 1069 48 curveto
stroke
0.000 0.000 0.000 edgecolor
newpath 1069.88 51.39 moveto
1079 46 lineto
1068.51 44.53 lineto
closepath fill
1 setlinewidth
solid
0.000 0.000 0.000 edgecolor
newpath 1069.88 51.39 moveto
1079 46 lineto
1068.51 44.53 lineto
closepath stroke
0.000 0.000 0.000 edgecolor
14 /Times-Roman set_font
1027.5 60.9 moveto 33 (eps:Y) alignedtext
grestore
% 9
gsave
1 setlinewidth
solid
0.000 0.000 0.000 nodecolor
1211 136 18 18 ellipse_path stroke
0.000 0.000 0.000 nodecolor
14 /Times-Roman set_font
1207 131.9 moveto 8 (9) alignedtext
grestore
% 8->9
gsave
1 setlinewidth
0.000 0.000 0.000 edgecolor
newpath 1115 44 moveto
1133 46 1158 52 1175 66 curveto
1188 77 1197 94 1202 108 curveto
stroke
0.000 0.000 0.000 edgecolor
newpath 1199.04 110.02 moveto
1206 118 lineto
1205.54 107.42 lineto
closepath fill
1 setlinewidth
solid
0.000 0.000 0.000 edgecolor
newpath 1199.04 110.02 moveto
1206 118 lineto
1205.54 107.42 lineto
closepath stroke
0.000 0.000 0.000 edgecolor
14 /Times-Roman set_font
1136 70.9 moveto 36 (IY:eps) alignedtext
grestore
% 10
gsave
1 setlinewidth
solid
0.000 0.000 0.000 nodecolor
1639 235 21.04 21.04 ellipse_path stroke
0.000 0.000 0.000 nodecolor
14 /Times-Roman set_font
1631.5 230.9 moveto 15 (10) alignedtext
grestore
% 9->10
gsave
1 setlinewidth
0.000 0.000 0.000 edgecolor
newpath 1229 136 moveto
1249 136 1280 136 1307 136 curveto
1307 136 1307 136 1525 136 curveto
1569 136 1604 178 1623 207 curveto
stroke
0.000 0.000 0.000 edgecolor
newpath 1620.54 209.62 moveto
1629 216 lineto
1626.37 205.74 lineto
closepath fill
1 setlinewidth
solid
0.000 0.000 0.000 edgecolor
newpath 1620.54 209.62 moveto
1629 216 lineto
1626.37 205.74 lineto
closepath stroke
0.000 0.000 0.000 edgecolor
14 /Times-Roman set_font
1390.5 140.9 moveto 41 (eps:eps) alignedtext
grestore
% 11
gsave
1 setlinewidth
solid
0.000 0.000 0.000 nodecolor
2407 239 20.85 20.85 ellipse_path stroke
0.000 0.000 0.000 nodecolor
14 /Times-Roman set_font
2400 234.9 moveto 14 (11) alignedtext
grestore
% 10->11
gsave
1 setlinewidth
0.000 0.000 0.000 edgecolor
newpath 1660 236 moveto
1681 237 1714 239 1743 239 curveto
1743 239 1743 239 2293 239 curveto
2321 239 2353 239 2376 239 curveto
stroke
0.000 0.000 0.000 edgecolor
newpath 2376 242.5 moveto
2386 239 lineto
2376 235.5 lineto
closepath fill
1 setlinewidth
solid
0.000 0.000 0.000 edgecolor
newpath 2376 242.5 moveto
2386 239 lineto
2376 235.5 lineto
closepath stroke
0.000 0.000 0.000 edgecolor
14 /Times-Roman set_font
2008.5 242.9 moveto 19 (P:P) alignedtext
grestore
% 12
gsave
1 setlinewidth
solid
0.000 0.000 0.000 nodecolor
2521 288 21.04 21.04 ellipse_path stroke
0.000 0.000 0.000 nodecolor
14 /Times-Roman set_font
2513.5 283.9 moveto 15 (12) alignedtext
grestore
% 11->12
gsave
1 setlinewidth
0.000 0.000 0.000 edgecolor
newpath 2425 250 moveto
2431 253 2437 257 2443 260 curveto
2458 267 2477 273 2491 279 curveto
stroke
0.000 0.000 0.000 edgecolor
newpath 2490.42 282.48 moveto
2501 282 lineto
2492.43 275.77 lineto
closepath fill
1 setlinewidth
solid
0.000 0.000 0.000 edgecolor
newpath 2490.42 282.48 moveto
2501 282 lineto
2492.43 275.77 lineto
closepath stroke
0.000 0.000 0.000 edgecolor
14 /Times-Roman set_font
2448 277.9 moveto 32 (ER:U) alignedtext
grestore
% 31
gsave
1 setlinewidth
solid
0.000 0.000 0.000 nodecolor
2578 239 21.04 21.04 ellipse_path stroke
0.000 0.000 0.000 nodecolor
14 /Times-Roman set_font
2570.5 234.9 moveto 15 (31) alignedtext
grestore
% 11->31
gsave
1 setlinewidth
0.000 0.000 0.000 edgecolor
newpath 2428 237 moveto
2433 236 2438 236 2443 236 curveto
2478 234 2519 236 2547 237 curveto
stroke
0.000 0.000 0.000 edgecolor
newpath 2546.7 240.49 moveto
2557 238 lineto
2547.4 233.52 lineto
closepath fill
1 setlinewidth
solid
0.000 0.000 0.000 edgecolor
newpath 2546.7 240.49 moveto
2557 238 lineto
2547.4 233.52 lineto
closepath stroke
0.000 0.000 0.000 edgecolor
14 /Times-Roman set_font
2449.5 239.9 moveto 29 (ER:E) alignedtext
grestore
% 13
gsave
1 setlinewidth
solid
0.000 0.000 0.000 nodecolor
2635 288 21.04 21.04 ellipse_path stroke
0.000 0.000 0.000 nodecolor
14 /Times-Roman set_font
2627.5 283.9 moveto 15 (13) alignedtext
grestore
% 12->13
gsave
1 setlinewidth
0.000 0.000 0.000 edgecolor
newpath 2542 288 moveto
2559 288 2584 288 2604 288 curveto
stroke
0.000 0.000 0.000 edgecolor
newpath 2604 291.5 moveto
2614 288 lineto
2604 284.5 lineto
closepath fill
1 setlinewidth
solid
0.000 0.000 0.000 edgecolor
newpath 2604 291.5 moveto
2614 288 lineto
2604 284.5 lineto
closepath stroke
0.000 0.000 0.000 edgecolor
14 /Times-Roman set_font
2562 291.9 moveto 32 (eps:R) alignedtext
grestore
% 32
gsave
1 setlinewidth
solid
0.000 0.000 0.000 nodecolor
2863 239 21.04 21.04 ellipse_path stroke
0.000 0.000 0.000 nodecolor
14 /Times-Roman set_font
2855.5 234.9 moveto 15 (32) alignedtext
grestore
% 31->32
gsave
1 setlinewidth
0.000 0.000 0.000 edgecolor
newpath 2599 239 moveto
2650 239 2773 239 2832 239 curveto
stroke
0.000 0.000 0.000 edgecolor
newpath 2832 242.5 moveto
2842 239 lineto
2832 235.5 lineto
closepath fill
1 setlinewidth
solid
0.000 0.000 0.000 edgecolor
newpath 2832 242.5 moveto
2842 239 lineto
2832 235.5 lineto
closepath stroke
0.000 0.000 0.000 edgecolor
14 /Times-Roman set_font
2682 242.9 moveto 20 (S:R) alignedtext
grestore
% 14
gsave
1 setlinewidth
solid
0.000 0.000 0.000 nodecolor
2863 427 21.04 21.04 ellipse_path stroke
0.000 0.000 0.000 nodecolor
14 /Times-Roman set_font
2855.5 422.9 moveto 15 (14) alignedtext
grestore
% 13->14
gsave
1 setlinewidth
0.000 0.000 0.000 edgecolor
newpath 2653 299 moveto
2659 302 2665 306 2671 309 curveto
2739 342 2769 328 2827 376 curveto
2835 383 2842 391 2848 399 curveto
stroke
0.000 0.000 0.000 edgecolor
newpath 2845.08 400.96 moveto
2853 408 lineto
2851.2 397.56 lineto
closepath fill
1 setlinewidth
solid
0.000 0.000 0.000 edgecolor
newpath 2845.08 400.96 moveto
2853 408 lineto
2851.2 397.56 lineto
closepath stroke
0.000 0.000 0.000 edgecolor
14 /Times-Roman set_font
2728.5 343.9 moveto 41 (eps:eps) alignedtext
grestore
% 23
gsave
1 setlinewidth
solid
0.000 0.000 0.000 nodecolor
2749 288 21.04 21.04 ellipse_path stroke
0.000 0.000 0.000 nodecolor
14 /Times-Roman set_font
2741.5 283.9 moveto 15 (23) alignedtext
grestore
% 13->23
gsave
1 setlinewidth
0.000 0.000 0.000 edgecolor
newpath 2656 288 moveto
2673 288 2698 288 2718 288 curveto
stroke
0.000 0.000 0.000 edgecolor
newpath 2718 291.5 moveto
2728 288 lineto
2718 284.5 lineto
closepath fill
1 setlinewidth
solid
0.000 0.000 0.000 edgecolor
newpath 2718 291.5 moveto
2728 288 lineto
2718 284.5 lineto
closepath stroke
0.000 0.000 0.000 edgecolor
14 /Times-Roman set_font
2677 291.9 moveto 30 (S:eps) alignedtext
grestore
% 15
gsave
1 setlinewidth
solid
0.000 0.000 0.000 nodecolor
2977 423 20.85 20.85 ellipse_path stroke
0.000 0.000 0.000 nodecolor
14 /Times-Roman set_font
2970 418.9 moveto 14 (15) alignedtext
grestore
% 14->15
gsave
1 setlinewidth
0.000 0.000 0.000 edgecolor
newpath 2884 426 moveto
2901 425 2926 424 2946 424 curveto
stroke
0.000 0.000 0.000 edgecolor
newpath 2946 427.5 moveto
2956 424 lineto
2946 420.5 lineto
closepath fill
1 setlinewidth
solid
0.000 0.000 0.000 edgecolor
newpath 2946 427.5 moveto
2956 424 lineto
2946 420.5 lineto
closepath stroke
0.000 0.000 0.000 edgecolor
14 /Times-Roman set_font
2899.5 428.9 moveto 41 (eps:eps) alignedtext
grestore
% 24
gsave
1 setlinewidth
solid
0.000 0.000 0.000 nodecolor
2863 300 21.04 21.04 ellipse_path stroke
0.000 0.000 0.000 nodecolor
14 /Times-Roman set_font
2855.5 295.9 moveto 15 (24) alignedtext
grestore
% 23->24
gsave
1 setlinewidth
0.000 0.000 0.000 edgecolor
newpath 2770 290 moveto
2787 292 2812 295 2832 297 curveto
stroke
0.000 0.000 0.000 edgecolor
newpath 2831.7 300.49 moveto
2842 298 lineto
2832.4 293.52 lineto
closepath fill
1 setlinewidth
solid
0.000 0.000 0.000 edgecolor
newpath 2831.7 300.49 moveto
2842 298 lineto
2832.4 293.52 lineto
closepath stroke
0.000 0.000 0.000 edgecolor
14 /Times-Roman set_font
2791 298.9 moveto 30 (eps:S) alignedtext
grestore
% 16
gsave
1 setlinewidth
solid
0.000 0.000 0.000 nodecolor
3091 422 21.04 21.04 ellipse_path stroke
0.000 0.000 0.000 nodecolor
14 /Times-Roman set_font
3083.5 417.9 moveto 15 (16) alignedtext
grestore
% 15->16
gsave
1 setlinewidth
0.000 0.000 0.000 edgecolor
newpath 2998 423 moveto
3015 423 3040 423 3060 422 curveto
stroke
0.000 0.000 0.000 edgecolor
newpath 3060 425.5 moveto
3070 422 lineto
3060 418.5 lineto
closepath fill
1 setlinewidth
solid
0.000 0.000 0.000 edgecolor
newpath 3060 425.5 moveto
3070 422 lineto
3060 418.5 lineto
closepath stroke
0.000 0.000 0.000 edgecolor
14 /Times-Roman set_font
3024.5 425.9 moveto 19 (S:S) alignedtext
grestore
% 17
gsave
1 setlinewidth
solid
0.000 0.000 0.000 nodecolor
3205 422 20.85 20.85 ellipse_path stroke
0.000 0.000 0.000 nodecolor
14 /Times-Roman set_font
3198 417.9 moveto 14 (17) alignedtext
grestore
% 16->17
gsave
1 setlinewidth
0.000 0.000 0.000 edgecolor
newpath 3112 422 moveto
3129 422 3154 422 3174 422 curveto
stroke
0.000 0.000 0.000 edgecolor
newpath 3174 425.5 moveto
3184 422 lineto
3174 418.5 lineto
closepath fill
1 setlinewidth
solid
0.000 0.000 0.000 edgecolor
newpath 3174 425.5 moveto
3184 422 lineto
3174 418.5 lineto
closepath stroke
0.000 0.000 0.000 edgecolor
14 /Times-Roman set_font
3130.5 425.9 moveto 35 (AH:U) alignedtext
grestore
% 18
gsave
1 setlinewidth
solid
0.000 0.000 0.000 nodecolor
3313 422 20.85 20.85 ellipse_path stroke
0.000 0.000 0.000 nodecolor
14 /Times-Roman set_font
3306 417.9 moveto 14 (18) alignedtext
grestore
% 17->18
gsave
1 setlinewidth
0.000 0.000 0.000 edgecolor
newpath 3226 422 moveto
3242 422 3264 422 3282 422 curveto
stroke
0.000 0.000 0.000 edgecolor
newpath 3282 425.5 moveto
3292 422 lineto
3282 418.5 lineto
closepath fill
1 setlinewidth
solid
0.000 0.000 0.000 edgecolor
newpath 3282 425.5 moveto
3292 422 lineto
3282 418.5 lineto
closepath stroke
0.000 0.000 0.000 edgecolor
14 /Times-Roman set_font
3247.5 425.9 moveto 23 (N:N) alignedtext
grestore
% 19
gsave
1 setlinewidth
solid
0.000 0.000 0.000 nodecolor
3419 422 21.12 21.12 ellipse_path stroke
1 setlinewidth
solid
0.000 0.000 0.000 nodecolor
3419 422 25.04 25.04 ellipse_path stroke
0.000 0.000 0.000 nodecolor
14 /Times-Roman set_font
3411.5 417.9 moveto 15 (19) alignedtext
grestore
% 18->19
gsave
1 setlinewidth
0.000 0.000 0.000 edgecolor
newpath 3334 422 moveto
3348 422 3367 422 3384 422 curveto
stroke
0.000 0.000 0.000 edgecolor
newpath 3384 425.5 moveto
3394 422 lineto
3384 418.5 lineto
closepath fill
1 setlinewidth
solid
0.000 0.000 0.000 edgecolor
newpath 3384 425.5 moveto
3394 422 lineto
3384 418.5 lineto
closepath stroke
0.000 0.000 0.000 edgecolor
14 /Times-Roman set_font
3354 425.9 moveto 20 (Z:S) alignedtext
grestore
% 20
gsave
1 setlinewidth
solid
0.000 0.000 0.000 nodecolor
3419 358 21.04 21.04 ellipse_path stroke
0.000 0.000 0.000 nodecolor
14 /Times-Roman set_font
3411.5 353.9 moveto 15 (20) alignedtext
grestore
% 18->20
gsave
1 setlinewidth
0.000 0.000 0.000 edgecolor
newpath 3331 411 moveto
3347 401 3373 386 3392 374 curveto
stroke
0.000 0.000 0.000 edgecolor
newpath 3393.96 376.92 moveto
3401 369 lineto
3390.56 370.8 lineto
closepath fill
1 setlinewidth
solid
0.000 0.000 0.000 edgecolor
newpath 3393.96 376.92 moveto
3401 369 lineto
3390.56 370.8 lineto
closepath stroke
0.000 0.000 0.000 edgecolor
14 /Times-Roman set_font
3357 401.9 moveto 14 (Z:') alignedtext
grestore
% 21
gsave
1 setlinewidth
solid
0.000 0.000 0.000 nodecolor
3541 323 21.04 21.04 ellipse_path stroke
0.000 0.000 0.000 nodecolor
14 /Times-Roman set_font
3533.5 318.9 moveto 15 (21) alignedtext
grestore
% 20->21
gsave
1 setlinewidth
0.000 0.000 0.000 edgecolor
newpath 3439 352 moveto
3459 347 3488 338 3510 332 curveto
stroke
0.000 0.000 0.000 edgecolor
newpath 3511.43 335.23 moveto
3520 329 lineto
3509.42 328.52 lineto
closepath fill
1 setlinewidth
solid
0.000 0.000 0.000 edgecolor
newpath 3511.43 335.23 moveto
3520 329 lineto
3509.42 328.52 lineto
closepath stroke
0.000 0.000 0.000 edgecolor
14 /Times-Roman set_font
3465 348.9 moveto 30 (eps:S) alignedtext
grestore
% 22
gsave
1 setlinewidth
solid
0.000 0.000 0.000 nodecolor
3663 323 21.12 21.12 ellipse_path stroke
1 setlinewidth
solid
0.000 0.000 0.000 nodecolor
3663 323 25.04 25.04 ellipse_path stroke
0.000 0.000 0.000 nodecolor
14 /Times-Roman set_font
3655.5 318.9 moveto 15 (22) alignedtext
grestore
% 21->22
gsave
1 setlinewidth
0.000 0.000 0.000 edgecolor
newpath 3562 323 moveto
3580 323 3606 323 3628 323 curveto
stroke
0.000 0.000 0.000 edgecolor
newpath 3628 326.5 moveto
3638 323 lineto
3628 319.5 lineto
closepath fill
1 setlinewidth
solid
0.000 0.000 0.000 edgecolor
newpath 3628 326.5 moveto
3638 323 lineto
3628 319.5 lineto
closepath stroke
0.000 0.000 0.000 edgecolor
14 /Times-Roman set_font
3581.5 326.9 moveto 41 (eps:eps) alignedtext
grestore
% 25
gsave
1 setlinewidth
solid
0.000 0.000 0.000 nodecolor
2977 301 20.85 20.85 ellipse_path stroke
0.000 0.000 0.000 nodecolor
14 /Times-Roman set_font
2970 296.9 moveto 14 (25) alignedtext
grestore
% 24->25
gsave
1 setlinewidth
0.000 0.000 0.000 edgecolor
newpath 2884 300 moveto
2901 300 2926 300 2946 301 curveto
stroke
0.000 0.000 0.000 edgecolor
newpath 2946 304.5 moveto
2956 301 lineto
2946 297.5 lineto
closepath fill
1 setlinewidth
solid
0.000 0.000 0.000 edgecolor
newpath 2946 304.5 moveto
2956 301 lineto
2946 297.5 lineto
closepath stroke
0.000 0.000 0.000 edgecolor
14 /Times-Roman set_font
2904.5 303.9 moveto 31 (eps:E) alignedtext
grestore
% 26
gsave
1 setlinewidth
solid
0.000 0.000 0.000 nodecolor
3091 237 21.04 21.04 ellipse_path stroke
0.000 0.000 0.000 nodecolor
14 /Times-Roman set_font
3083.5 232.9 moveto 15 (26) alignedtext
grestore
% 25->26
gsave
1 setlinewidth
0.000 0.000 0.000 edgecolor
newpath 2989 284 moveto
2999 269 3012 251 3013 251 curveto
3027 242 3045 238 3060 237 curveto
stroke
0.000 0.000 0.000 edgecolor
newpath 3060 240.5 moveto
3070 237 lineto
3060 233.5 lineto
closepath fill
1 setlinewidth
solid
0.000 0.000 0.000 edgecolor
newpath 3060 240.5 moveto
3070 237 lineto
3060 233.5 lineto
closepath stroke
0.000 0.000 0.000 edgecolor
14 /Times-Roman set_font
3013.5 255.9 moveto 41 (eps:eps) alignedtext
grestore
% 27
gsave
1 setlinewidth
solid
0.000 0.000 0.000 nodecolor
3205 235 20.85 20.85 ellipse_path stroke
0.000 0.000 0.000 nodecolor
14 /Times-Roman set_font
3198 230.9 moveto 14 (27) alignedtext
grestore
% 26->27
gsave
1 setlinewidth
0.000 0.000 0.000 edgecolor
newpath 3112 237 moveto
3129 236 3154 236 3174 235 curveto
stroke
0.000 0.000 0.000 edgecolor
newpath 3174 238.5 moveto
3184 235 lineto
3174 231.5 lineto
closepath fill
1 setlinewidth
solid
0.000 0.000 0.000 edgecolor
newpath 3174 238.5 moveto
3184 235 lineto
3174 231.5 lineto
closepath stroke
0.000 0.000 0.000 edgecolor
14 /Times-Roman set_font
3127.5 238.9 moveto 41 (eps:eps) alignedtext
grestore
% 28
gsave
1 setlinewidth
solid
0.000 0.000 0.000 nodecolor
3313 235 20.85 20.85 ellipse_path stroke
0.000 0.000 0.000 nodecolor
14 /Times-Roman set_font
3306 230.9 moveto 14 (28) alignedtext
grestore
% 27->28
gsave
1 setlinewidth
0.000 0.000 0.000 edgecolor
newpath 3226 235 moveto
3242 235 3264 235 3282 235 curveto
stroke
0.000 0.000 0.000 edgecolor
newpath 3282 238.5 moveto
3292 235 lineto
3282 231.5 lineto
closepath fill
1 setlinewidth
solid
0.000 0.000 0.000 edgecolor
newpath 3282 238.5 moveto
3292 235 lineto
3282 231.5 lineto
closepath stroke
0.000 0.000 0.000 edgecolor
14 /Times-Roman set_font
3241.5 238.9 moveto 35 (AH:U) alignedtext
grestore
% 29
gsave
1 setlinewidth
solid
0.000 0.000 0.000 nodecolor
3419 235 21.04 21.04 ellipse_path stroke
0.000 0.000 0.000 nodecolor
14 /Times-Roman set_font
3411.5 230.9 moveto 15 (29) alignedtext
grestore
% 28->29
gsave
1 setlinewidth
0.000 0.000 0.000 edgecolor
newpath 3334 235 moveto
3350 235 3370 235 3388 235 curveto
stroke
0.000 0.000 0.000 edgecolor
newpath 3388 238.5 moveto
3398 235 lineto
3388 231.5 lineto
closepath fill
1 setlinewidth
solid
0.000 0.000 0.000 edgecolor
newpath 3388 238.5 moveto
3398 235 lineto
3388 231.5 lineto
closepath stroke
0.000 0.000 0.000 edgecolor
14 /Times-Roman set_font
3352.5 238.9 moveto 23 (N:N) alignedtext
grestore
% 30
gsave
1 setlinewidth
solid
0.000 0.000 0.000 nodecolor
3541 235 21.12 21.12 ellipse_path stroke
1 setlinewidth
solid
0.000 0.000 0.000 nodecolor
3541 235 25.04 25.04 ellipse_path stroke
0.000 0.000 0.000 nodecolor
14 /Times-Roman set_font
3533.5 230.9 moveto 15 (30) alignedtext
grestore
% 29->30
gsave
1 setlinewidth
0.000 0.000 0.000 edgecolor
newpath 3440 235 moveto
3458 235 3484 235 3506 235 curveto
stroke
0.000 0.000 0.000 edgecolor
newpath 3506 238.5 moveto
3516 235 lineto
3506 231.5 lineto
closepath fill
1 setlinewidth
solid
0.000 0.000 0.000 edgecolor
newpath 3506 238.5 moveto
3516 235 lineto
3506 231.5 lineto
closepath stroke
0.000 0.000 0.000 edgecolor
14 /Times-Roman set_font
3470 238.9 moveto 20 (Z:Z) alignedtext
grestore
% 33
gsave
1 setlinewidth
solid
0.000 0.000 0.000 nodecolor
2977 181 21.04 21.04 ellipse_path stroke
0.000 0.000 0.000 nodecolor
14 /Times-Roman set_font
2969.5 176.9 moveto 15 (33) alignedtext
grestore
% 32->33
gsave
1 setlinewidth
0.000 0.000 0.000 edgecolor
newpath 2881 228 moveto
2887 225 2893 221 2899 218 curveto
2915 210 2934 201 2949 194 curveto
stroke
0.000 0.000 0.000 edgecolor
newpath 2950.28 197.26 moveto
2958 190 lineto
2947.44 190.86 lineto
closepath fill
1 setlinewidth
solid
0.000 0.000 0.000 edgecolor
newpath 2950.28 197.26 moveto
2958 190 lineto
2947.44 190.86 lineto
closepath stroke
0.000 0.000 0.000 edgecolor
14 /Times-Roman set_font
2905 221.9 moveto 30 (eps:S) alignedtext
grestore
% 34
gsave
1 setlinewidth
solid
0.000 0.000 0.000 nodecolor
2977 241 21.04 21.04 ellipse_path stroke
0.000 0.000 0.000 nodecolor
14 /Times-Roman set_font
2969.5 236.9 moveto 15 (34) alignedtext
grestore
% 32->34
gsave
1 setlinewidth
0.000 0.000 0.000 edgecolor
newpath 2884 239 moveto
2901 240 2926 240 2946 241 curveto
stroke
0.000 0.000 0.000 edgecolor
newpath 2946 244.5 moveto
2956 241 lineto
2946 237.5 lineto
closepath fill
1 setlinewidth
solid
0.000 0.000 0.000 edgecolor
newpath 2946 244.5 moveto
2956 241 lineto
2946 237.5 lineto
closepath stroke
0.000 0.000 0.000 edgecolor
14 /Times-Roman set_font
2904 242.9 moveto 32 (AH:S) alignedtext
grestore
% 33->26
gsave
1 setlinewidth
0.000 0.000 0.000 edgecolor
newpath 2996 190 moveto
3012 197 3035 208 3055 218 curveto
3058 219 3060 221 3063 222 curveto
stroke
0.000 0.000 0.000 edgecolor
newpath 3061.56 225.2 moveto
3072 227 lineto
3064.96 219.08 lineto
closepath fill
1 setlinewidth
solid
0.000 0.000 0.000 edgecolor
newpath 3061.56 225.2 moveto
3072 227 lineto
3064.96 219.08 lineto
closepath stroke
0.000 0.000 0.000 edgecolor
14 /Times-Roman set_font
3018.5 221.9 moveto 31 (eps:E) alignedtext
grestore
% 33->27
gsave
1 setlinewidth
0.000 0.000 0.000 edgecolor
newpath 2998 180 moveto
3025 179 3073 180 3112 190 curveto
3136 196 3160 208 3178 219 curveto
stroke
0.000 0.000 0.000 edgecolor
newpath 3176.56 222.2 moveto
3187 224 lineto
3179.96 216.08 lineto
closepath fill
1 setlinewidth
solid
0.000 0.000 0.000 edgecolor
newpath 3176.56 222.2 moveto
3187 224 lineto
3179.96 216.08 lineto
closepath stroke
0.000 0.000 0.000 edgecolor
14 /Times-Roman set_font
3070.5 194.9 moveto 41 (eps:eps) alignedtext
grestore
% 35
gsave
1 setlinewidth
solid
0.000 0.000 0.000 nodecolor
3091 298 20.85 20.85 ellipse_path stroke
0.000 0.000 0.000 nodecolor
14 /Times-Roman set_font
3084 293.9 moveto 14 (35) alignedtext
grestore
% 34->35
gsave
1 setlinewidth
0.000 0.000 0.000 edgecolor
newpath 2991 257 moveto
2997 263 3005 270 3013 275 curveto
3027 283 3045 289 3060 292 curveto
stroke
0.000 0.000 0.000 edgecolor
newpath 3059.42 295.48 moveto
3070 295 lineto
3061.43 288.77 lineto
closepath fill
1 setlinewidth
solid
0.000 0.000 0.000 edgecolor
newpath 3059.42 295.48 moveto
3070 295 lineto
3061.43 288.77 lineto
closepath stroke
0.000 0.000 0.000 edgecolor
14 /Times-Roman set_font
3022 291.9 moveto 24 (N:O) alignedtext
grestore
% 36
gsave
1 setlinewidth
solid
0.000 0.000 0.000 nodecolor
3205 298 21.04 21.04 ellipse_path stroke
0.000 0.000 0.000 nodecolor
14 /Times-Roman set_font
3197.5 293.9 moveto 15 (36) alignedtext
grestore
% 35->36
gsave
1 setlinewidth
0.000 0.000 0.000 edgecolor
newpath 3112 298 moveto
3129 298 3154 298 3174 298 curveto
stroke
0.000 0.000 0.000 edgecolor
newpath 3174 301.5 moveto
3184 298 lineto
3174 294.5 lineto
closepath fill
1 setlinewidth
solid
0.000 0.000 0.000 edgecolor
newpath 3174 301.5 moveto
3184 298 lineto
3174 294.5 lineto
closepath stroke
0.000 0.000 0.000 edgecolor
14 /Times-Roman set_font
3132 301.9 moveto 32 (eps:N) alignedtext
grestore
% 37
gsave
1 setlinewidth
solid
0.000 0.000 0.000 nodecolor
3313 298 20.85 20.85 ellipse_path stroke
0.000 0.000 0.000 nodecolor
14 /Times-Roman set_font
3306 293.9 moveto 14 (37) alignedtext
grestore
% 36->37
gsave
1 setlinewidth
0.000 0.000 0.000 edgecolor
newpath 3226 298 moveto
3242 298 3264 298 3282 298 curveto
stroke
0.000 0.000 0.000 edgecolor
newpath 3282 301.5 moveto
3292 298 lineto
3282 294.5 lineto
closepath fill
1 setlinewidth
solid
0.000 0.000 0.000 edgecolor
newpath 3282 301.5 moveto
3292 298 lineto
3282 294.5 lineto
closepath stroke
0.000 0.000 0.000 edgecolor
14 /Times-Roman set_font
3252 301.9 moveto 14 (Z:') alignedtext
grestore
% 38
gsave
1 setlinewidth
solid
0.000 0.000 0.000 nodecolor
3419 298 20.85 20.85 ellipse_path stroke
0.000 0.000 0.000 nodecolor
14 /Times-Roman set_font
3412 293.9 moveto 14 (38) alignedtext
grestore
% 37->38
gsave
1 setlinewidth
0.000 0.000 0.000 edgecolor
newpath 3334 298 moveto
3350 298 3370 298 3388 298 curveto
stroke
0.000 0.000 0.000 edgecolor
newpath 3388 301.5 moveto
3398 298 lineto
3388 294.5 lineto
closepath fill
1 setlinewidth
solid
0.000 0.000 0.000 edgecolor
newpath 3388 301.5 moveto
3398 298 lineto
3388 294.5 lineto
closepath stroke
0.000 0.000 0.000 edgecolor
14 /Times-Roman set_font
3349 301.9 moveto 30 (eps:S) alignedtext
grestore
% 38->21
gsave
1 setlinewidth
0.000 0.000 0.000 edgecolor
newpath 3440 299 moveto
3457 301 3481 304 3501 309 curveto
3504 310 3508 311 3511 312 curveto
stroke
0.000 0.000 0.000 edgecolor
newpath 3510.42 315.48 moveto
3521 315 lineto
3512.43 308.77 lineto
closepath fill
1 setlinewidth
solid
0.000 0.000 0.000 edgecolor
newpath 3510.42 315.48 moveto
3521 315 lineto
3512.43 308.77 lineto
closepath stroke
0.000 0.000 0.000 edgecolor
14 /Times-Roman set_font
3459.5 312.9 moveto 41 (eps:eps) alignedtext
grestore
% 41
gsave
1 setlinewidth
solid
0.000 0.000 0.000 nodecolor
1211 211 21.04 21.04 ellipse_path stroke
0.000 0.000 0.000 nodecolor
14 /Times-Roman set_font
1203.5 206.9 moveto 15 (41) alignedtext
grestore
% 40->41
gsave
1 setlinewidth
0.000 0.000 0.000 edgecolor
newpath 1009 134 moveto
1026 124 1052 111 1076 106 curveto
1095 103 1100 102 1118 106 curveto
1146 113 1156 114 1175 134 curveto
1178 137 1189 162 1198 183 curveto
stroke
0.000 0.000 0.000 edgecolor
newpath 1194.74 184.28 moveto
1202 192 lineto
1201.14 181.44 lineto
closepath fill
1 setlinewidth
solid
0.000 0.000 0.000 edgecolor
newpath 1194.74 184.28 moveto
1202 192 lineto
1201.14 181.44 lineto
closepath stroke
0.000 0.000 0.000 edgecolor
14 /Times-Roman set_font
1076.5 113.9 moveto 41 (eps:eps) alignedtext
grestore
% 44
gsave
1 setlinewidth
solid
0.000 0.000 0.000 nodecolor
1097 153 21.04 21.04 ellipse_path stroke
0.000 0.000 0.000 nodecolor
14 /Times-Roman set_font
1089.5 148.9 moveto 15 (44) alignedtext
grestore
% 40->44
gsave
1 setlinewidth
0.000 0.000 0.000 edgecolor
newpath 1012 147 moveto
1028 148 1048 149 1066 150 curveto
stroke
0.000 0.000 0.000 edgecolor
newpath 1065.7 153.49 moveto
1076 151 lineto
1066.4 146.52 lineto
closepath fill
1 setlinewidth
solid
0.000 0.000 0.000 edgecolor
newpath 1065.7 153.49 moveto
1076 151 lineto
1066.4 146.52 lineto
closepath stroke
0.000 0.000 0.000 edgecolor
14 /Times-Roman set_font
1028 155.9 moveto 32 (eps:N) alignedtext
grestore
% 42
gsave
1 setlinewidth
solid
0.000 0.000 0.000 nodecolor
1411 211 21.04 21.04 ellipse_path stroke
0.000 0.000 0.000 nodecolor
14 /Times-Roman set_font
1403.5 206.9 moveto 15 (42) alignedtext
grestore
% 41->42
gsave
1 setlinewidth
0.000 0.000 0.000 edgecolor
newpath 1232 211 moveto
1267 211 1338 211 1380 211 curveto
stroke
0.000 0.000 0.000 edgecolor
newpath 1380 214.5 moveto
1390 211 lineto
1380 207.5 lineto
closepath fill
1 setlinewidth
solid
0.000 0.000 0.000 edgecolor
newpath 1380 214.5 moveto
1390 211 lineto
1380 207.5 lineto
closepath stroke
0.000 0.000 0.000 edgecolor
14 /Times-Roman set_font
1294 214.9 moveto 26 (IY:E) alignedtext
grestore
% 44->41
gsave
1 setlinewidth
0.000 0.000 0.000 edgecolor
newpath 1116 163 moveto
1134 172 1162 186 1183 196 curveto
stroke
0.000 0.000 0.000 edgecolor
newpath 1181.56 199.2 moveto
1192 201 lineto
1184.96 193.08 lineto
closepath fill
1 setlinewidth
solid
0.000 0.000 0.000 edgecolor
newpath 1181.56 199.2 moveto
1192 201 lineto
1184.96 193.08 lineto
closepath stroke
0.000 0.000 0.000 edgecolor
14 /Times-Roman set_font
1133.5 197.9 moveto 41 (eps:eps) alignedtext
grestore
% 42->10
gsave
1 setlinewidth
0.000 0.000 0.000 edgecolor
newpath 1431 205 moveto
1436 204 1442 203 1447 202 curveto
1505 196 1571 213 1609 225 curveto
stroke
0.000 0.000 0.000 edgecolor
newpath 1608.42 228.48 moveto
1619 228 lineto
1610.43 221.77 lineto
closepath fill
1 setlinewidth
solid
0.000 0.000 0.000 edgecolor
newpath 1608.42 228.48 moveto
1619 228 lineto
1610.43 221.77 lineto
closepath stroke
0.000 0.000 0.000 edgecolor
14 /Times-Roman set_font
1504.5 210.9 moveto 41 (eps:eps) alignedtext
grestore
% 43
gsave
1 setlinewidth
solid
0.000 0.000 0.000 nodecolor
1525 291 21.04 21.04 ellipse_path stroke
0.000 0.000 0.000 nodecolor
14 /Times-Roman set_font
1517.5 286.9 moveto 15 (43) alignedtext
grestore
% 42->43
gsave
1 setlinewidth
0.000 0.000 0.000 edgecolor
newpath 1423 228 moveto
1430 237 1438 247 1447 254 curveto
1462 265 1481 274 1496 280 curveto
stroke
0.000 0.000 0.000 edgecolor
newpath 1494.44 283.14 moveto
1505 284 lineto
1497.28 276.74 lineto
closepath fill
1 setlinewidth
solid
0.000 0.000 0.000 edgecolor
newpath 1494.44 283.14 moveto
1505 284 lineto
1497.28 276.74 lineto
closepath stroke
0.000 0.000 0.000 edgecolor
14 /Times-Roman set_font
1455 279.9 moveto 26 (eps:.) alignedtext
grestore
% 43->10
gsave
1 setlinewidth
0.000 0.000 0.000 edgecolor
newpath 1544 282 moveto
1562 273 1590 259 1611 249 curveto
stroke
0.000 0.000 0.000 edgecolor
newpath 1612.96 251.92 moveto
1620 244 lineto
1609.56 245.8 lineto
closepath fill
1 setlinewidth
solid
0.000 0.000 0.000 edgecolor
newpath 1612.96 251.92 moveto
1620 244 lineto
1609.56 245.8 lineto
closepath stroke
0.000 0.000 0.000 edgecolor
14 /Times-Roman set_font
1561.5 275.9 moveto 41 (eps:eps) alignedtext
grestore
% 48
gsave
1 setlinewidth
solid
0.000 0.000 0.000 nodecolor
773 265 20.85 20.85 ellipse_path stroke
0.000 0.000 0.000 nodecolor
14 /Times-Roman set_font
766 260.9 moveto 14 (48) alignedtext
grestore
% 47->48
gsave
1 setlinewidth
0.000 0.000 0.000 edgecolor
newpath 680 265 moveto
697 265 722 265 742 265 curveto
stroke
0.000 0.000 0.000 edgecolor
newpath 742 268.5 moveto
752 265 lineto
742 261.5 lineto
closepath fill
1 setlinewidth
solid
0.000 0.000 0.000 edgecolor
newpath 742 268.5 moveto
752 265 lineto
742 261.5 lineto
closepath stroke
0.000 0.000 0.000 edgecolor
14 /Times-Roman set_font
695.5 268.9 moveto 41 (eps:eps) alignedtext
grestore
% 49
gsave
1 setlinewidth
solid
0.000 0.000 0.000 nodecolor
887 266 21.04 21.04 ellipse_path stroke
0.000 0.000 0.000 nodecolor
14 /Times-Roman set_font
879.5 261.9 moveto 15 (49) alignedtext
grestore
% 48->49
gsave
1 setlinewidth
0.000 0.000 0.000 edgecolor
newpath 794 265 moveto
811 265 836 265 856 266 curveto
stroke
0.000 0.000 0.000 edgecolor
newpath 856 269.5 moveto
866 266 lineto
856 262.5 lineto
closepath fill
1 setlinewidth
solid
0.000 0.000 0.000 edgecolor
newpath 856 269.5 moveto
866 266 lineto
856 262.5 lineto
closepath stroke
0.000 0.000 0.000 edgecolor
14 /Times-Roman set_font
809.5 268.9 moveto 41 (eps:eps) alignedtext
grestore
% 50
gsave
1 setlinewidth
solid
0.000 0.000 0.000 nodecolor
991 266 20.85 20.85 ellipse_path stroke
0.000 0.000 0.000 nodecolor
14 /Times-Roman set_font
984 261.9 moveto 14 (50) alignedtext
grestore
% 49->50
gsave
1 setlinewidth
0.000 0.000 0.000 edgecolor
newpath 908 266 moveto
923 266 943 266 960 266 curveto
stroke
0.000 0.000 0.000 edgecolor
newpath 960 269.5 moveto
970 266 lineto
960 262.5 lineto
closepath fill
1 setlinewidth
solid
0.000 0.000 0.000 edgecolor
newpath 960 269.5 moveto
970 266 lineto
960 262.5 lineto
closepath stroke
0.000 0.000 0.000 edgecolor
14 /Times-Roman set_font
923 269.9 moveto 32 (EH:N) alignedtext
grestore
% 53
gsave
1 setlinewidth
solid
0.000 0.000 0.000 nodecolor
991 333 20.85 20.85 ellipse_path stroke
0.000 0.000 0.000 nodecolor
14 /Times-Roman set_font
984 328.9 moveto 14 (53) alignedtext
grestore
% 49->53
gsave
1 setlinewidth
0.000 0.000 0.000 edgecolor
newpath 905 278 moveto
921 288 946 304 965 316 curveto
stroke
0.000 0.000 0.000 edgecolor
newpath 962.9 318.8 moveto
973 322 lineto
967.1 313.2 lineto
closepath fill
1 setlinewidth
solid
0.000 0.000 0.000 edgecolor
newpath 962.9 318.8 moveto
973 322 lineto
967.1 313.2 lineto
closepath stroke
0.000 0.000 0.000 edgecolor
14 /Times-Roman set_font
924 312.9 moveto 30 (EH:E) alignedtext
grestore
% 51
gsave
1 setlinewidth
solid
0.000 0.000 0.000 nodecolor
1097 273 20.85 20.85 ellipse_path stroke
0.000 0.000 0.000 nodecolor
14 /Times-Roman set_font
1090 268.9 moveto 14 (51) alignedtext
grestore
% 50->51
gsave
1 setlinewidth
0.000 0.000 0.000 edgecolor
newpath 1012 267 moveto
1028 268 1048 269 1066 270 curveto
stroke
0.000 0.000 0.000 edgecolor
newpath 1065.7 273.49 moveto
1076 271 lineto
1066.4 266.52 lineto
closepath fill
1 setlinewidth
solid
0.000 0.000 0.000 edgecolor
newpath 1065.7 273.49 moveto
1076 271 lineto
1066.4 266.52 lineto
closepath stroke
0.000 0.000 0.000 edgecolor
14 /Times-Roman set_font
1028 272.9 moveto 32 (N:eps) alignedtext
grestore
% 52
gsave
1 setlinewidth
solid
0.000 0.000 0.000 nodecolor
1097 213 20.85 20.85 ellipse_path stroke
0.000 0.000 0.000 nodecolor
14 /Times-Roman set_font
1090 208.9 moveto 14 (52) alignedtext
grestore
% 50->52
gsave
1 setlinewidth
0.000 0.000 0.000 edgecolor
newpath 1009 255 moveto
1015 252 1021 249 1027 246 curveto
1041 239 1056 232 1069 226 curveto
stroke
0.000 0.000 0.000 edgecolor
newpath 1070.28 229.26 moveto
1078 222 lineto
1067.44 222.86 lineto
closepath fill
1 setlinewidth
solid
0.000 0.000 0.000 edgecolor
newpath 1070.28 229.26 moveto
1078 222 lineto
1067.44 222.86 lineto
closepath stroke
0.000 0.000 0.000 edgecolor
14 /Times-Roman set_font
1033 249.9 moveto 22 (N:E) alignedtext
grestore
% 54
gsave
1 setlinewidth
solid
0.000 0.000 0.000 nodecolor
1097 393 20.85 20.85 ellipse_path stroke
0.000 0.000 0.000 nodecolor
14 /Times-Roman set_font
1090 388.9 moveto 14 (54) alignedtext
grestore
% 53->54
gsave
1 setlinewidth
0.000 0.000 0.000 edgecolor
newpath 1009 343 moveto
1015 347 1021 350 1027 354 curveto
1041 362 1057 371 1070 378 curveto
stroke
0.000 0.000 0.000 edgecolor
newpath 1068.56 381.2 moveto
1079 383 lineto
1071.96 375.08 lineto
closepath fill
1 setlinewidth
solid
0.000 0.000 0.000 edgecolor
newpath 1068.56 381.2 moveto
1079 383 lineto
1071.96 375.08 lineto
closepath stroke
0.000 0.000 0.000 edgecolor
14 /Times-Roman set_font
1028 374.9 moveto 32 (eps:H) alignedtext
grestore
% 85
gsave
1 setlinewidth
solid
0.000 0.000 0.000 nodecolor
1097 333 20.85 20.85 ellipse_path stroke
0.000 0.000 0.000 nodecolor
14 /Times-Roman set_font
1090 328.9 moveto 14 (85) alignedtext
grestore
% 53->85
gsave
1 setlinewidth
0.000 0.000 0.000 edgecolor
newpath 1012 333 moveto
1028 333 1048 333 1066 333 curveto
stroke
0.000 0.000 0.000 edgecolor
newpath 1066 336.5 moveto
1076 333 lineto
1066 329.5 lineto
closepath fill
1 setlinewidth
solid
0.000 0.000 0.000 edgecolor
newpath 1066 336.5 moveto
1076 333 lineto
1066 329.5 lineto
closepath stroke
0.000 0.000 0.000 edgecolor
14 /Times-Roman set_font
1032.5 336.9 moveto 23 (N:N) alignedtext
grestore
% 51->41
gsave
1 setlinewidth
0.000 0.000 0.000 edgecolor
newpath 1116 263 moveto
1134 253 1162 237 1183 226 curveto
stroke
0.000 0.000 0.000 edgecolor
newpath 1184.96 228.92 moveto
1192 221 lineto
1181.56 222.8 lineto
closepath fill
1 setlinewidth
solid
0.000 0.000 0.000 edgecolor
newpath 1184.96 228.92 moveto
1192 221 lineto
1181.56 222.8 lineto
closepath stroke
0.000 0.000 0.000 edgecolor
14 /Times-Roman set_font
1133.5 254.9 moveto 41 (eps:eps) alignedtext
grestore
% 52->9
gsave
1 setlinewidth
0.000 0.000 0.000 edgecolor
newpath 1110 196 moveto
1113 192 1116 188 1118 183 curveto
1126 170 1121 162 1133 152 curveto
1147 141 1167 137 1183 136 curveto
stroke
0.000 0.000 0.000 edgecolor
newpath 1183 139.5 moveto
1193 136 lineto
1183 132.5 lineto
closepath fill
1 setlinewidth
solid
0.000 0.000 0.000 edgecolor
newpath 1183 139.5 moveto
1193 136 lineto
1183 132.5 lineto
closepath stroke
0.000 0.000 0.000 edgecolor
14 /Times-Roman set_font
1136 159.9 moveto 36 (IY:eps) alignedtext
grestore
% 55
gsave
1 setlinewidth
solid
0.000 0.000 0.000 nodecolor
1211 393 20.85 20.85 ellipse_path stroke
0.000 0.000 0.000 nodecolor
14 /Times-Roman set_font
1204 388.9 moveto 14 (55) alignedtext
grestore
% 54->55
gsave
1 setlinewidth
0.000 0.000 0.000 edgecolor
newpath 1118 393 moveto
1135 393 1160 393 1180 393 curveto
stroke
0.000 0.000 0.000 edgecolor
newpath 1180 396.5 moveto
1190 393 lineto
1180 389.5 lineto
closepath fill
1 setlinewidth
solid
0.000 0.000 0.000 edgecolor
newpath 1180 396.5 moveto
1190 393 lineto
1180 389.5 lineto
closepath stroke
0.000 0.000 0.000 edgecolor
14 /Times-Roman set_font
1133.5 396.9 moveto 41 (eps:eps) alignedtext
grestore
% 85->41
gsave
1 setlinewidth
0.000 0.000 0.000 edgecolor
newpath 1115 322 moveto
1132 311 1157 292 1175 272 curveto
1184 262 1191 250 1197 239 curveto
stroke
0.000 0.000 0.000 edgecolor
newpath 1200.2 240.44 moveto
1202 230 lineto
1194.08 237.04 lineto
closepath fill
1 setlinewidth
solid
0.000 0.000 0.000 edgecolor
newpath 1200.2 240.44 moveto
1202 230 lineto
1194.08 237.04 lineto
closepath stroke
0.000 0.000 0.000 edgecolor
14 /Times-Roman set_font
1133.5 313.9 moveto 41 (eps:eps) alignedtext
grestore
% 56
gsave
1 setlinewidth
solid
0.000 0.000 0.000 nodecolor
1307 411 20.85 20.85 ellipse_path stroke
0.000 0.000 0.000 nodecolor
14 /Times-Roman set_font
1300 406.9 moveto 14 (56) alignedtext
grestore
% 55->56
gsave
1 setlinewidth
0.000 0.000 0.000 edgecolor
newpath 1232 397 moveto
1245 399 1262 402 1276 405 curveto
stroke
0.000 0.000 0.000 edgecolor
newpath 1275.51 408.47 moveto
1286 407 lineto
1276.88 401.61 lineto
closepath fill
1 setlinewidth
solid
0.000 0.000 0.000 edgecolor
newpath 1275.51 408.47 moveto
1286 407 lineto
1276.88 401.61 lineto
closepath stroke
0.000 0.000 0.000 edgecolor
14 /Times-Roman set_font
1247.5 406.9 moveto 23 (N:K) alignedtext
grestore
% 76
gsave
1 setlinewidth
solid
0.000 0.000 0.000 nodecolor
1307 348 20.85 20.85 ellipse_path stroke
0.000 0.000 0.000 nodecolor
14 /Times-Roman set_font
1300 343.9 moveto 14 (76) alignedtext
grestore
% 55->76
gsave
1 setlinewidth
0.000 0.000 0.000 edgecolor
newpath 1230 384 moveto
1244 377 1263 369 1279 361 curveto
stroke
0.000 0.000 0.000 edgecolor
newpath 1280.28 364.26 moveto
1288 357 lineto
1277.44 357.86 lineto
closepath fill
1 setlinewidth
solid
0.000 0.000 0.000 edgecolor
newpath 1280.28 364.26 moveto
1288 357 lineto
1277.44 357.86 lineto
closepath stroke
0.000 0.000 0.000 edgecolor
14 /Times-Roman set_font
1247.5 378.9 moveto 23 (N:N) alignedtext
grestore
% 57
gsave
1 setlinewidth
solid
0.000 0.000 0.000 nodecolor
1411 419 20.85 20.85 ellipse_path stroke
0.000 0.000 0.000 nodecolor
14 /Times-Roman set_font
1404 414.9 moveto 14 (57) alignedtext
grestore
% 56->57
gsave
1 setlinewidth
0.000 0.000 0.000 edgecolor
newpath 1328 413 moveto
1343 414 1363 415 1380 416 curveto
stroke
0.000 0.000 0.000 edgecolor
newpath 1379.7 419.49 moveto
1390 417 lineto
1380.4 412.52 lineto
closepath fill
1 setlinewidth
solid
0.000 0.000 0.000 edgecolor
newpath 1379.7 419.49 moveto
1390 417 lineto
1380.4 412.52 lineto
closepath stroke
0.000 0.000 0.000 edgecolor
14 /Times-Roman set_font
1343 418.9 moveto 32 (eps:N) alignedtext
grestore
% 77
gsave
1 setlinewidth
solid
0.000 0.000 0.000 nodecolor
1468 232 20.85 20.85 ellipse_path stroke
0.000 0.000 0.000 nodecolor
14 /Times-Roman set_font
1461 227.9 moveto 14 (77) alignedtext
grestore
% 76->77
gsave
1 setlinewidth
0.000 0.000 0.000 edgecolor
newpath 1324 336 moveto
1352 316 1410 275 1443 250 curveto
stroke
0.000 0.000 0.000 edgecolor
newpath 1445.1 252.8 moveto
1451 244 lineto
1440.9 247.2 lineto
closepath fill
1 setlinewidth
solid
0.000 0.000 0.000 edgecolor
newpath 1445.1 252.8 moveto
1451 244 lineto
1440.9 247.2 lineto
closepath stroke
0.000 0.000 0.000 edgecolor
14 /Times-Roman set_font
1348 325.9 moveto 22 (IY:I) alignedtext
grestore
% 78
gsave
1 setlinewidth
solid
0.000 0.000 0.000 nodecolor
1411 348 20.85 20.85 ellipse_path stroke
0.000 0.000 0.000 nodecolor
14 /Times-Roman set_font
1404 343.9 moveto 14 (78) alignedtext
grestore
% 76->78
gsave
1 setlinewidth
0.000 0.000 0.000 edgecolor
newpath 1328 348 moveto
1343 348 1363 348 1380 348 curveto
stroke
0.000 0.000 0.000 edgecolor
newpath 1380 351.5 moveto
1390 348 lineto
1380 344.5 lineto
closepath fill
1 setlinewidth
solid
0.000 0.000 0.000 edgecolor
newpath 1380 351.5 moveto
1390 348 lineto
1380 344.5 lineto
closepath stroke
0.000 0.000 0.000 edgecolor
14 /Times-Roman set_font
1346 351.9 moveto 26 (IY:E) alignedtext
grestore
% 58
gsave
1 setlinewidth
solid
0.000 0.000 0.000 nodecolor
1525 464 20.85 20.85 ellipse_path stroke
0.000 0.000 0.000 nodecolor
14 /Times-Roman set_font
1518 459.9 moveto 14 (58) alignedtext
grestore
% 57->58
gsave
1 setlinewidth
0.000 0.000 0.000 edgecolor
newpath 1431 427 moveto
1448 434 1475 444 1495 452 curveto
stroke
0.000 0.000 0.000 edgecolor
newpath 1494.42 455.54 moveto
1505 456 lineto
1497.02 449.04 lineto
closepath fill
1 setlinewidth
solid
0.000 0.000 0.000 edgecolor
newpath 1494.42 455.54 moveto
1505 456 lineto
1497.02 449.04 lineto
closepath stroke
0.000 0.000 0.000 edgecolor
14 /Times-Roman set_font
1450 451.9 moveto 36 (IY:eps) alignedtext
grestore
% 59
gsave
1 setlinewidth
solid
0.000 0.000 0.000 nodecolor
1639 514 20.85 20.85 ellipse_path stroke
0.000 0.000 0.000 nodecolor
14 /Times-Roman set_font
1632 509.9 moveto 14 (59) alignedtext
grestore
% 58->59
gsave
1 setlinewidth
0.000 0.000 0.000 edgecolor
newpath 1544 473 moveto
1550 476 1556 478 1561 481 curveto
1577 488 1596 496 1611 502 curveto
stroke
0.000 0.000 0.000 edgecolor
newpath 1609.44 505.14 moveto
1620 506 lineto
1612.28 498.74 lineto
closepath fill
1 setlinewidth
solid
0.000 0.000 0.000 edgecolor
newpath 1609.44 505.14 moveto
1620 506 lineto
1612.28 498.74 lineto
closepath stroke
0.000 0.000 0.000 edgecolor
14 /Times-Roman set_font
1574 500.9 moveto 16 (P:I) alignedtext
grestore
% 73
gsave
1 setlinewidth
solid
0.000 0.000 0.000 nodecolor
1639 454 20.85 20.85 ellipse_path stroke
0.000 0.000 0.000 nodecolor
14 /Times-Roman set_font
1632 449.9 moveto 14 (73) alignedtext
grestore
% 58->73
gsave
1 setlinewidth
0.000 0.000 0.000 edgecolor
newpath 1546 462 moveto
1563 460 1588 459 1608 457 curveto
stroke
0.000 0.000 0.000 edgecolor
newpath 1608.4 460.48 moveto
1618 456 lineto
1607.7 453.51 lineto
closepath fill
1 setlinewidth
solid
0.000 0.000 0.000 edgecolor
newpath 1608.4 460.48 moveto
1618 456 lineto
1607.7 453.51 lineto
closepath stroke
0.000 0.000 0.000 edgecolor
14 /Times-Roman set_font
1572 463.9 moveto 20 (P:E) alignedtext
grestore
% 60
gsave
1 setlinewidth
solid
0.000 0.000 0.000 nodecolor
1743 514 21.04 21.04 ellipse_path stroke
0.000 0.000 0.000 nodecolor
14 /Times-Roman set_font
1735.5 509.9 moveto 15 (60) alignedtext
grestore
% 59->60
gsave
1 setlinewidth
0.000 0.000 0.000 edgecolor
newpath 1660 514 moveto
1675 514 1695 514 1712 514 curveto
stroke
0.000 0.000 0.000 edgecolor
newpath 1712 517.5 moveto
1722 514 lineto
1712 510.5 lineto
closepath fill
1 setlinewidth
solid
0.000 0.000 0.000 edgecolor
newpath 1712 517.5 moveto
1722 514 lineto
1712 510.5 lineto
closepath stroke
0.000 0.000 0.000 edgecolor
14 /Times-Roman set_font
1675.5 517.9 moveto 31 (eps:E) alignedtext
grestore
% 74
gsave
1 setlinewidth
solid
0.000 0.000 0.000 nodecolor
1743 454 20.85 20.85 ellipse_path stroke
0.000 0.000 0.000 nodecolor
14 /Times-Roman set_font
1736 449.9 moveto 14 (74) alignedtext
grestore
% 73->74
gsave
1 setlinewidth
0.000 0.000 0.000 edgecolor
newpath 1660 454 moveto
1675 454 1695 454 1712 454 curveto
stroke
0.000 0.000 0.000 edgecolor
newpath 1712 457.5 moveto
1722 454 lineto
1712 450.5 lineto
closepath fill
1 setlinewidth
solid
0.000 0.000 0.000 edgecolor
newpath 1712 457.5 moveto
1722 454 lineto
1712 450.5 lineto
closepath stroke
0.000 0.000 0.000 edgecolor
14 /Times-Roman set_font
1677.5 457.9 moveto 27 (eps:I) alignedtext
grestore
% 61
gsave
1 setlinewidth
solid
0.000 0.000 0.000 nodecolor
1847 514 21.04 21.04 ellipse_path stroke
0.000 0.000 0.000 nodecolor
14 /Times-Roman set_font
1839.5 509.9 moveto 15 (61) alignedtext
grestore
% 60->61
gsave
1 setlinewidth
0.000 0.000 0.000 edgecolor
newpath 1764 514 moveto
1779 514 1799 514 1816 514 curveto
stroke
0.000 0.000 0.000 edgecolor
newpath 1816 517.5 moveto
1826 514 lineto
1816 510.5 lineto
closepath fill
1 setlinewidth
solid
0.000 0.000 0.000 edgecolor
newpath 1816 517.5 moveto
1826 514 lineto
1816 510.5 lineto
closepath stroke
0.000 0.000 0.000 edgecolor
14 /Times-Roman set_font
1780 517.9 moveto 30 (eps:P) alignedtext
grestore
% 62
gsave
1 setlinewidth
solid
0.000 0.000 0.000 nodecolor
1961 477 21.04 21.04 ellipse_path stroke
0.000 0.000 0.000 nodecolor
14 /Times-Roman set_font
1953.5 472.9 moveto 15 (62) alignedtext
grestore
% 61->62
gsave
1 setlinewidth
0.000 0.000 0.000 edgecolor
newpath 1867 507 moveto
1885 502 1911 493 1931 487 curveto
stroke
0.000 0.000 0.000 edgecolor
newpath 1932.43 490.23 moveto
1941 484 lineto
1930.42 483.52 lineto
closepath fill
1 setlinewidth
solid
0.000 0.000 0.000 edgecolor
newpath 1932.43 490.23 moveto
1941 484 lineto
1930.42 483.52 lineto
closepath stroke
0.000 0.000 0.000 edgecolor
14 /Times-Roman set_font
1883.5 504.9 moveto 41 (eps:eps) alignedtext
grestore
% 63
gsave
1 setlinewidth
solid
0.000 0.000 0.000 nodecolor
2075 477 21.04 21.04 ellipse_path stroke
0.000 0.000 0.000 nodecolor
14 /Times-Roman set_font
2067.5 472.9 moveto 15 (63) alignedtext
grestore
% 62->63
gsave
1 setlinewidth
0.000 0.000 0.000 edgecolor
newpath 1982 477 moveto
1999 477 2024 477 2044 477 curveto
stroke
0.000 0.000 0.000 edgecolor
newpath 2044 480.5 moveto
2054 477 lineto
2044 473.5 lineto
closepath fill
1 setlinewidth
solid
0.000 0.000 0.000 edgecolor
newpath 2044 480.5 moveto
2054 477 lineto
2044 473.5 lineto
closepath stroke
0.000 0.000 0.000 edgecolor
14 /Times-Roman set_font
1997.5 480.9 moveto 41 (eps:eps) alignedtext
grestore
% 64
gsave
1 setlinewidth
solid
0.000 0.000 0.000 nodecolor
2189 477 21.04 21.04 ellipse_path stroke
0.000 0.000 0.000 nodecolor
14 /Times-Roman set_font
2181.5 472.9 moveto 15 (64) alignedtext
grestore
% 63->64
gsave
1 setlinewidth
0.000 0.000 0.000 edgecolor
newpath 2096 477 moveto
2113 477 2138 477 2158 477 curveto
stroke
0.000 0.000 0.000 edgecolor
newpath 2158 480.5 moveto
2168 477 lineto
2158 473.5 lineto
closepath fill
1 setlinewidth
solid
0.000 0.000 0.000 edgecolor
newpath 2158 480.5 moveto
2168 477 lineto
2158 473.5 lineto
closepath stroke
0.000 0.000 0.000 edgecolor
14 /Times-Roman set_font
2111.5 480.9 moveto 41 (eps:eps) alignedtext
grestore
% 65
gsave
1 setlinewidth
solid
0.000 0.000 0.000 nodecolor
2350 428 20.85 20.85 ellipse_path stroke
0.000 0.000 0.000 nodecolor
14 /Times-Roman set_font
2343 423.9 moveto 14 (65) alignedtext
grestore
% 64->65
gsave
1 setlinewidth
0.000 0.000 0.000 edgecolor
newpath 2207 465 moveto
2212 462 2219 458 2225 456 curveto
2256 444 2293 436 2319 432 curveto
stroke
0.000 0.000 0.000 edgecolor
newpath 2319.4 435.48 moveto
2329 431 lineto
2318.7 428.51 lineto
closepath fill
1 setlinewidth
solid
0.000 0.000 0.000 edgecolor
newpath 2319.4 435.48 moveto
2329 431 lineto
2318.7 428.51 lineto
closepath stroke
0.000 0.000 0.000 edgecolor
14 /Times-Roman set_font
2225 459.9 moveto 32 (ER:O) alignedtext
grestore
% 66
gsave
1 setlinewidth
solid
0.000 0.000 0.000 nodecolor
2293 477 21.04 21.04 ellipse_path stroke
0.000 0.000 0.000 nodecolor
14 /Times-Roman set_font
2285.5 472.9 moveto 15 (66) alignedtext
grestore
% 64->66
gsave
1 setlinewidth
0.000 0.000 0.000 edgecolor
newpath 2210 477 moveto
2225 477 2245 477 2262 477 curveto
stroke
0.000 0.000 0.000 edgecolor
newpath 2262 480.5 moveto
2272 477 lineto
2262 473.5 lineto
closepath fill
1 setlinewidth
solid
0.000 0.000 0.000 edgecolor
newpath 2262 480.5 moveto
2272 477 lineto
2262 473.5 lineto
closepath stroke
0.000 0.000 0.000 edgecolor
14 /Times-Roman set_font
2225 480.9 moveto 32 (ER:A) alignedtext
grestore
% 69
gsave
1 setlinewidth
solid
0.000 0.000 0.000 nodecolor
2293 537 21.04 21.04 ellipse_path stroke
0.000 0.000 0.000 nodecolor
14 /Times-Roman set_font
2285.5 532.9 moveto 15 (69) alignedtext
grestore
% 64->69
gsave
1 setlinewidth
0.000 0.000 0.000 edgecolor
newpath 2207 487 moveto
2213 491 2219 494 2225 498 curveto
2239 505 2254 514 2266 521 curveto
stroke
0.000 0.000 0.000 edgecolor
newpath 2264.56 524.2 moveto
2275 526 lineto
2267.96 518.08 lineto
closepath fill
1 setlinewidth
solid
0.000 0.000 0.000 edgecolor
newpath 2264.56 524.2 moveto
2275 526 lineto
2267.96 518.08 lineto
closepath stroke
0.000 0.000 0.000 edgecolor
14 /Times-Roman set_font
2226.5 517.9 moveto 29 (ER:E) alignedtext
grestore
% 65->14
gsave
1 setlinewidth
0.000 0.000 0.000 edgecolor
newpath 2371 428 moveto
2394 428 2432 428 2464 428 curveto
2464 428 2464 428 2749 428 curveto
2777 428 2809 428 2832 427 curveto
stroke
0.000 0.000 0.000 edgecolor
newpath 2832 430.5 moveto
2842 427 lineto
2832 423.5 lineto
closepath fill
1 setlinewidth
solid
0.000 0.000 0.000 edgecolor
newpath 2832 430.5 moveto
2842 427 lineto
2832 423.5 lineto
closepath stroke
0.000 0.000 0.000 edgecolor
14 /Times-Roman set_font
2562 431.9 moveto 32 (eps:R) alignedtext
grestore
% 67
gsave
1 setlinewidth
solid
0.000 0.000 0.000 nodecolor
2464 474 20.85 20.85 ellipse_path stroke
0.000 0.000 0.000 nodecolor
14 /Times-Roman set_font
2457 469.9 moveto 14 (67) alignedtext
grestore
% 66->67
gsave
1 setlinewidth
0.000 0.000 0.000 edgecolor
newpath 2314 477 moveto
2344 476 2398 475 2433 474 curveto
stroke
0.000 0.000 0.000 edgecolor
newpath 2433 477.5 moveto
2443 474 lineto
2433 470.5 lineto
closepath fill
1 setlinewidth
solid
0.000 0.000 0.000 edgecolor
newpath 2433 477.5 moveto
2443 474 lineto
2433 470.5 lineto
closepath stroke
0.000 0.000 0.000 edgecolor
14 /Times-Roman set_font
2334 478.9 moveto 32 (eps:R) alignedtext
grestore
% 69->14
gsave
1 setlinewidth
0.000 0.000 0.000 edgecolor
newpath 2312 547 moveto
2334 557 2372 572 2407 572 curveto
2407 572 2407 572 2749 572 curveto
2807 572 2840 499 2854 457 curveto
stroke
0.000 0.000 0.000 edgecolor
newpath 2857.48 457.58 moveto
2857 447 lineto
2850.77 455.57 lineto
closepath fill
1 setlinewidth
solid
0.000 0.000 0.000 edgecolor
newpath 2857.48 457.58 moveto
2857 447 lineto
2850.77 455.57 lineto
closepath stroke
0.000 0.000 0.000 edgecolor
14 /Times-Roman set_font
2562 575.9 moveto 32 (eps:R) alignedtext
grestore
% 70
gsave
1 setlinewidth
solid
0.000 0.000 0.000 nodecolor
2407 523 20.85 20.85 ellipse_path stroke
0.000 0.000 0.000 nodecolor
14 /Times-Roman set_font
2400 518.9 moveto 14 (70) alignedtext
grestore
% 69->70
gsave
1 setlinewidth
0.000 0.000 0.000 edgecolor
newpath 2314 534 moveto
2331 532 2356 529 2376 526 curveto
stroke
0.000 0.000 0.000 edgecolor
newpath 2376.4 529.48 moveto
2386 525 lineto
2375.7 522.51 lineto
closepath fill
1 setlinewidth
solid
0.000 0.000 0.000 edgecolor
newpath 2376.4 529.48 moveto
2386 525 lineto
2375.7 522.51 lineto
closepath stroke
0.000 0.000 0.000 edgecolor
14 /Times-Roman set_font
2333.5 534.9 moveto 33 (eps:U) alignedtext
grestore
% 68
gsave
1 setlinewidth
solid
0.000 0.000 0.000 nodecolor
2749 477 20.85 20.85 ellipse_path stroke
0.000 0.000 0.000 nodecolor
14 /Times-Roman set_font
2742 472.9 moveto 14 (68) alignedtext
grestore
% 67->68
gsave
1 setlinewidth
0.000 0.000 0.000 edgecolor
newpath 2485 474 moveto
2536 475 2659 476 2718 477 curveto
stroke
0.000 0.000 0.000 edgecolor
newpath 2718 480.5 moveto
2728 477 lineto
2718 473.5 lineto
closepath fill
1 setlinewidth
solid
0.000 0.000 0.000 edgecolor
newpath 2718 480.5 moveto
2728 477 lineto
2718 473.5 lineto
closepath stroke
0.000 0.000 0.000 edgecolor
14 /Times-Roman set_font
2562.5 477.9 moveto 31 (eps:E) alignedtext
grestore
% 68->14
gsave
1 setlinewidth
0.000 0.000 0.000 edgecolor
newpath 2768 469 moveto
2786 460 2814 449 2835 439 curveto
stroke
0.000 0.000 0.000 edgecolor
newpath 2836.28 442.26 moveto
2844 435 lineto
2833.44 435.86 lineto
closepath fill
1 setlinewidth
solid
0.000 0.000 0.000 edgecolor
newpath 2836.28 442.26 moveto
2844 435 lineto
2833.44 435.86 lineto
closepath stroke
0.000 0.000 0.000 edgecolor
14 /Times-Roman set_font
2785.5 463.9 moveto 41 (eps:eps) alignedtext
grestore
% 71
gsave
1 setlinewidth
solid
0.000 0.000 0.000 nodecolor
2521 523 20.85 20.85 ellipse_path stroke
0.000 0.000 0.000 nodecolor
14 /Times-Roman set_font
2514 518.9 moveto 14 (71) alignedtext
grestore
% 70->71
gsave
1 setlinewidth
0.000 0.000 0.000 edgecolor
newpath 2428 523 moveto
2445 523 2470 523 2490 523 curveto
stroke
0.000 0.000 0.000 edgecolor
newpath 2490 526.5 moveto
2500 523 lineto
2490 519.5 lineto
closepath fill
1 setlinewidth
solid
0.000 0.000 0.000 edgecolor
newpath 2490 526.5 moveto
2500 523 lineto
2490 519.5 lineto
closepath stroke
0.000 0.000 0.000 edgecolor
14 /Times-Roman set_font
2448 526.9 moveto 32 (eps:R) alignedtext
grestore
% 72
gsave
1 setlinewidth
solid
0.000 0.000 0.000 nodecolor
2635 523 20.85 20.85 ellipse_path stroke
0.000 0.000 0.000 nodecolor
14 /Times-Roman set_font
2628 518.9 moveto 14 (72) alignedtext
grestore
% 71->72
gsave
1 setlinewidth
0.000 0.000 0.000 edgecolor
newpath 2542 523 moveto
2559 523 2584 523 2604 523 curveto
stroke
0.000 0.000 0.000 edgecolor
newpath 2604 526.5 moveto
2614 523 lineto
2604 519.5 lineto
closepath fill
1 setlinewidth
solid
0.000 0.000 0.000 edgecolor
newpath 2604 526.5 moveto
2614 523 lineto
2604 519.5 lineto
closepath stroke
0.000 0.000 0.000 edgecolor
14 /Times-Roman set_font
2562.5 526.9 moveto 31 (eps:E) alignedtext
grestore
% 72->68
gsave
1 setlinewidth
0.000 0.000 0.000 edgecolor
newpath 2655 515 moveto
2672 508 2699 497 2719 489 curveto
stroke
0.000 0.000 0.000 edgecolor
newpath 2721.02 491.96 moveto
2729 485 lineto
2718.42 485.46 lineto
closepath fill
1 setlinewidth
solid
0.000 0.000 0.000 edgecolor
newpath 2721.02 491.96 moveto
2729 485 lineto
2718.42 485.46 lineto
closepath stroke
0.000 0.000 0.000 edgecolor
14 /Times-Roman set_font
2671.5 510.9 moveto 41 (eps:eps) alignedtext
grestore
% 75
gsave
1 setlinewidth
solid
0.000 0.000 0.000 nodecolor
1847 454 20.85 20.85 ellipse_path stroke
0.000 0.000 0.000 nodecolor
14 /Times-Roman set_font
1840 449.9 moveto 14 (75) alignedtext
grestore
% 74->75
gsave
1 setlinewidth
0.000 0.000 0.000 edgecolor
newpath 1764 454 moveto
1779 454 1799 454 1816 454 curveto
stroke
0.000 0.000 0.000 edgecolor
newpath 1816 457.5 moveto
1826 454 lineto
1816 450.5 lineto
closepath fill
1 setlinewidth
solid
0.000 0.000 0.000 edgecolor
newpath 1816 457.5 moveto
1826 454 lineto
1816 450.5 lineto
closepath stroke
0.000 0.000 0.000 edgecolor
14 /Times-Roman set_font
1780 457.9 moveto 30 (eps:P) alignedtext
grestore
% 75->62
gsave
1 setlinewidth
0.000 0.000 0.000 edgecolor
newpath 1868 458 moveto
1885 461 1911 467 1930 471 curveto
stroke
0.000 0.000 0.000 edgecolor
newpath 1929.51 474.47 moveto
1940 473 lineto
1930.88 467.61 lineto
closepath fill
1 setlinewidth
solid
0.000 0.000 0.000 edgecolor
newpath 1929.51 474.47 moveto
1940 473 lineto
1930.88 467.61 lineto
closepath stroke
0.000 0.000 0.000 edgecolor
14 /Times-Roman set_font
1883.5 471.9 moveto 41 (eps:eps) alignedtext
grestore
% 77->10
gsave
1 setlinewidth
0.000 0.000 0.000 edgecolor
newpath 1489 232 moveto
1519 233 1573 234 1608 235 curveto
stroke
0.000 0.000 0.000 edgecolor
newpath 1608 238.5 moveto
1618 235 lineto
1608 231.5 lineto
closepath fill
1 setlinewidth
solid
0.000 0.000 0.000 edgecolor
newpath 1608 238.5 moveto
1618 235 lineto
1608 231.5 lineto
closepath stroke
0.000 0.000 0.000 edgecolor
14 /Times-Roman set_font
1504.5 235.9 moveto 41 (eps:eps) alignedtext
grestore
% 78->10
gsave
1 setlinewidth
0.000 0.000 0.000 edgecolor
newpath 1432 348 moveto
1471 346 1554 337 1603 293 curveto
1612 284 1620 274 1625 263 curveto
stroke
0.000 0.000 0.000 edgecolor
newpath 1628.2 264.44 moveto
1630 254 lineto
1622.08 261.04 lineto
closepath fill
1 setlinewidth
solid
0.000 0.000 0.000 edgecolor
newpath 1628.2 264.44 moveto
1630 254 lineto
1622.08 261.04 lineto
closepath stroke
0.000 0.000 0.000 edgecolor
14 /Times-Roman set_font
1504.5 340.9 moveto 41 (eps:eps) alignedtext
grestore
% 78->43
gsave
1 setlinewidth
0.000 0.000 0.000 edgecolor
newpath 1426 333 moveto
1432 327 1440 321 1447 317 curveto
1461 308 1479 302 1494 298 curveto
stroke
0.000 0.000 0.000 edgecolor
newpath 1495.43 301.23 moveto
1504 295 lineto
1493.42 294.52 lineto
closepath fill
1 setlinewidth
solid
0.000 0.000 0.000 edgecolor
newpath 1495.43 301.23 moveto
1504 295 lineto
1493.42 294.52 lineto
closepath stroke
0.000 0.000 0.000 edgecolor
14 /Times-Roman set_font
1452.5 320.9 moveto 31 (eps:E) alignedtext
grestore
% 79
gsave
1 setlinewidth
solid
0.000 0.000 0.000 nodecolor
1525 404 20.85 20.85 ellipse_path stroke
0.000 0.000 0.000 nodecolor
14 /Times-Roman set_font
1518 399.9 moveto 14 (79) alignedtext
grestore
% 78->79
gsave
1 setlinewidth
0.000 0.000 0.000 edgecolor
newpath 1430 357 moveto
1448 366 1476 380 1497 390 curveto
stroke
0.000 0.000 0.000 edgecolor
newpath 1495.56 393.2 moveto
1506 395 lineto
1498.96 387.08 lineto
closepath fill
1 setlinewidth
solid
0.000 0.000 0.000 edgecolor
newpath 1495.56 393.2 moveto
1506 395 lineto
1498.96 387.08 lineto
closepath stroke
0.000 0.000 0.000 edgecolor
14 /Times-Roman set_font
1458 388.9 moveto 20 (P:E) alignedtext
grestore
% 80
gsave
1 setlinewidth
solid
0.000 0.000 0.000 nodecolor
1639 394 20.85 20.85 ellipse_path stroke
0.000 0.000 0.000 nodecolor
14 /Times-Roman set_font
1632 389.9 moveto 14 (80) alignedtext
grestore
% 79->80
gsave
1 setlinewidth
0.000 0.000 0.000 edgecolor
newpath 1546 402 moveto
1563 400 1588 399 1608 397 curveto
stroke
0.000 0.000 0.000 edgecolor
newpath 1608.4 400.48 moveto
1618 396 lineto
1607.7 393.51 lineto
closepath fill
1 setlinewidth
solid
0.000 0.000 0.000 edgecolor
newpath 1608.4 400.48 moveto
1618 396 lineto
1607.7 393.51 lineto
closepath stroke
0.000 0.000 0.000 edgecolor
14 /Times-Roman set_font
1567 403.9 moveto 30 (eps:P) alignedtext
grestore
% 81
gsave
1 setlinewidth
solid
0.000 0.000 0.000 nodecolor
1743 392 20.85 20.85 ellipse_path stroke
0.000 0.000 0.000 nodecolor
14 /Times-Roman set_font
1736 387.9 moveto 14 (81) alignedtext
grestore
% 80->81
gsave
1 setlinewidth
0.000 0.000 0.000 edgecolor
newpath 1660 394 moveto
1675 393 1695 393 1712 392 curveto
stroke
0.000 0.000 0.000 edgecolor
newpath 1712 395.5 moveto
1722 392 lineto
1712 388.5 lineto
closepath fill
1 setlinewidth
solid
0.000 0.000 0.000 edgecolor
newpath 1712 395.5 moveto
1722 392 lineto
1712 388.5 lineto
closepath stroke
0.000 0.000 0.000 edgecolor
14 /Times-Roman set_font
1675.5 395.9 moveto 31 (eps:E) alignedtext
grestore
% 82
gsave
1 setlinewidth
solid
0.000 0.000 0.000 nodecolor
1847 392 20.85 20.85 ellipse_path stroke
0.000 0.000 0.000 nodecolor
14 /Times-Roman set_font
1840 387.9 moveto 14 (82) alignedtext
grestore
% 81->82
gsave
1 setlinewidth
0.000 0.000 0.000 edgecolor
newpath 1764 392 moveto
1779 392 1799 392 1816 392 curveto
stroke
0.000 0.000 0.000 edgecolor
newpath 1816 395.5 moveto
1826 392 lineto
1816 388.5 lineto
closepath fill
1 setlinewidth
solid
0.000 0.000 0.000 edgecolor
newpath 1816 395.5 moveto
1826 392 lineto
1816 388.5 lineto
closepath stroke
0.000 0.000 0.000 edgecolor
14 /Times-Roman set_font
1779 395.9 moveto 32 (eps:R) alignedtext
grestore
% 83
gsave
1 setlinewidth
solid
0.000 0.000 0.000 nodecolor
1961 390 20.85 20.85 ellipse_path stroke
0.000 0.000 0.000 nodecolor
14 /Times-Roman set_font
1954 385.9 moveto 14 (83) alignedtext
grestore
% 82->83
gsave
1 setlinewidth
0.000 0.000 0.000 edgecolor
newpath 1868 392 moveto
1885 391 1910 391 1930 390 curveto
stroke
0.000 0.000 0.000 edgecolor
newpath 1930 393.5 moveto
1940 390 lineto
1930 386.5 lineto
closepath fill
1 setlinewidth
solid
0.000 0.000 0.000 edgecolor
newpath 1930 393.5 moveto
1940 390 lineto
1930 386.5 lineto
closepath stroke
0.000 0.000 0.000 edgecolor
14 /Times-Roman set_font
1884 393.9 moveto 40 (ER:eps) alignedtext
grestore
% 84
gsave
1 setlinewidth
solid
0.000 0.000 0.000 nodecolor
2132 390 20.85 20.85 ellipse_path stroke
0.000 0.000 0.000 nodecolor
14 /Times-Roman set_font
2125 385.9 moveto 14 (84) alignedtext
grestore
% 83->84
gsave
1 setlinewidth
0.000 0.000 0.000 edgecolor
newpath 1982 390 moveto
2012 390 2066 390 2101 390 curveto
stroke
0.000 0.000 0.000 edgecolor
newpath 2101 393.5 moveto
2111 390 lineto
2101 386.5 lineto
closepath fill
1 setlinewidth
solid
0.000 0.000 0.000 edgecolor
newpath 2101 393.5 moveto
2111 390 lineto
2101 386.5 lineto
closepath stroke
0.000 0.000 0.000 edgecolor
14 /Times-Roman set_font
1997.5 393.9 moveto 41 (eps:eps) alignedtext
grestore
% 84->14
gsave
1 setlinewidth
0.000 0.000 0.000 edgecolor
newpath 2153 390 moveto
2175 390 2211 390 2241 390 curveto
2241 390 2241 390 2749 390 curveto
2779 390 2812 402 2835 413 curveto
stroke
0.000 0.000 0.000 edgecolor
newpath 2833.44 416.14 moveto
2844 417 lineto
2836.28 409.74 lineto
closepath fill
1 setlinewidth
solid
0.000 0.000 0.000 edgecolor
newpath 2833.44 416.14 moveto
2844 417 lineto
2836.28 409.74 lineto
closepath stroke
0.000 0.000 0.000 edgecolor
14 /Times-Roman set_font
2443.5 393.9 moveto 41 (eps:eps) alignedtext
grestore
% 87->45
gsave
1 setlinewidth
0.000 0.000 0.000 edgecolor
newpath 452 136 moveto
468 135 490 134 509 136 curveto
511 136 513 137 515 137 curveto
stroke
0.000 0.000 0.000 edgecolor
newpath 514.51 140.47 moveto
525 139 lineto
515.88 133.61 lineto
closepath fill
1 setlinewidth
solid
0.000 0.000 0.000 edgecolor
newpath 514.51 140.47 moveto
525 139 lineto
515.88 133.61 lineto
closepath stroke
0.000 0.000 0.000 edgecolor
14 /Times-Roman set_font
467.5 140.9 moveto 41 (eps:eps) alignedtext
grestore
endpage
showpage
grestore
%%PageTrailer
%%EndPage: 1
%%Trailer
%%Pages: 1
%%BoundingBox: 257 90 355 702
end
restore
%%EOF
