%!PS-Adobe-3.0 EPSF-3.0
%%Creator: Graphviz version 2.20.3 (Tue Oct 14 12:23:50 UTC 2008)
%%For: (ashishdepankaj) Ashish Depankaj
%%Title: FSM
%%Pages: (atend)
%%BoundingBox: (atend)
%%EndComments
save
%%BeginProlog
/DotDict 200 dict def
DotDict begin

/setupLatin1 {
mark
/EncodingVector 256 array def
 EncodingVector 0

ISOLatin1Encoding 0 255 getinterval putinterval
EncodingVector 45 /hyphen put

% Set up ISO Latin 1 character encoding
/starnetISO {
        dup dup findfont dup length dict begin
        { 1 index /FID ne { def }{ pop pop } ifelse
        } forall
        /Encoding EncodingVector def
        currentdict end definefont
} def
/Times-Roman starnetISO def
/Times-Italic starnetISO def
/Times-Bold starnetISO def
/Times-BoldItalic starnetISO def
/Helvetica starnetISO def
/Helvetica-Oblique starnetISO def
/Helvetica-Bold starnetISO def
/Helvetica-BoldOblique starnetISO def
/Courier starnetISO def
/Courier-Oblique starnetISO def
/Courier-Bold starnetISO def
/Courier-BoldOblique starnetISO def
cleartomark
} bind def

%%BeginResource: procset graphviz 0 0
/coord-font-family /Times-Roman def
/default-font-family /Times-Roman def
/coordfont coord-font-family findfont 8 scalefont def

/InvScaleFactor 1.0 def
/set_scale {
       dup 1 exch div /InvScaleFactor exch def
       scale
} bind def

% styles
/solid { [] 0 setdash } bind def
/dashed { [9 InvScaleFactor mul dup ] 0 setdash } bind def
/dotted { [1 InvScaleFactor mul 6 InvScaleFactor mul] 0 setdash } bind def
/invis {/fill {newpath} def /stroke {newpath} def /show {pop newpath} def} bind def
/bold { 2 setlinewidth } bind def
/filled { } bind def
/unfilled { } bind def
/rounded { } bind def
/diagonals { } bind def

% hooks for setting color 
/nodecolor { sethsbcolor } bind def
/edgecolor { sethsbcolor } bind def
/graphcolor { sethsbcolor } bind def
/nopcolor {pop pop pop} bind def

/beginpage {	% i j npages
	/npages exch def
	/j exch def
	/i exch def
	/str 10 string def
	npages 1 gt {
		gsave
			coordfont setfont
			0 0 moveto
			(\() show i str cvs show (,) show j str cvs show (\)) show
		grestore
	} if
} bind def

/set_font {
	findfont exch
	scalefont setfont
} def

% draw text fitted to its expected width
/alignedtext {			% width text
	/text exch def
	/width exch def
	gsave
		width 0 gt {
			[] 0 setdash
			text stringwidth pop width exch sub text length div 0 text ashow
		} if
	grestore
} def

/boxprim {				% xcorner ycorner xsize ysize
		4 2 roll
		moveto
		2 copy
		exch 0 rlineto
		0 exch rlineto
		pop neg 0 rlineto
		closepath
} bind def

/ellipse_path {
	/ry exch def
	/rx exch def
	/y exch def
	/x exch def
	matrix currentmatrix
	newpath
	x y translate
	rx ry scale
	0 0 1 0 360 arc
	setmatrix
} bind def

/endpage { showpage } bind def
/showpage { } def

/layercolorseq
	[	% layer color sequence - darkest to lightest
		[0 0 0]
		[.2 .8 .8]
		[.4 .8 .8]
		[.6 .8 .8]
		[.8 .8 .8]
	]
def

/layerlen layercolorseq length def

/setlayer {/maxlayer exch def /curlayer exch def
	layercolorseq curlayer 1 sub layerlen mod get
	aload pop sethsbcolor
	/nodecolor {nopcolor} def
	/edgecolor {nopcolor} def
	/graphcolor {nopcolor} def
} bind def

/onlayer { curlayer ne {invis} if } def

/onlayers {
	/myupper exch def
	/mylower exch def
	curlayer mylower lt
	curlayer myupper gt
	or
	{invis} if
} def

/curlayer 0 def

%%EndResource
%%EndProlog
%%BeginSetup
14 default-font-family set_font
1 setmiterlimit
% /arrowlength 10 def
% /arrowwidth 5 def

% make sure pdfmark is harmless for PS-interpreters other than Distiller
/pdfmark where {pop} {userdict /pdfmark /cleartomark load put} ifelse
% make '<<' and '>>' safe on PS Level 1 devices
/languagelevel where {pop languagelevel}{1} ifelse
2 lt {
    userdict (<<) cvn ([) cvn load put
    userdict (>>) cvn ([) cvn load put
} if

%%EndSetup
setupLatin1
%%Page: 1 1
%%PageBoundingBox: 235 90 377 702
%%PageOrientation: Landscape
0 0 1 beginpage
gsave
235 90 142 612 boxprim clip newpath
0.269841 0.269841 set_scale 90 rotate 337.529 -1391.5 translate
0.000 0.000 0.000 graphcolor
14 /Times-Roman set_font
1097.5 7.9 moveto 65 (last.eps.fsm) alignedtext
% 0
gsave
2 setlinewidth
bold
0.000 0.000 0.000 nodecolor
18 160 18 18 ellipse_path stroke
0.000 0.000 0.000 nodecolor
14 /Times-Roman set_font
14 155.9 moveto 8 (0) alignedtext
grestore
% 1
gsave
1 setlinewidth
solid
0.000 0.000 0.000 nodecolor
106 160 18 18 ellipse_path stroke
0.000 0.000 0.000 nodecolor
14 /Times-Roman set_font
102 155.9 moveto 8 (1) alignedtext
grestore
% 0->1
gsave
1 setlinewidth
0.000 0.000 0.000 edgecolor
newpath 36 160 moveto
48 160 64 160 78 160 curveto
stroke
0.000 0.000 0.000 edgecolor
newpath 78 163.5 moveto
88 160 lineto
78 156.5 lineto
closepath fill
1 setlinewidth
solid
0.000 0.000 0.000 edgecolor
newpath 78 163.5 moveto
88 160 lineto
78 156.5 lineto
closepath stroke
0.000 0.000 0.000 edgecolor
14 /Times-Roman set_font
51.5 164.9 moveto 21 (T:T) alignedtext
grestore
% 2
gsave
1 setlinewidth
solid
0.000 0.000 0.000 nodecolor
214 134 18 18 ellipse_path stroke
0.000 0.000 0.000 nodecolor
14 /Times-Roman set_font
210 129.9 moveto 8 (2) alignedtext
grestore
% 1->2
gsave
1 setlinewidth
0.000 0.000 0.000 edgecolor
newpath 122 152 moveto
128 149 133 147 139 145 curveto
154 141 172 138 186 136 curveto
stroke
0.000 0.000 0.000 edgecolor
newpath 186.4 139.48 moveto
196 135 lineto
185.7 132.51 lineto
closepath fill
1 setlinewidth
solid
0.000 0.000 0.000 edgecolor
newpath 186.4 139.48 moveto
196 135 lineto
185.7 132.51 lineto
closepath stroke
0.000 0.000 0.000 edgecolor
14 /Times-Roman set_font
141 152.9 moveto 38 (UW:O) alignedtext
grestore
% 3
gsave
1 setlinewidth
solid
0.000 0.000 0.000 nodecolor
214 197 18 18 ellipse_path stroke
0.000 0.000 0.000 nodecolor
14 /Times-Roman set_font
210 192.9 moveto 8 (3) alignedtext
grestore
% 1->3
gsave
1 setlinewidth
0.000 0.000 0.000 edgecolor
newpath 123 166 moveto
140 172 167 181 188 188 curveto
stroke
0.000 0.000 0.000 edgecolor
newpath 186.41 191.16 moveto
197 191 lineto
188.62 184.52 lineto
closepath fill
1 setlinewidth
solid
0.000 0.000 0.000 edgecolor
newpath 186.41 191.16 moveto
197 191 lineto
188.62 184.52 lineto
closepath stroke
0.000 0.000 0.000 edgecolor
14 /Times-Roman set_font
139.5 190.9 moveto 41 (UW:W) alignedtext
grestore
% 4
gsave
1 setlinewidth
solid
0.000 0.000 0.000 nodecolor
314 75 18 18 ellipse_path stroke
0.000 0.000 0.000 nodecolor
14 /Times-Roman set_font
310 70.9 moveto 8 (4) alignedtext
grestore
% 2->4
gsave
1 setlinewidth
0.000 0.000 0.000 edgecolor
newpath 225 119 moveto
231 112 238 104 247 98 curveto
259 90 274 85 286 81 curveto
stroke
0.000 0.000 0.000 edgecolor
newpath 286.88 84.39 moveto
296 79 lineto
285.51 77.53 lineto
closepath fill
1 setlinewidth
solid
0.000 0.000 0.000 edgecolor
newpath 286.88 84.39 moveto
296 79 lineto
285.51 77.53 lineto
closepath stroke
0.000 0.000 0.000 edgecolor
14 /Times-Roman set_font
247.5 105.9 moveto 33 (eps:O) alignedtext
grestore
% 5
gsave
1 setlinewidth
solid
0.000 0.000 0.000 nodecolor
314 236 18 18 ellipse_path stroke
0.000 0.000 0.000 nodecolor
14 /Times-Roman set_font
310.5 231.9 moveto 7 (5) alignedtext
grestore
% 2->5
gsave
1 setlinewidth
0.000 0.000 0.000 edgecolor
newpath 231 139 moveto
246 144 268 153 281 167 curveto
295 182 288 192 296 209 curveto
297 210 297 211 298 212 curveto
stroke
0.000 0.000 0.000 edgecolor
newpath 295.08 213.96 moveto
303 221 lineto
301.2 210.56 lineto
closepath fill
1 setlinewidth
solid
0.000 0.000 0.000 edgecolor
newpath 295.08 213.96 moveto
303 221 lineto
301.2 210.56 lineto
closepath stroke
0.000 0.000 0.000 edgecolor
14 /Times-Roman set_font
249.5 171.9 moveto 29 (M:M) alignedtext
grestore
% 7
gsave
1 setlinewidth
solid
0.000 0.000 0.000 nodecolor
412 129 18 18 ellipse_path stroke
0.000 0.000 0.000 nodecolor
14 /Times-Roman set_font
408.5 124.9 moveto 7 (7) alignedtext
grestore
% 2->7
gsave
1 setlinewidth
0.000 0.000 0.000 edgecolor
newpath 232 134 moveto
267 132 343 130 384 129 curveto
stroke
0.000 0.000 0.000 edgecolor
newpath 384 132.5 moveto
394 129 lineto
384 125.5 lineto
closepath fill
1 setlinewidth
solid
0.000 0.000 0.000 edgecolor
newpath 384 132.5 moveto
394 129 lineto
384 125.5 lineto
closepath stroke
0.000 0.000 0.000 edgecolor
14 /Times-Roman set_font
299.5 137.9 moveto 29 (M:M) alignedtext
grestore
% 6
gsave
1 setlinewidth
solid
0.000 0.000 0.000 nodecolor
314 182 18 18 ellipse_path stroke
0.000 0.000 0.000 nodecolor
14 /Times-Roman set_font
310 177.9 moveto 8 (6) alignedtext
grestore
% 3->6
gsave
1 setlinewidth
0.000 0.000 0.000 edgecolor
newpath 232 194 moveto
247 192 269 188 286 186 curveto
stroke
0.000 0.000 0.000 edgecolor
newpath 286.4 189.48 moveto
296 185 lineto
285.7 182.51 lineto
closepath fill
1 setlinewidth
solid
0.000 0.000 0.000 edgecolor
newpath 286.4 189.48 moveto
296 185 lineto
285.7 182.51 lineto
closepath stroke
0.000 0.000 0.000 edgecolor
14 /Times-Roman set_font
247.5 198.9 moveto 33 (eps:O) alignedtext
grestore
% 4->7
gsave
1 setlinewidth
0.000 0.000 0.000 edgecolor
newpath 331 79 moveto
345 83 364 89 379 98 curveto
384 101 388 104 393 108 curveto
stroke
0.000 0.000 0.000 edgecolor
newpath 390.45 110.4 moveto
400 115 lineto
395.4 105.45 lineto
closepath fill
1 setlinewidth
solid
0.000 0.000 0.000 edgecolor
newpath 390.45 110.4 moveto
400 115 lineto
395.4 105.45 lineto
closepath stroke
0.000 0.000 0.000 edgecolor
14 /Times-Roman set_font
348.5 102.9 moveto 29 (M:M) alignedtext
grestore
% 8
gsave
1 setlinewidth
solid
0.000 0.000 0.000 nodecolor
412 236 18 18 ellipse_path stroke
0.000 0.000 0.000 nodecolor
14 /Times-Roman set_font
408.5 231.9 moveto 7 (8) alignedtext
grestore
% 5->8
gsave
1 setlinewidth
0.000 0.000 0.000 edgecolor
newpath 332 236 moveto
347 236 367 236 384 236 curveto
stroke
0.000 0.000 0.000 edgecolor
newpath 384 239.5 moveto
394 236 lineto
384 232.5 lineto
closepath fill
1 setlinewidth
solid
0.000 0.000 0.000 edgecolor
newpath 384 239.5 moveto
394 236 lineto
384 232.5 lineto
closepath stroke
0.000 0.000 0.000 edgecolor
14 /Times-Roman set_font
347 240.9 moveto 32 (eps:B) alignedtext
grestore
% 9
gsave
1 setlinewidth
solid
0.000 0.000 0.000 nodecolor
513 81 18 18 ellipse_path stroke
0.000 0.000 0.000 nodecolor
14 /Times-Roman set_font
509 76.9 moveto 8 (9) alignedtext
grestore
% 7->9
gsave
1 setlinewidth
0.000 0.000 0.000 edgecolor
newpath 428 121 moveto
434 118 440 115 445 112 curveto
458 106 474 99 487 93 curveto
stroke
0.000 0.000 0.000 edgecolor
newpath 488.96 95.92 moveto
496 88 lineto
485.56 89.8 lineto
closepath fill
1 setlinewidth
solid
0.000 0.000 0.000 edgecolor
newpath 488.96 95.92 moveto
496 88 lineto
485.56 89.8 lineto
closepath stroke
0.000 0.000 0.000 edgecolor
14 /Times-Roman set_font
445 119.9 moveto 32 (EH:A) alignedtext
grestore
% 10
gsave
1 setlinewidth
solid
0.000 0.000 0.000 nodecolor
513 139 21.04 21.04 ellipse_path stroke
0.000 0.000 0.000 nodecolor
14 /Times-Roman set_font
505.5 134.9 moveto 15 (10) alignedtext
grestore
% 7->10
gsave
1 setlinewidth
0.000 0.000 0.000 edgecolor
newpath 430 131 moveto
444 133 465 134 482 136 curveto
stroke
0.000 0.000 0.000 edgecolor
newpath 481.7 139.49 moveto
492 137 lineto
482.4 132.52 lineto
closepath fill
1 setlinewidth
solid
0.000 0.000 0.000 edgecolor
newpath 481.7 139.49 moveto
492 137 lineto
482.4 132.52 lineto
closepath stroke
0.000 0.000 0.000 edgecolor
14 /Times-Roman set_font
446 140.9 moveto 30 (EH:E) alignedtext
grestore
% 6->7
gsave
1 setlinewidth
0.000 0.000 0.000 edgecolor
newpath 330 173 moveto
345 165 369 152 387 143 curveto
stroke
0.000 0.000 0.000 edgecolor
newpath 388.96 145.92 moveto
396 138 lineto
385.56 139.8 lineto
closepath fill
1 setlinewidth
solid
0.000 0.000 0.000 edgecolor
newpath 388.96 145.92 moveto
396 138 lineto
385.56 139.8 lineto
closepath stroke
0.000 0.000 0.000 edgecolor
14 /Times-Roman set_font
348.5 170.9 moveto 29 (M:M) alignedtext
grestore
% 15
gsave
1 setlinewidth
solid
0.000 0.000 0.000 nodecolor
513 282 20.85 20.85 ellipse_path stroke
0.000 0.000 0.000 nodecolor
14 /Times-Roman set_font
506 277.9 moveto 14 (15) alignedtext
grestore
% 8->15
gsave
1 setlinewidth
0.000 0.000 0.000 edgecolor
newpath 429 244 moveto
443 251 466 261 485 269 curveto
stroke
0.000 0.000 0.000 edgecolor
newpath 483.44 272.14 moveto
494 273 lineto
486.28 265.74 lineto
closepath fill
1 setlinewidth
solid
0.000 0.000 0.000 edgecolor
newpath 483.44 272.14 moveto
494 273 lineto
486.28 265.74 lineto
closepath stroke
0.000 0.000 0.000 edgecolor
14 /Times-Roman set_font
446 267.9 moveto 30 (EH:E) alignedtext
grestore
% 16
gsave
1 setlinewidth
solid
0.000 0.000 0.000 nodecolor
617 225 21.04 21.04 ellipse_path stroke
0.000 0.000 0.000 nodecolor
14 /Times-Roman set_font
609.5 220.9 moveto 15 (16) alignedtext
grestore
% 8->16
gsave
1 setlinewidth
0.000 0.000 0.000 edgecolor
newpath 430 235 moveto
465 233 542 229 586 227 curveto
stroke
0.000 0.000 0.000 edgecolor
newpath 586.4 230.48 moveto
596 226 lineto
585.7 223.51 lineto
closepath fill
1 setlinewidth
solid
0.000 0.000 0.000 edgecolor
newpath 586.4 230.48 moveto
596 226 lineto
585.7 223.51 lineto
closepath stroke
0.000 0.000 0.000 edgecolor
14 /Times-Roman set_font
497 237.9 moveto 32 (EH:N) alignedtext
grestore
% 11
gsave
1 setlinewidth
solid
0.000 0.000 0.000 nodecolor
617 80 20.85 20.85 ellipse_path stroke
0.000 0.000 0.000 nodecolor
14 /Times-Roman set_font
610 75.9 moveto 14 (11) alignedtext
grestore
% 9->11
gsave
1 setlinewidth
0.000 0.000 0.000 edgecolor
newpath 531 81 moveto
546 81 568 81 586 80 curveto
stroke
0.000 0.000 0.000 edgecolor
newpath 586 83.5 moveto
596 80 lineto
586 76.5 lineto
closepath fill
1 setlinewidth
solid
0.000 0.000 0.000 edgecolor
newpath 586 83.5 moveto
596 80 lineto
586 76.5 lineto
closepath stroke
0.000 0.000 0.000 edgecolor
14 /Times-Roman set_font
553.5 85.9 moveto 23 (N:N) alignedtext
grestore
% 12
gsave
1 setlinewidth
solid
0.000 0.000 0.000 nodecolor
617 140 21.04 21.04 ellipse_path stroke
0.000 0.000 0.000 nodecolor
14 /Times-Roman set_font
609.5 135.9 moveto 15 (12) alignedtext
grestore
% 10->12
gsave
1 setlinewidth
0.000 0.000 0.000 edgecolor
newpath 534 139 moveto
549 139 569 139 586 140 curveto
stroke
0.000 0.000 0.000 edgecolor
newpath 586 143.5 moveto
596 140 lineto
586 136.5 lineto
closepath fill
1 setlinewidth
solid
0.000 0.000 0.000 edgecolor
newpath 586 143.5 moveto
596 140 lineto
586 136.5 lineto
closepath stroke
0.000 0.000 0.000 edgecolor
14 /Times-Roman set_font
553.5 144.9 moveto 23 (N:N) alignedtext
grestore
% 14
gsave
1 setlinewidth
solid
0.000 0.000 0.000 nodecolor
723 214 21.04 21.04 ellipse_path stroke
0.000 0.000 0.000 nodecolor
14 /Times-Roman set_font
715.5 209.9 moveto 15 (14) alignedtext
grestore
% 15->14
gsave
1 setlinewidth
0.000 0.000 0.000 edgecolor
newpath 534 283 moveto
569 283 638 280 687 253 curveto
694 250 700 245 704 240 curveto
stroke
0.000 0.000 0.000 edgecolor
newpath 707.05 241.83 moveto
711 232 lineto
701.78 237.22 lineto
closepath fill
1 setlinewidth
solid
0.000 0.000 0.000 edgecolor
newpath 707.05 241.83 moveto
711 232 lineto
701.78 237.22 lineto
closepath stroke
0.000 0.000 0.000 edgecolor
14 /Times-Roman set_font
605.5 281.9 moveto 23 (N:N) alignedtext
grestore
% 19
gsave
1 setlinewidth
solid
0.000 0.000 0.000 nodecolor
617 338 21.04 21.04 ellipse_path stroke
0.000 0.000 0.000 nodecolor
14 /Times-Roman set_font
609.5 333.9 moveto 15 (19) alignedtext
grestore
% 15->19
gsave
1 setlinewidth
0.000 0.000 0.000 edgecolor
newpath 532 292 moveto
548 300 571 313 589 323 curveto
stroke
0.000 0.000 0.000 edgecolor
newpath 587.56 326.2 moveto
598 328 lineto
590.96 320.08 lineto
closepath fill
1 setlinewidth
solid
0.000 0.000 0.000 edgecolor
newpath 587.56 326.2 moveto
598 328 lineto
590.96 320.08 lineto
closepath stroke
0.000 0.000 0.000 edgecolor
14 /Times-Roman set_font
549 320.9 moveto 32 (eps:H) alignedtext
grestore
% 13
gsave
1 setlinewidth
solid
0.000 0.000 0.000 nodecolor
723 80 21.04 21.04 ellipse_path stroke
0.000 0.000 0.000 nodecolor
14 /Times-Roman set_font
715.5 75.9 moveto 15 (13) alignedtext
grestore
% 16->13
gsave
1 setlinewidth
0.000 0.000 0.000 edgecolor
newpath 636 216 moveto
656 206 686 191 687 188 curveto
707 162 690 146 702 115 curveto
703 112 705 110 706 107 curveto
stroke
0.000 0.000 0.000 edgecolor
newpath 709.2 108.44 moveto
711 98 lineto
703.08 105.04 lineto
closepath fill
1 setlinewidth
solid
0.000 0.000 0.000 edgecolor
newpath 709.2 108.44 moveto
711 98 lineto
703.08 105.04 lineto
closepath stroke
0.000 0.000 0.000 edgecolor
14 /Times-Roman set_font
659 212.9 moveto 22 (N:E) alignedtext
grestore
% 16->14
gsave
1 setlinewidth
0.000 0.000 0.000 edgecolor
newpath 638 228 moveto
652 230 671 231 687 228 curveto
690 228 692 227 695 226 curveto
stroke
0.000 0.000 0.000 edgecolor
newpath 695.62 229.48 moveto
704 223 lineto
693.41 222.84 lineto
closepath fill
1 setlinewidth
solid
0.000 0.000 0.000 edgecolor
newpath 695.62 229.48 moveto
704 223 lineto
693.41 222.84 lineto
closepath stroke
0.000 0.000 0.000 edgecolor
14 /Times-Roman set_font
654 236.9 moveto 32 (N:eps) alignedtext
grestore
% 11->13
gsave
1 setlinewidth
0.000 0.000 0.000 edgecolor
newpath 638 80 moveto
654 80 674 80 692 80 curveto
stroke
0.000 0.000 0.000 edgecolor
newpath 692 83.5 moveto
702 80 lineto
692 76.5 lineto
closepath fill
1 setlinewidth
solid
0.000 0.000 0.000 edgecolor
newpath 692 83.5 moveto
702 80 lineto
692 76.5 lineto
closepath stroke
0.000 0.000 0.000 edgecolor
14 /Times-Roman set_font
653.5 84.9 moveto 33 (eps:Y) alignedtext
grestore
% 12->14
gsave
1 setlinewidth
0.000 0.000 0.000 edgecolor
newpath 637 146 moveto
652 151 672 160 687 171 curveto
693 176 699 182 705 188 curveto
stroke
0.000 0.000 0.000 edgecolor
newpath 702.2 190.1 moveto
711 196 lineto
707.8 185.9 lineto
closepath fill
1 setlinewidth
solid
0.000 0.000 0.000 edgecolor
newpath 702.2 190.1 moveto
711 196 lineto
707.8 185.9 lineto
closepath stroke
0.000 0.000 0.000 edgecolor
14 /Times-Roman set_font
654 175.9 moveto 32 (eps:N) alignedtext
grestore
% 18
gsave
1 setlinewidth
solid
0.000 0.000 0.000 nodecolor
827 145 20.85 20.85 ellipse_path stroke
0.000 0.000 0.000 nodecolor
14 /Times-Roman set_font
820 140.9 moveto 14 (18) alignedtext
grestore
% 12->18
gsave
1 setlinewidth
0.000 0.000 0.000 edgecolor
newpath 638 141 moveto
676 142 753 144 796 145 curveto
stroke
0.000 0.000 0.000 edgecolor
newpath 796 148.5 moveto
806 145 lineto
796 141.5 lineto
closepath fill
1 setlinewidth
solid
0.000 0.000 0.000 edgecolor
newpath 796 148.5 moveto
806 145 lineto
796 141.5 lineto
closepath stroke
0.000 0.000 0.000 edgecolor
14 /Times-Roman set_font
710 148.9 moveto 26 (IY:E) alignedtext
grestore
% 17
gsave
1 setlinewidth
solid
0.000 0.000 0.000 nodecolor
935 189 20.85 20.85 ellipse_path stroke
0.000 0.000 0.000 nodecolor
14 /Times-Roman set_font
928 184.9 moveto 14 (17) alignedtext
grestore
% 13->17
gsave
1 setlinewidth
0.000 0.000 0.000 edgecolor
newpath 744 79 moveto
770 79 815 82 848 98 curveto
878 113 902 142 918 163 curveto
stroke
0.000 0.000 0.000 edgecolor
newpath 915.2 165.1 moveto
924 171 lineto
920.8 160.9 lineto
closepath fill
1 setlinewidth
solid
0.000 0.000 0.000 edgecolor
newpath 915.2 165.1 moveto
924 171 lineto
920.8 160.9 lineto
closepath stroke
0.000 0.000 0.000 edgecolor
14 /Times-Roman set_font
809 102.9 moveto 36 (IY:eps) alignedtext
grestore
% 14->18
gsave
1 setlinewidth
0.000 0.000 0.000 edgecolor
newpath 735 196 moveto
741 188 750 178 759 171 curveto
771 163 785 157 797 153 curveto
stroke
0.000 0.000 0.000 edgecolor
newpath 798.43 156.23 moveto
807 150 lineto
796.42 149.52 lineto
closepath fill
1 setlinewidth
solid
0.000 0.000 0.000 edgecolor
newpath 798.43 156.23 moveto
807 150 lineto
796.42 149.52 lineto
closepath stroke
0.000 0.000 0.000 edgecolor
14 /Times-Roman set_font
762 178.9 moveto 26 (IY:E) alignedtext
grestore
% 18->17
gsave
1 setlinewidth
0.000 0.000 0.000 edgecolor
newpath 848 146 moveto
863 148 883 151 899 158 curveto
904 160 908 163 913 167 curveto
stroke
0.000 0.000 0.000 edgecolor
newpath 910.9 169.8 moveto
921 173 lineto
915.1 164.2 lineto
closepath fill
1 setlinewidth
solid
0.000 0.000 0.000 edgecolor
newpath 910.9 169.8 moveto
921 173 lineto
915.1 164.2 lineto
closepath stroke
0.000 0.000 0.000 edgecolor
14 /Times-Roman set_font
868 162.9 moveto 26 (eps:.) alignedtext
grestore
% 20
gsave
1 setlinewidth
solid
0.000 0.000 0.000 nodecolor
1049 252 21.04 21.04 ellipse_path stroke
0.000 0.000 0.000 nodecolor
14 /Times-Roman set_font
1041.5 247.9 moveto 15 (20) alignedtext
grestore
% 18->20
gsave
1 setlinewidth
0.000 0.000 0.000 edgecolor
newpath 839 163 moveto
843 168 846 174 848 180 curveto
859 206 842 223 863 240 curveto
886 259 971 256 1018 254 curveto
stroke
0.000 0.000 0.000 edgecolor
newpath 1018 257.5 moveto
1028 254 lineto
1018 250.5 lineto
closepath fill
1 setlinewidth
solid
0.000 0.000 0.000 edgecolor
newpath 1018 257.5 moveto
1028 254 lineto
1018 250.5 lineto
closepath stroke
0.000 0.000 0.000 edgecolor
14 /Times-Roman set_font
925.5 260.9 moveto 19 (P:P) alignedtext
grestore
% 17->20
gsave
1 setlinewidth
0.000 0.000 0.000 edgecolor
newpath 955 196 moveto
971 202 994 212 1013 223 curveto
1017 225 1021 228 1025 232 curveto
stroke
0.000 0.000 0.000 edgecolor
newpath 1022.9 234.8 moveto
1033 238 lineto
1027.1 229.2 lineto
closepath fill
1 setlinewidth
solid
0.000 0.000 0.000 edgecolor
newpath 1022.9 234.8 moveto
1033 238 lineto
1027.1 229.2 lineto
closepath stroke
0.000 0.000 0.000 edgecolor
14 /Times-Roman set_font
982.5 227.9 moveto 19 (P:P) alignedtext
grestore
% 21
gsave
1 setlinewidth
solid
0.000 0.000 0.000 nodecolor
723 307 21.04 21.04 ellipse_path stroke
0.000 0.000 0.000 nodecolor
14 /Times-Roman set_font
715.5 302.9 moveto 15 (21) alignedtext
grestore
% 19->21
gsave
1 setlinewidth
0.000 0.000 0.000 edgecolor
newpath 637 332 moveto
653 328 675 321 693 316 curveto
stroke
0.000 0.000 0.000 edgecolor
newpath 694.43 319.23 moveto
703 313 lineto
692.42 312.52 lineto
closepath fill
1 setlinewidth
solid
0.000 0.000 0.000 edgecolor
newpath 694.43 319.23 moveto
703 313 lineto
692.42 312.52 lineto
closepath stroke
0.000 0.000 0.000 edgecolor
14 /Times-Roman set_font
658.5 329.9 moveto 23 (N:N) alignedtext
grestore
% 22
gsave
1 setlinewidth
solid
0.000 0.000 0.000 nodecolor
723 378 21.04 21.04 ellipse_path stroke
0.000 0.000 0.000 nodecolor
14 /Times-Roman set_font
715.5 373.9 moveto 15 (22) alignedtext
grestore
% 19->22
gsave
1 setlinewidth
0.000 0.000 0.000 edgecolor
newpath 637 346 moveto
653 352 675 360 694 367 curveto
stroke
0.000 0.000 0.000 edgecolor
newpath 692.44 370.14 moveto
703 371 lineto
695.28 363.74 lineto
closepath fill
1 setlinewidth
solid
0.000 0.000 0.000 edgecolor
newpath 692.44 370.14 moveto
703 371 lineto
695.28 363.74 lineto
closepath stroke
0.000 0.000 0.000 edgecolor
14 /Times-Roman set_font
658.5 366.9 moveto 23 (N:K) alignedtext
grestore
% 23
gsave
1 setlinewidth
solid
0.000 0.000 0.000 nodecolor
1163 252 21.04 21.04 ellipse_path stroke
0.000 0.000 0.000 nodecolor
14 /Times-Roman set_font
1155.5 247.9 moveto 15 (23) alignedtext
grestore
% 20->23
gsave
1 setlinewidth
0.000 0.000 0.000 edgecolor
newpath 1070 252 moveto
1087 252 1112 252 1132 252 curveto
stroke
0.000 0.000 0.000 edgecolor
newpath 1132 255.5 moveto
1142 252 lineto
1132 248.5 lineto
closepath fill
1 setlinewidth
solid
0.000 0.000 0.000 edgecolor
newpath 1132 255.5 moveto
1142 252 lineto
1132 248.5 lineto
closepath stroke
0.000 0.000 0.000 edgecolor
14 /Times-Roman set_font
1090 256.9 moveto 32 (ER:U) alignedtext
grestore
% 24
gsave
1 setlinewidth
solid
0.000 0.000 0.000 nodecolor
1220 198 21.04 21.04 ellipse_path stroke
0.000 0.000 0.000 nodecolor
14 /Times-Roman set_font
1212.5 193.9 moveto 15 (24) alignedtext
grestore
% 20->24
gsave
1 setlinewidth
0.000 0.000 0.000 edgecolor
newpath 1067 240 moveto
1073 237 1079 234 1085 231 curveto
1120 217 1161 208 1189 203 curveto
stroke
0.000 0.000 0.000 edgecolor
newpath 1189.88 206.39 moveto
1199 201 lineto
1188.51 199.53 lineto
closepath fill
1 setlinewidth
solid
0.000 0.000 0.000 edgecolor
newpath 1189.88 206.39 moveto
1199 201 lineto
1188.51 199.53 lineto
closepath stroke
0.000 0.000 0.000 edgecolor
14 /Times-Roman set_font
1091.5 238.9 moveto 29 (ER:E) alignedtext
grestore
% 21->17
gsave
1 setlinewidth
0.000 0.000 0.000 edgecolor
newpath 742 296 moveto
768 281 820 252 863 228 curveto
877 220 894 211 907 204 curveto
stroke
0.000 0.000 0.000 edgecolor
newpath 908.96 206.92 moveto
916 199 lineto
905.56 200.8 lineto
closepath fill
1 setlinewidth
solid
0.000 0.000 0.000 edgecolor
newpath 908.96 206.92 moveto
916 199 lineto
905.56 200.8 lineto
closepath stroke
0.000 0.000 0.000 edgecolor
14 /Times-Roman set_font
816 264.9 moveto 22 (IY:I) alignedtext
grestore
% 25
gsave
1 setlinewidth
solid
0.000 0.000 0.000 nodecolor
827 307 20.85 20.85 ellipse_path stroke
0.000 0.000 0.000 nodecolor
14 /Times-Roman set_font
820 302.9 moveto 14 (25) alignedtext
grestore
% 21->25
gsave
1 setlinewidth
0.000 0.000 0.000 edgecolor
newpath 744 307 moveto
759 307 779 307 796 307 curveto
stroke
0.000 0.000 0.000 edgecolor
newpath 796 310.5 moveto
806 307 lineto
796 303.5 lineto
closepath fill
1 setlinewidth
solid
0.000 0.000 0.000 edgecolor
newpath 796 310.5 moveto
806 307 lineto
796 303.5 lineto
closepath stroke
0.000 0.000 0.000 edgecolor
14 /Times-Roman set_font
762 310.9 moveto 26 (IY:E) alignedtext
grestore
% 26
gsave
1 setlinewidth
solid
0.000 0.000 0.000 nodecolor
827 397 21.04 21.04 ellipse_path stroke
0.000 0.000 0.000 nodecolor
14 /Times-Roman set_font
819.5 392.9 moveto 15 (26) alignedtext
grestore
% 22->26
gsave
1 setlinewidth
0.000 0.000 0.000 edgecolor
newpath 744 382 moveto
759 384 779 388 796 391 curveto
stroke
0.000 0.000 0.000 edgecolor
newpath 795.51 394.47 moveto
806 393 lineto
796.88 387.61 lineto
closepath fill
1 setlinewidth
solid
0.000 0.000 0.000 edgecolor
newpath 795.51 394.47 moveto
806 393 lineto
796.88 387.61 lineto
closepath stroke
0.000 0.000 0.000 edgecolor
14 /Times-Roman set_font
759 392.9 moveto 32 (eps:N) alignedtext
grestore
% 27
gsave
1 setlinewidth
solid
0.000 0.000 0.000 nodecolor
1277 252 20.85 20.85 ellipse_path stroke
0.000 0.000 0.000 nodecolor
14 /Times-Roman set_font
1270 247.9 moveto 14 (27) alignedtext
grestore
% 23->27
gsave
1 setlinewidth
0.000 0.000 0.000 edgecolor
newpath 1184 252 moveto
1201 252 1226 252 1246 252 curveto
stroke
0.000 0.000 0.000 edgecolor
newpath 1246 255.5 moveto
1256 252 lineto
1246 248.5 lineto
closepath fill
1 setlinewidth
solid
0.000 0.000 0.000 edgecolor
newpath 1246 255.5 moveto
1256 252 lineto
1246 248.5 lineto
closepath stroke
0.000 0.000 0.000 edgecolor
14 /Times-Roman set_font
1204 256.9 moveto 32 (eps:R) alignedtext
grestore
% 28
gsave
1 setlinewidth
solid
0.000 0.000 0.000 nodecolor
1391 156 20.85 20.85 ellipse_path stroke
0.000 0.000 0.000 nodecolor
14 /Times-Roman set_font
1384 151.9 moveto 14 (28) alignedtext
grestore
% 24->28
gsave
1 setlinewidth
0.000 0.000 0.000 edgecolor
newpath 1241 193 moveto
1271 186 1326 172 1361 163 curveto
stroke
0.000 0.000 0.000 edgecolor
newpath 1361.88 166.39 moveto
1371 161 lineto
1360.51 159.53 lineto
closepath fill
1 setlinewidth
solid
0.000 0.000 0.000 edgecolor
newpath 1361.88 166.39 moveto
1371 161 lineto
1360.51 159.53 lineto
closepath stroke
0.000 0.000 0.000 edgecolor
14 /Times-Roman set_font
1267 194.9 moveto 20 (S:R) alignedtext
grestore
% 25->17
gsave
1 setlinewidth
0.000 0.000 0.000 edgecolor
newpath 842 291 moveto
860 271 892 235 914 212 curveto
stroke
0.000 0.000 0.000 edgecolor
newpath 916.4 214.55 moveto
921 205 lineto
911.45 209.6 lineto
closepath fill
1 setlinewidth
solid
0.000 0.000 0.000 edgecolor
newpath 916.4 214.55 moveto
921 205 lineto
911.45 209.6 lineto
closepath stroke
0.000 0.000 0.000 edgecolor
14 /Times-Roman set_font
865.5 271.9 moveto 31 (eps:E) alignedtext
grestore
% 25->20
gsave
1 setlinewidth
0.000 0.000 0.000 edgecolor
newpath 848 304 moveto
883 299 955 286 1013 268 curveto
1016 267 1018 266 1021 265 curveto
stroke
0.000 0.000 0.000 edgecolor
newpath 1022.28 268.26 moveto
1030 261 lineto
1019.44 261.86 lineto
closepath fill
1 setlinewidth
solid
0.000 0.000 0.000 edgecolor
newpath 1022.28 268.26 moveto
1030 261 lineto
1019.44 261.86 lineto
closepath stroke
0.000 0.000 0.000 edgecolor
14 /Times-Roman set_font
925.5 295.9 moveto 19 (P:P) alignedtext
grestore
% 29
gsave
1 setlinewidth
solid
0.000 0.000 0.000 nodecolor
992 352 21.04 21.04 ellipse_path stroke
0.000 0.000 0.000 nodecolor
14 /Times-Roman set_font
984.5 347.9 moveto 15 (29) alignedtext
grestore
% 25->29
gsave
1 setlinewidth
0.000 0.000 0.000 edgecolor
newpath 847 315 moveto
852 317 858 319 863 321 curveto
896 331 935 340 961 346 curveto
stroke
0.000 0.000 0.000 edgecolor
newpath 960.51 349.47 moveto
971 348 lineto
961.88 342.61 lineto
closepath fill
1 setlinewidth
solid
0.000 0.000 0.000 edgecolor
newpath 960.51 349.47 moveto
971 348 lineto
961.88 342.61 lineto
closepath stroke
0.000 0.000 0.000 edgecolor
14 /Times-Roman set_font
871 333.9 moveto 20 (P:E) alignedtext
grestore
% 30
gsave
1 setlinewidth
solid
0.000 0.000 0.000 nodecolor
935 408 21.04 21.04 ellipse_path stroke
0.000 0.000 0.000 nodecolor
14 /Times-Roman set_font
927.5 403.9 moveto 15 (30) alignedtext
grestore
% 26->30
gsave
1 setlinewidth
0.000 0.000 0.000 edgecolor
newpath 848 399 moveto
864 401 886 403 904 405 curveto
stroke
0.000 0.000 0.000 edgecolor
newpath 903.7 408.49 moveto
914 406 lineto
904.4 401.52 lineto
closepath fill
1 setlinewidth
solid
0.000 0.000 0.000 edgecolor
newpath 903.7 408.49 moveto
914 406 lineto
904.4 401.52 lineto
closepath stroke
0.000 0.000 0.000 edgecolor
14 /Times-Roman set_font
863 406.9 moveto 36 (IY:eps) alignedtext
grestore
% 32
gsave
1 setlinewidth
solid
0.000 0.000 0.000 nodecolor
1391 223 21.04 21.04 ellipse_path stroke
0.000 0.000 0.000 nodecolor
14 /Times-Roman set_font
1383.5 218.9 moveto 15 (32) alignedtext
grestore
% 27->32
gsave
1 setlinewidth
0.000 0.000 0.000 edgecolor
newpath 1297 246 moveto
1302 244 1308 243 1313 241 curveto
1329 237 1346 233 1360 230 curveto
stroke
0.000 0.000 0.000 edgecolor
newpath 1361.43 233.23 moveto
1370 227 lineto
1359.42 226.52 lineto
closepath fill
1 setlinewidth
solid
0.000 0.000 0.000 edgecolor
newpath 1361.43 233.23 moveto
1370 227 lineto
1359.42 226.52 lineto
closepath stroke
0.000 0.000 0.000 edgecolor
14 /Times-Roman set_font
1319 248.9 moveto 30 (S:eps) alignedtext
grestore
% 43
gsave
1 setlinewidth
solid
0.000 0.000 0.000 nodecolor
1811 321 21.04 21.04 ellipse_path stroke
0.000 0.000 0.000 nodecolor
14 /Times-Roman set_font
1803.5 316.9 moveto 15 (43) alignedtext
grestore
% 27->43
gsave
1 setlinewidth
0.000 0.000 0.000 edgecolor
newpath 1298 258 moveto
1320 264 1358 272 1391 272 curveto
1391 272 1391 272 1715 272 curveto
1742 272 1768 287 1787 300 curveto
stroke
0.000 0.000 0.000 edgecolor
newpath 1785.17 303.05 moveto
1795 307 lineto
1789.78 297.78 lineto
closepath fill
1 setlinewidth
solid
0.000 0.000 0.000 edgecolor
newpath 1785.17 303.05 moveto
1795 307 lineto
1789.78 297.78 lineto
closepath stroke
0.000 0.000 0.000 edgecolor
14 /Times-Roman set_font
1539.5 275.9 moveto 19 (S:S) alignedtext
grestore
% 33
gsave
1 setlinewidth
solid
0.000 0.000 0.000 nodecolor
1497 156 21.04 21.04 ellipse_path stroke
0.000 0.000 0.000 nodecolor
14 /Times-Roman set_font
1489.5 151.9 moveto 15 (33) alignedtext
grestore
% 28->33
gsave
1 setlinewidth
0.000 0.000 0.000 edgecolor
newpath 1412 156 moveto
1428 156 1448 156 1466 156 curveto
stroke
0.000 0.000 0.000 edgecolor
newpath 1466 159.5 moveto
1476 156 lineto
1466 152.5 lineto
closepath fill
1 setlinewidth
solid
0.000 0.000 0.000 edgecolor
newpath 1466 159.5 moveto
1476 156 lineto
1466 152.5 lineto
closepath stroke
0.000 0.000 0.000 edgecolor
14 /Times-Roman set_font
1429 160.9 moveto 30 (eps:S) alignedtext
grestore
% 34
gsave
1 setlinewidth
solid
0.000 0.000 0.000 nodecolor
1497 70 21.04 21.04 ellipse_path stroke
0.000 0.000 0.000 nodecolor
14 /Times-Roman set_font
1489.5 65.9 moveto 15 (34) alignedtext
grestore
% 28->34
gsave
1 setlinewidth
0.000 0.000 0.000 edgecolor
newpath 1408 143 moveto
1425 128 1453 106 1472 89 curveto
stroke
0.000 0.000 0.000 edgecolor
newpath 1474.1 91.8 moveto
1480 83 lineto
1469.9 86.2 lineto
closepath fill
1 setlinewidth
solid
0.000 0.000 0.000 edgecolor
newpath 1474.1 91.8 moveto
1480 83 lineto
1469.9 86.2 lineto
closepath stroke
0.000 0.000 0.000 edgecolor
14 /Times-Roman set_font
1428 131.9 moveto 32 (AH:S) alignedtext
grestore
% 35
gsave
1 setlinewidth
solid
0.000 0.000 0.000 nodecolor
1106 366 20.85 20.85 ellipse_path stroke
0.000 0.000 0.000 nodecolor
14 /Times-Roman set_font
1099 361.9 moveto 14 (35) alignedtext
grestore
% 29->35
gsave
1 setlinewidth
0.000 0.000 0.000 edgecolor
newpath 1013 354 moveto
1029 356 1051 358 1070 361 curveto
1072 361 1073 362 1075 362 curveto
stroke
0.000 0.000 0.000 edgecolor
newpath 1074.7 365.49 moveto
1085 363 lineto
1075.4 358.52 lineto
closepath fill
1 setlinewidth
solid
0.000 0.000 0.000 edgecolor
newpath 1074.7 365.49 moveto
1085 363 lineto
1075.4 358.52 lineto
closepath stroke
0.000 0.000 0.000 edgecolor
14 /Times-Roman set_font
1034 364.9 moveto 30 (eps:P) alignedtext
grestore
% 36
gsave
1 setlinewidth
solid
0.000 0.000 0.000 nodecolor
1049 468 21.04 21.04 ellipse_path stroke
0.000 0.000 0.000 nodecolor
14 /Times-Roman set_font
1041.5 463.9 moveto 15 (36) alignedtext
grestore
% 30->36
gsave
1 setlinewidth
0.000 0.000 0.000 edgecolor
newpath 953 419 moveto
959 422 965 426 971 429 curveto
987 437 1006 447 1021 454 curveto
stroke
0.000 0.000 0.000 edgecolor
newpath 1019.56 457.2 moveto
1030 459 lineto
1022.96 451.08 lineto
closepath fill
1 setlinewidth
solid
0.000 0.000 0.000 edgecolor
newpath 1019.56 457.2 moveto
1030 459 lineto
1022.96 451.08 lineto
closepath stroke
0.000 0.000 0.000 edgecolor
14 /Times-Roman set_font
984 451.9 moveto 16 (P:I) alignedtext
grestore
% 37
gsave
1 setlinewidth
solid
0.000 0.000 0.000 nodecolor
1049 408 20.85 20.85 ellipse_path stroke
0.000 0.000 0.000 nodecolor
14 /Times-Roman set_font
1042 403.9 moveto 14 (37) alignedtext
grestore
% 30->37
gsave
1 setlinewidth
0.000 0.000 0.000 edgecolor
newpath 956 408 moveto
973 408 998 408 1018 408 curveto
stroke
0.000 0.000 0.000 edgecolor
newpath 1018 411.5 moveto
1028 408 lineto
1018 404.5 lineto
closepath fill
1 setlinewidth
solid
0.000 0.000 0.000 edgecolor
newpath 1018 411.5 moveto
1028 408 lineto
1018 404.5 lineto
closepath stroke
0.000 0.000 0.000 edgecolor
14 /Times-Roman set_font
982 411.9 moveto 20 (P:E) alignedtext
grestore
% 38
gsave
1 setlinewidth
solid
0.000 0.000 0.000 nodecolor
1497 223 20.85 20.85 ellipse_path stroke
0.000 0.000 0.000 nodecolor
14 /Times-Roman set_font
1490 218.9 moveto 14 (38) alignedtext
grestore
% 32->38
gsave
1 setlinewidth
0.000 0.000 0.000 edgecolor
newpath 1412 223 moveto
1428 223 1448 223 1466 223 curveto
stroke
0.000 0.000 0.000 edgecolor
newpath 1466 226.5 moveto
1476 223 lineto
1466 219.5 lineto
closepath fill
1 setlinewidth
solid
0.000 0.000 0.000 edgecolor
newpath 1466 226.5 moveto
1476 223 lineto
1466 219.5 lineto
closepath stroke
0.000 0.000 0.000 edgecolor
14 /Times-Roman set_font
1429 227.9 moveto 30 (eps:S) alignedtext
grestore
% 49
gsave
1 setlinewidth
solid
0.000 0.000 0.000 nodecolor
1929 312 21.04 21.04 ellipse_path stroke
0.000 0.000 0.000 nodecolor
14 /Times-Roman set_font
1921.5 307.9 moveto 15 (49) alignedtext
grestore
% 43->49
gsave
1 setlinewidth
0.000 0.000 0.000 edgecolor
newpath 1832 319 moveto
1850 318 1877 316 1898 315 curveto
stroke
0.000 0.000 0.000 edgecolor
newpath 1898.4 318.48 moveto
1908 314 lineto
1897.7 311.51 lineto
closepath fill
1 setlinewidth
solid
0.000 0.000 0.000 edgecolor
newpath 1898.4 318.48 moveto
1908 314 lineto
1897.7 311.51 lineto
closepath stroke
0.000 0.000 0.000 edgecolor
14 /Times-Roman set_font
1850.5 320.9 moveto 35 (AH:U) alignedtext
grestore
% 39
gsave
1 setlinewidth
solid
0.000 0.000 0.000 nodecolor
1601 110 21.04 21.04 ellipse_path stroke
0.000 0.000 0.000 nodecolor
14 /Times-Roman set_font
1593.5 105.9 moveto 15 (39) alignedtext
grestore
% 33->39
gsave
1 setlinewidth
0.000 0.000 0.000 edgecolor
newpath 1515 145 moveto
1521 142 1527 139 1533 136 curveto
1545 131 1559 125 1571 121 curveto
stroke
0.000 0.000 0.000 edgecolor
newpath 1573.02 123.96 moveto
1581 117 lineto
1570.42 117.46 lineto
closepath fill
1 setlinewidth
solid
0.000 0.000 0.000 edgecolor
newpath 1573.02 123.96 moveto
1581 117 lineto
1570.42 117.46 lineto
closepath stroke
0.000 0.000 0.000 edgecolor
14 /Times-Roman set_font
1533.5 143.9 moveto 31 (eps:E) alignedtext
grestore
% 45
gsave
1 setlinewidth
solid
0.000 0.000 0.000 nodecolor
1715 189 20.85 20.85 ellipse_path stroke
0.000 0.000 0.000 nodecolor
14 /Times-Roman set_font
1708 184.9 moveto 14 (45) alignedtext
grestore
% 33->45
gsave
1 setlinewidth
0.000 0.000 0.000 edgecolor
newpath 1518 159 moveto
1556 165 1638 177 1684 184 curveto
stroke
0.000 0.000 0.000 edgecolor
newpath 1683.51 187.47 moveto
1694 186 lineto
1684.88 180.61 lineto
closepath fill
1 setlinewidth
solid
0.000 0.000 0.000 edgecolor
newpath 1683.51 187.47 moveto
1694 186 lineto
1684.88 180.61 lineto
closepath stroke
0.000 0.000 0.000 edgecolor
14 /Times-Roman set_font
1583.5 180.9 moveto 35 (AH:U) alignedtext
grestore
% 40
gsave
1 setlinewidth
solid
0.000 0.000 0.000 nodecolor
1601 50 21.04 21.04 ellipse_path stroke
0.000 0.000 0.000 nodecolor
14 /Times-Roman set_font
1593.5 45.9 moveto 15 (40) alignedtext
grestore
% 34->40
gsave
1 setlinewidth
0.000 0.000 0.000 edgecolor
newpath 1518 66 moveto
1533 63 1553 59 1570 56 curveto
stroke
0.000 0.000 0.000 edgecolor
newpath 1570.88 59.39 moveto
1580 54 lineto
1569.51 52.53 lineto
closepath fill
1 setlinewidth
solid
0.000 0.000 0.000 edgecolor
newpath 1570.88 59.39 moveto
1580 54 lineto
1569.51 52.53 lineto
closepath stroke
0.000 0.000 0.000 edgecolor
14 /Times-Roman set_font
1537 68.9 moveto 24 (N:O) alignedtext
grestore
% 41
gsave
1 setlinewidth
solid
0.000 0.000 0.000 nodecolor
1220 368 21.04 21.04 ellipse_path stroke
0.000 0.000 0.000 nodecolor
14 /Times-Roman set_font
1212.5 363.9 moveto 15 (41) alignedtext
grestore
% 35->41
gsave
1 setlinewidth
0.000 0.000 0.000 edgecolor
newpath 1127 366 moveto
1144 367 1169 367 1189 368 curveto
stroke
0.000 0.000 0.000 edgecolor
newpath 1189 371.5 moveto
1199 368 lineto
1189 364.5 lineto
closepath fill
1 setlinewidth
solid
0.000 0.000 0.000 edgecolor
newpath 1189 371.5 moveto
1199 368 lineto
1189 364.5 lineto
closepath stroke
0.000 0.000 0.000 edgecolor
14 /Times-Roman set_font
1147.5 369.9 moveto 31 (eps:E) alignedtext
grestore
% 42
gsave
1 setlinewidth
solid
0.000 0.000 0.000 nodecolor
1163 429 21.04 21.04 ellipse_path stroke
0.000 0.000 0.000 nodecolor
14 /Times-Roman set_font
1155.5 424.9 moveto 15 (42) alignedtext
grestore
% 36->42
gsave
1 setlinewidth
0.000 0.000 0.000 edgecolor
newpath 1069 461 moveto
1087 455 1113 446 1133 439 curveto
stroke
0.000 0.000 0.000 edgecolor
newpath 1134.43 442.23 moveto
1143 436 lineto
1132.42 435.52 lineto
closepath fill
1 setlinewidth
solid
0.000 0.000 0.000 edgecolor
newpath 1134.43 442.23 moveto
1143 436 lineto
1132.42 435.52 lineto
closepath stroke
0.000 0.000 0.000 edgecolor
14 /Times-Roman set_font
1090.5 457.9 moveto 31 (eps:E) alignedtext
grestore
% 37->42
gsave
1 setlinewidth
0.000 0.000 0.000 edgecolor
newpath 1070 411 moveto
1086 413 1108 417 1127 421 curveto
1129 421 1131 422 1133 422 curveto
stroke
0.000 0.000 0.000 edgecolor
newpath 1132.51 425.47 moveto
1143 424 lineto
1133.88 418.61 lineto
closepath fill
1 setlinewidth
solid
0.000 0.000 0.000 edgecolor
newpath 1132.51 425.47 moveto
1143 424 lineto
1133.88 418.61 lineto
closepath stroke
0.000 0.000 0.000 edgecolor
14 /Times-Roman set_font
1092.5 424.9 moveto 27 (eps:I) alignedtext
grestore
% 31
gsave
1 setlinewidth
solid
0.000 0.000 0.000 nodecolor
1497 321 21.04 21.04 ellipse_path stroke
0.000 0.000 0.000 nodecolor
14 /Times-Roman set_font
1489.5 316.9 moveto 15 (31) alignedtext
grestore
% 31->43
gsave
1 setlinewidth
0.000 0.000 0.000 edgecolor
newpath 1518 321 moveto
1572 321 1716 321 1780 321 curveto
stroke
0.000 0.000 0.000 edgecolor
newpath 1780 324.5 moveto
1790 321 lineto
1780 317.5 lineto
closepath fill
1 setlinewidth
solid
0.000 0.000 0.000 edgecolor
newpath 1780 324.5 moveto
1790 321 lineto
1780 317.5 lineto
closepath stroke
0.000 0.000 0.000 edgecolor
14 /Times-Roman set_font
1648.5 324.9 moveto 19 (S:S) alignedtext
grestore
% 44
gsave
1 setlinewidth
solid
0.000 0.000 0.000 nodecolor
1601 223 21.04 21.04 ellipse_path stroke
0.000 0.000 0.000 nodecolor
14 /Times-Roman set_font
1593.5 218.9 moveto 15 (44) alignedtext
grestore
% 38->44
gsave
1 setlinewidth
0.000 0.000 0.000 edgecolor
newpath 1518 223 moveto
1533 223 1553 223 1570 223 curveto
stroke
0.000 0.000 0.000 edgecolor
newpath 1570 226.5 moveto
1580 223 lineto
1570 219.5 lineto
closepath fill
1 setlinewidth
solid
0.000 0.000 0.000 edgecolor
newpath 1570 226.5 moveto
1580 223 lineto
1570 219.5 lineto
closepath stroke
0.000 0.000 0.000 edgecolor
14 /Times-Roman set_font
1533.5 227.9 moveto 31 (eps:E) alignedtext
grestore
% 39->45
gsave
1 setlinewidth
0.000 0.000 0.000 edgecolor
newpath 1622 113 moveto
1639 117 1662 123 1679 136 curveto
1688 143 1695 152 1701 161 curveto
stroke
0.000 0.000 0.000 edgecolor
newpath 1698.08 162.96 moveto
1706 170 lineto
1704.2 159.56 lineto
closepath fill
1 setlinewidth
solid
0.000 0.000 0.000 edgecolor
newpath 1698.08 162.96 moveto
1706 170 lineto
1704.2 159.56 lineto
closepath stroke
0.000 0.000 0.000 edgecolor
14 /Times-Roman set_font
1640.5 140.9 moveto 35 (AH:U) alignedtext
grestore
% 50
gsave
1 setlinewidth
solid
0.000 0.000 0.000 nodecolor
1868 218 20.85 20.85 ellipse_path stroke
0.000 0.000 0.000 nodecolor
14 /Times-Roman set_font
1861 213.9 moveto 14 (50) alignedtext
grestore
% 45->50
gsave
1 setlinewidth
0.000 0.000 0.000 edgecolor
newpath 1736 193 moveto
1762 198 1807 207 1837 212 curveto
stroke
0.000 0.000 0.000 edgecolor
newpath 1836.51 215.47 moveto
1847 214 lineto
1837.88 208.61 lineto
closepath fill
1 setlinewidth
solid
0.000 0.000 0.000 edgecolor
newpath 1836.51 215.47 moveto
1847 214 lineto
1837.88 208.61 lineto
closepath stroke
0.000 0.000 0.000 edgecolor
14 /Times-Roman set_font
1751.5 205.9 moveto 23 (N:N) alignedtext
grestore
% 46
gsave
1 setlinewidth
solid
0.000 0.000 0.000 nodecolor
1715 50 21.04 21.04 ellipse_path stroke
0.000 0.000 0.000 nodecolor
14 /Times-Roman set_font
1707.5 45.9 moveto 15 (46) alignedtext
grestore
% 40->46
gsave
1 setlinewidth
0.000 0.000 0.000 edgecolor
newpath 1622 50 moveto
1639 50 1664 50 1684 50 curveto
stroke
0.000 0.000 0.000 edgecolor
newpath 1684 53.5 moveto
1694 50 lineto
1684 46.5 lineto
closepath fill
1 setlinewidth
solid
0.000 0.000 0.000 edgecolor
newpath 1684 53.5 moveto
1694 50 lineto
1684 46.5 lineto
closepath stroke
0.000 0.000 0.000 edgecolor
14 /Times-Roman set_font
1642 54.9 moveto 32 (eps:N) alignedtext
grestore
% 47
gsave
1 setlinewidth
solid
0.000 0.000 0.000 nodecolor
1334 375 20.85 20.85 ellipse_path stroke
0.000 0.000 0.000 nodecolor
14 /Times-Roman set_font
1327 370.9 moveto 14 (47) alignedtext
grestore
% 41->47
gsave
1 setlinewidth
0.000 0.000 0.000 edgecolor
newpath 1241 369 moveto
1258 370 1283 371 1303 373 curveto
stroke
0.000 0.000 0.000 edgecolor
newpath 1302.7 376.49 moveto
1313 374 lineto
1303.4 369.52 lineto
closepath fill
1 setlinewidth
solid
0.000 0.000 0.000 edgecolor
newpath 1302.7 376.49 moveto
1313 374 lineto
1303.4 369.52 lineto
closepath stroke
0.000 0.000 0.000 edgecolor
14 /Times-Roman set_font
1261 374.9 moveto 32 (eps:R) alignedtext
grestore
% 48
gsave
1 setlinewidth
solid
0.000 0.000 0.000 nodecolor
1277 429 20.85 20.85 ellipse_path stroke
0.000 0.000 0.000 nodecolor
14 /Times-Roman set_font
1270 424.9 moveto 14 (48) alignedtext
grestore
% 42->48
gsave
1 setlinewidth
0.000 0.000 0.000 edgecolor
newpath 1184 429 moveto
1201 429 1226 429 1246 429 curveto
stroke
0.000 0.000 0.000 edgecolor
newpath 1246 432.5 moveto
1256 429 lineto
1246 425.5 lineto
closepath fill
1 setlinewidth
solid
0.000 0.000 0.000 edgecolor
newpath 1246 432.5 moveto
1256 429 lineto
1246 425.5 lineto
closepath stroke
0.000 0.000 0.000 edgecolor
14 /Times-Roman set_font
1205 432.9 moveto 30 (eps:P) alignedtext
grestore
% 44->45
gsave
1 setlinewidth
0.000 0.000 0.000 edgecolor
newpath 1621 217 moveto
1639 212 1665 204 1685 198 curveto
stroke
0.000 0.000 0.000 edgecolor
newpath 1686.43 201.23 moveto
1695 195 lineto
1684.42 194.52 lineto
closepath fill
1 setlinewidth
solid
0.000 0.000 0.000 edgecolor
newpath 1686.43 201.23 moveto
1695 195 lineto
1684.42 194.52 lineto
closepath stroke
0.000 0.000 0.000 edgecolor
14 /Times-Roman set_font
1640.5 217.9 moveto 35 (AH:U) alignedtext
grestore
% 51
gsave
1 setlinewidth
solid
0.000 0.000 0.000 nodecolor
1811 50 20.85 20.85 ellipse_path stroke
0.000 0.000 0.000 nodecolor
14 /Times-Roman set_font
1804 45.9 moveto 14 (51) alignedtext
grestore
% 46->51
gsave
1 setlinewidth
0.000 0.000 0.000 edgecolor
newpath 1736 50 moveto
1749 50 1765 50 1780 50 curveto
stroke
0.000 0.000 0.000 edgecolor
newpath 1780 53.5 moveto
1790 50 lineto
1780 46.5 lineto
closepath fill
1 setlinewidth
solid
0.000 0.000 0.000 edgecolor
newpath 1780 53.5 moveto
1790 50 lineto
1780 46.5 lineto
closepath stroke
0.000 0.000 0.000 edgecolor
14 /Times-Roman set_font
1756 54.9 moveto 14 (Z:') alignedtext
grestore
% 52
gsave
1 setlinewidth
solid
0.000 0.000 0.000 nodecolor
1715 378 20.85 20.85 ellipse_path stroke
0.000 0.000 0.000 nodecolor
14 /Times-Roman set_font
1708 373.9 moveto 14 (52) alignedtext
grestore
% 47->52
gsave
1 setlinewidth
0.000 0.000 0.000 edgecolor
newpath 1355 376 moveto
1378 377 1414 378 1444 378 curveto
1444 378 1444 378 1601 378 curveto
1629 378 1661 378 1684 378 curveto
stroke
0.000 0.000 0.000 edgecolor
newpath 1684 381.5 moveto
1694 378 lineto
1684 374.5 lineto
closepath fill
1 setlinewidth
solid
0.000 0.000 0.000 edgecolor
newpath 1684 381.5 moveto
1694 378 lineto
1684 374.5 lineto
closepath stroke
0.000 0.000 0.000 edgecolor
14 /Times-Roman set_font
1477 381.9 moveto 40 (ER:eps) alignedtext
grestore
% 59
gsave
1 setlinewidth
solid
0.000 0.000 0.000 nodecolor
1391 429 20.85 20.85 ellipse_path stroke
0.000 0.000 0.000 nodecolor
14 /Times-Roman set_font
1384 424.9 moveto 14 (59) alignedtext
grestore
% 48->59
gsave
1 setlinewidth
0.000 0.000 0.000 edgecolor
newpath 1298 429 moveto
1315 429 1340 429 1360 429 curveto
stroke
0.000 0.000 0.000 edgecolor
newpath 1360 432.5 moveto
1370 429 lineto
1360 425.5 lineto
closepath fill
1 setlinewidth
solid
0.000 0.000 0.000 edgecolor
newpath 1360 432.5 moveto
1370 429 lineto
1360 425.5 lineto
closepath stroke
0.000 0.000 0.000 edgecolor
14 /Times-Roman set_font
1319.5 432.9 moveto 29 (ER:E) alignedtext
grestore
% 60
gsave
1 setlinewidth
solid
0.000 0.000 0.000 nodecolor
1391 325 21.04 21.04 ellipse_path stroke
0.000 0.000 0.000 nodecolor
14 /Times-Roman set_font
1383.5 320.9 moveto 15 (60) alignedtext
grestore
% 48->60
gsave
1 setlinewidth
0.000 0.000 0.000 edgecolor
newpath 1289 411 moveto
1292 405 1296 398 1298 392 curveto
1309 364 1291 346 1313 328 curveto
1326 317 1345 316 1361 318 curveto
stroke
0.000 0.000 0.000 edgecolor
newpath 1360.7 321.49 moveto
1371 319 lineto
1361.4 314.52 lineto
closepath fill
1 setlinewidth
solid
0.000 0.000 0.000 edgecolor
newpath 1360.7 321.49 moveto
1371 319 lineto
1361.4 314.52 lineto
closepath stroke
0.000 0.000 0.000 edgecolor
14 /Times-Roman set_font
1318 331.9 moveto 32 (ER:O) alignedtext
grestore
% 61
gsave
1 setlinewidth
solid
0.000 0.000 0.000 nodecolor
1391 491 21.04 21.04 ellipse_path stroke
0.000 0.000 0.000 nodecolor
14 /Times-Roman set_font
1383.5 486.9 moveto 15 (61) alignedtext
grestore
% 48->61
gsave
1 setlinewidth
0.000 0.000 0.000 edgecolor
newpath 1295 440 moveto
1301 443 1307 447 1313 450 curveto
1329 458 1348 468 1363 476 curveto
stroke
0.000 0.000 0.000 edgecolor
newpath 1361.56 479.2 moveto
1372 481 lineto
1364.96 473.08 lineto
closepath fill
1 setlinewidth
solid
0.000 0.000 0.000 edgecolor
newpath 1361.56 479.2 moveto
1372 481 lineto
1364.96 473.08 lineto
closepath stroke
0.000 0.000 0.000 edgecolor
14 /Times-Roman set_font
1318 472.9 moveto 32 (ER:A) alignedtext
grestore
% 53
gsave
1 setlinewidth
solid
0.000 0.000 0.000 nodecolor
2029 309 20.85 20.85 ellipse_path stroke
0.000 0.000 0.000 nodecolor
14 /Times-Roman set_font
2022 304.9 moveto 14 (53) alignedtext
grestore
% 49->53
gsave
1 setlinewidth
0.000 0.000 0.000 edgecolor
newpath 1950 311 moveto
1964 310 1982 310 1998 309 curveto
stroke
0.000 0.000 0.000 edgecolor
newpath 1998 312.5 moveto
2008 309 lineto
1998 305.5 lineto
closepath fill
1 setlinewidth
solid
0.000 0.000 0.000 edgecolor
newpath 1998 312.5 moveto
2008 309 lineto
1998 305.5 lineto
closepath stroke
0.000 0.000 0.000 edgecolor
14 /Times-Roman set_font
1969.5 313.9 moveto 23 (N:N) alignedtext
grestore
% 58
gsave
1 setlinewidth
solid
0.000 0.000 0.000 nodecolor
2125 240 20.85 20.85 ellipse_path stroke
1 setlinewidth
solid
0.000 0.000 0.000 nodecolor
2125 240 24.85 24.85 ellipse_path stroke
0.000 0.000 0.000 nodecolor
14 /Times-Roman set_font
2118 235.9 moveto 14 (58) alignedtext
grestore
% 50->58
gsave
1 setlinewidth
0.000 0.000 0.000 edgecolor
newpath 1889 220 moveto
1933 224 2035 233 2090 237 curveto
stroke
0.000 0.000 0.000 edgecolor
newpath 2089.7 240.49 moveto
2100 238 lineto
2090.4 233.52 lineto
closepath fill
1 setlinewidth
solid
0.000 0.000 0.000 edgecolor
newpath 2089.7 240.49 moveto
2100 238 lineto
2090.4 233.52 lineto
closepath stroke
0.000 0.000 0.000 edgecolor
14 /Times-Roman set_font
1971 234.9 moveto 20 (Z:Z) alignedtext
grestore
% 54
gsave
1 setlinewidth
solid
0.000 0.000 0.000 nodecolor
1929 50 20.85 20.85 ellipse_path stroke
1 setlinewidth
solid
0.000 0.000 0.000 nodecolor
1929 50 24.85 24.85 ellipse_path stroke
0.000 0.000 0.000 nodecolor
14 /Times-Roman set_font
1922 45.9 moveto 14 (54) alignedtext
grestore
% 51->54
gsave
1 setlinewidth
0.000 0.000 0.000 edgecolor
newpath 1832 50 moveto
1849 50 1874 50 1894 50 curveto
stroke
0.000 0.000 0.000 edgecolor
newpath 1894 53.5 moveto
1904 50 lineto
1894 46.5 lineto
closepath fill
1 setlinewidth
solid
0.000 0.000 0.000 edgecolor
newpath 1894 53.5 moveto
1904 50 lineto
1894 46.5 lineto
closepath stroke
0.000 0.000 0.000 edgecolor
14 /Times-Roman set_font
1853 54.9 moveto 30 (eps:S) alignedtext
grestore
% 52->43
gsave
1 setlinewidth
0.000 0.000 0.000 edgecolor
newpath 1734 367 moveto
1748 359 1768 347 1784 337 curveto
stroke
0.000 0.000 0.000 edgecolor
newpath 1785.96 339.92 moveto
1793 332 lineto
1782.56 333.8 lineto
closepath fill
1 setlinewidth
solid
0.000 0.000 0.000 edgecolor
newpath 1785.96 339.92 moveto
1793 332 lineto
1782.56 333.8 lineto
closepath stroke
0.000 0.000 0.000 edgecolor
14 /Times-Roman set_font
1753.5 358.9 moveto 19 (S:S) alignedtext
grestore
% 59->31
gsave
1 setlinewidth
0.000 0.000 0.000 edgecolor
newpath 1406 414 moveto
1424 395 1454 365 1475 343 curveto
stroke
0.000 0.000 0.000 edgecolor
newpath 1477.4 345.55 moveto
1482 336 lineto
1472.45 340.6 lineto
closepath fill
1 setlinewidth
solid
0.000 0.000 0.000 edgecolor
newpath 1477.4 345.55 moveto
1482 336 lineto
1472.45 340.6 lineto
closepath stroke
0.000 0.000 0.000 edgecolor
14 /Times-Roman set_font
1428 393.9 moveto 32 (eps:R) alignedtext
grestore
% 62
gsave
1 setlinewidth
solid
0.000 0.000 0.000 nodecolor
1497 434 21.04 21.04 ellipse_path stroke
0.000 0.000 0.000 nodecolor
14 /Times-Roman set_font
1489.5 429.9 moveto 15 (62) alignedtext
grestore
% 59->62
gsave
1 setlinewidth
0.000 0.000 0.000 edgecolor
newpath 1412 430 moveto
1428 431 1448 432 1466 432 curveto
stroke
0.000 0.000 0.000 edgecolor
newpath 1465.7 435.49 moveto
1476 433 lineto
1466.4 428.52 lineto
closepath fill
1 setlinewidth
solid
0.000 0.000 0.000 edgecolor
newpath 1465.7 435.49 moveto
1476 433 lineto
1466.4 428.52 lineto
closepath stroke
0.000 0.000 0.000 edgecolor
14 /Times-Roman set_font
1427.5 434.9 moveto 33 (eps:U) alignedtext
grestore
% 60->31
gsave
1 setlinewidth
0.000 0.000 0.000 edgecolor
newpath 1412 324 moveto
1428 323 1448 322 1466 322 curveto
stroke
0.000 0.000 0.000 edgecolor
newpath 1466 325.5 moveto
1476 322 lineto
1466 318.5 lineto
closepath fill
1 setlinewidth
solid
0.000 0.000 0.000 edgecolor
newpath 1466 325.5 moveto
1476 322 lineto
1466 318.5 lineto
closepath stroke
0.000 0.000 0.000 edgecolor
14 /Times-Roman set_font
1428 326.9 moveto 32 (eps:R) alignedtext
grestore
% 63
gsave
1 setlinewidth
solid
0.000 0.000 0.000 nodecolor
1497 494 21.04 21.04 ellipse_path stroke
0.000 0.000 0.000 nodecolor
14 /Times-Roman set_font
1489.5 489.9 moveto 15 (63) alignedtext
grestore
% 61->63
gsave
1 setlinewidth
0.000 0.000 0.000 edgecolor
newpath 1412 492 moveto
1428 492 1448 493 1466 493 curveto
stroke
0.000 0.000 0.000 edgecolor
newpath 1466 496.5 moveto
1476 493 lineto
1466 489.5 lineto
closepath fill
1 setlinewidth
solid
0.000 0.000 0.000 edgecolor
newpath 1466 496.5 moveto
1476 493 lineto
1466 489.5 lineto
closepath stroke
0.000 0.000 0.000 edgecolor
14 /Times-Roman set_font
1428 495.9 moveto 32 (eps:R) alignedtext
grestore
% 53->58
gsave
1 setlinewidth
0.000 0.000 0.000 edgecolor
newpath 2046 297 moveto
2060 287 2080 272 2097 261 curveto
stroke
0.000 0.000 0.000 edgecolor
newpath 2099.1 263.8 moveto
2105 255 lineto
2094.9 258.2 lineto
closepath fill
1 setlinewidth
solid
0.000 0.000 0.000 edgecolor
newpath 2099.1 263.8 moveto
2105 255 lineto
2094.9 258.2 lineto
closepath stroke
0.000 0.000 0.000 edgecolor
14 /Times-Roman set_font
2065 285.9 moveto 20 (Z:S) alignedtext
grestore
% 56
gsave
1 setlinewidth
solid
0.000 0.000 0.000 nodecolor
2125 309 20.85 20.85 ellipse_path stroke
0.000 0.000 0.000 nodecolor
14 /Times-Roman set_font
2118 304.9 moveto 14 (56) alignedtext
grestore
% 53->56
gsave
1 setlinewidth
0.000 0.000 0.000 edgecolor
newpath 2050 309 moveto
2063 309 2079 309 2094 309 curveto
stroke
0.000 0.000 0.000 edgecolor
newpath 2094 312.5 moveto
2104 309 lineto
2094 305.5 lineto
closepath fill
1 setlinewidth
solid
0.000 0.000 0.000 edgecolor
newpath 2094 312.5 moveto
2104 309 lineto
2094 305.5 lineto
closepath stroke
0.000 0.000 0.000 edgecolor
14 /Times-Roman set_font
2068 312.9 moveto 14 (Z:') alignedtext
grestore
% 57
gsave
1 setlinewidth
solid
0.000 0.000 0.000 nodecolor
2235 309 20.85 20.85 ellipse_path stroke
1 setlinewidth
solid
0.000 0.000 0.000 nodecolor
2235 309 24.85 24.85 ellipse_path stroke
0.000 0.000 0.000 nodecolor
14 /Times-Roman set_font
2228 304.9 moveto 14 (57) alignedtext
grestore
% 56->57
gsave
1 setlinewidth
0.000 0.000 0.000 edgecolor
newpath 2146 309 moveto
2161 309 2182 309 2200 309 curveto
stroke
0.000 0.000 0.000 edgecolor
newpath 2200 312.5 moveto
2210 309 lineto
2200 305.5 lineto
closepath fill
1 setlinewidth
solid
0.000 0.000 0.000 edgecolor
newpath 2200 312.5 moveto
2210 309 lineto
2200 305.5 lineto
closepath stroke
0.000 0.000 0.000 edgecolor
14 /Times-Roman set_font
2165 312.9 moveto 30 (eps:S) alignedtext
grestore
% 55
gsave
1 setlinewidth
solid
0.000 0.000 0.000 nodecolor
1658 474 20.85 20.85 ellipse_path stroke
0.000 0.000 0.000 nodecolor
14 /Times-Roman set_font
1651 469.9 moveto 14 (55) alignedtext
grestore
% 55->43
gsave
1 setlinewidth
0.000 0.000 0.000 edgecolor
newpath 1675 462 moveto
1699 445 1744 411 1775 376 curveto
1783 368 1790 357 1796 348 curveto
stroke
0.000 0.000 0.000 edgecolor
newpath 1799.2 349.44 moveto
1801 339 lineto
1793.08 346.04 lineto
closepath fill
1 setlinewidth
solid
0.000 0.000 0.000 edgecolor
newpath 1799.2 349.44 moveto
1801 339 lineto
1793.08 346.04 lineto
closepath stroke
0.000 0.000 0.000 edgecolor
14 /Times-Roman set_font
1705.5 450.9 moveto 19 (S:S) alignedtext
grestore
% 64
gsave
1 setlinewidth
solid
0.000 0.000 0.000 nodecolor
1601 429 21.04 21.04 ellipse_path stroke
0.000 0.000 0.000 nodecolor
14 /Times-Roman set_font
1593.5 424.9 moveto 15 (64) alignedtext
grestore
% 62->64
gsave
1 setlinewidth
0.000 0.000 0.000 edgecolor
newpath 1518 433 moveto
1533 432 1553 431 1570 431 curveto
stroke
0.000 0.000 0.000 edgecolor
newpath 1570.4 434.48 moveto
1580 430 lineto
1569.7 427.51 lineto
closepath fill
1 setlinewidth
solid
0.000 0.000 0.000 edgecolor
newpath 1570.4 434.48 moveto
1580 430 lineto
1569.7 427.51 lineto
closepath stroke
0.000 0.000 0.000 edgecolor
14 /Times-Roman set_font
1533 434.9 moveto 32 (eps:R) alignedtext
grestore
% 63->55
gsave
1 setlinewidth
0.000 0.000 0.000 edgecolor
newpath 1518 491 moveto
1546 487 1595 481 1627 478 curveto
stroke
0.000 0.000 0.000 edgecolor
newpath 1627.4 481.48 moveto
1637 477 lineto
1626.7 474.51 lineto
closepath fill
1 setlinewidth
solid
0.000 0.000 0.000 edgecolor
newpath 1627.4 481.48 moveto
1637 477 lineto
1626.7 474.51 lineto
closepath stroke
0.000 0.000 0.000 edgecolor
14 /Times-Roman set_font
1533.5 492.9 moveto 31 (eps:E) alignedtext
grestore
% 64->52
gsave
1 setlinewidth
0.000 0.000 0.000 edgecolor
newpath 1620 420 moveto
1638 412 1666 400 1687 391 curveto
stroke
0.000 0.000 0.000 edgecolor
newpath 1688.28 394.26 moveto
1696 387 lineto
1685.44 387.86 lineto
closepath fill
1 setlinewidth
solid
0.000 0.000 0.000 edgecolor
newpath 1688.28 394.26 moveto
1696 387 lineto
1685.44 387.86 lineto
closepath stroke
0.000 0.000 0.000 edgecolor
14 /Times-Roman set_font
1642.5 414.9 moveto 31 (eps:E) alignedtext
grestore
endpage
showpage
grestore
%%PageTrailer
%%EndPage: 1
%%Trailer
%%Pages: 1
%%BoundingBox: 235 90 377 702
end
restore
%%EOF
