%!PS-Adobe-3.0 EPSF-3.0
%%Creator: Graphviz version 2.20.3 (Tue Oct 14 12:23:50 UTC 2008)
%%For: (ashishdepankaj) Ashish Depankaj
%%Title: FSM
%%Pages: (atend)
%%BoundingBox: (atend)
%%EndComments
save
%%BeginProlog
/DotDict 200 dict def
DotDict begin

/setupLatin1 {
mark
/EncodingVector 256 array def
 EncodingVector 0

ISOLatin1Encoding 0 255 getinterval putinterval
EncodingVector 45 /hyphen put

% Set up ISO Latin 1 character encoding
/starnetISO {
        dup dup findfont dup length dict begin
        { 1 index /FID ne { def }{ pop pop } ifelse
        } forall
        /Encoding EncodingVector def
        currentdict end definefont
} def
/Times-Roman starnetISO def
/Times-Italic starnetISO def
/Times-Bold starnetISO def
/Times-BoldItalic starnetISO def
/Helvetica starnetISO def
/Helvetica-Oblique starnetISO def
/Helvetica-Bold starnetISO def
/Helvetica-BoldOblique starnetISO def
/Courier starnetISO def
/Courier-Oblique starnetISO def
/Courier-Bold starnetISO def
/Courier-BoldOblique starnetISO def
cleartomark
} bind def

%%BeginResource: procset graphviz 0 0
/coord-font-family /Times-Roman def
/default-font-family /Times-Roman def
/coordfont coord-font-family findfont 8 scalefont def

/InvScaleFactor 1.0 def
/set_scale {
       dup 1 exch div /InvScaleFactor exch def
       scale
} bind def

% styles
/solid { [] 0 setdash } bind def
/dashed { [9 InvScaleFactor mul dup ] 0 setdash } bind def
/dotted { [1 InvScaleFactor mul 6 InvScaleFactor mul] 0 setdash } bind def
/invis {/fill {newpath} def /stroke {newpath} def /show {pop newpath} def} bind def
/bold { 2 setlinewidth } bind def
/filled { } bind def
/unfilled { } bind def
/rounded { } bind def
/diagonals { } bind def

% hooks for setting color 
/nodecolor { sethsbcolor } bind def
/edgecolor { sethsbcolor } bind def
/graphcolor { sethsbcolor } bind def
/nopcolor {pop pop pop} bind def

/beginpage {	% i j npages
	/npages exch def
	/j exch def
	/i exch def
	/str 10 string def
	npages 1 gt {
		gsave
			coordfont setfont
			0 0 moveto
			(\() show i str cvs show (,) show j str cvs show (\)) show
		grestore
	} if
} bind def

/set_font {
	findfont exch
	scalefont setfont
} def

% draw text fitted to its expected width
/alignedtext {			% width text
	/text exch def
	/width exch def
	gsave
		width 0 gt {
			[] 0 setdash
			text stringwidth pop width exch sub text length div 0 text ashow
		} if
	grestore
} def

/boxprim {				% xcorner ycorner xsize ysize
		4 2 roll
		moveto
		2 copy
		exch 0 rlineto
		0 exch rlineto
		pop neg 0 rlineto
		closepath
} bind def

/ellipse_path {
	/ry exch def
	/rx exch def
	/y exch def
	/x exch def
	matrix currentmatrix
	newpath
	x y translate
	rx ry scale
	0 0 1 0 360 arc
	setmatrix
} bind def

/endpage { showpage } bind def
/showpage { } def

/layercolorseq
	[	% layer color sequence - darkest to lightest
		[0 0 0]
		[.2 .8 .8]
		[.4 .8 .8]
		[.6 .8 .8]
		[.8 .8 .8]
	]
def

/layerlen layercolorseq length def

/setlayer {/maxlayer exch def /curlayer exch def
	layercolorseq curlayer 1 sub layerlen mod get
	aload pop sethsbcolor
	/nodecolor {nopcolor} def
	/edgecolor {nopcolor} def
	/graphcolor {nopcolor} def
} bind def

/onlayer { curlayer ne {invis} if } def

/onlayers {
	/myupper exch def
	/mylower exch def
	curlayer mylower lt
	curlayer myupper gt
	or
	{invis} if
} def

/curlayer 0 def

%%EndResource
%%EndProlog
%%BeginSetup
14 default-font-family set_font
1 setmiterlimit
% /arrowlength 10 def
% /arrowwidth 5 def

% make sure pdfmark is harmless for PS-interpreters other than Distiller
/pdfmark where {pop} {userdict /pdfmark /cleartomark load put} ifelse
% make '<<' and '>>' safe on PS Level 1 devices
/languagelevel where {pop languagelevel}{1} ifelse
2 lt {
    userdict (<<) cvn ([) cvn load put
    userdict (>>) cvn ([) cvn load put
} if

%%EndSetup
setupLatin1
%%Page: 1 1
%%PageBoundingBox: 241 227 371 565
%%PageOrientation: Landscape
0 0 1 beginpage
gsave
241 227 130 338 boxprim clip newpath
1 1 set_scale 90 rotate 231 -367 translate
% 0
gsave
2 setlinewidth
bold
0.000 0.000 0.000 nodecolor
18 54 18 18 ellipse_path stroke
0.000 0.000 0.000 nodecolor
14 /Times-Roman set_font
14 49.9 moveto 8 (0) alignedtext
grestore
% 1
gsave
1 setlinewidth
solid
0.000 0.000 0.000 nodecolor
148 84 18 18 ellipse_path stroke
0.000 0.000 0.000 nodecolor
14 /Times-Roman set_font
144 79.9 moveto 8 (1) alignedtext
grestore
% 0->1
gsave
1 setlinewidth
0.000 0.000 0.000 edgecolor
newpath 34 63 moveto
39 67 45 70 51 72 curveto
74 79 100 82 120 83 curveto
stroke
0.000 0.000 0.000 edgecolor
newpath 119.7 86.49 moveto
130 84 lineto
120.4 79.52 lineto
closepath fill
1 setlinewidth
solid
0.000 0.000 0.000 edgecolor
newpath 119.7 86.49 moveto
130 84 lineto
120.4 79.52 lineto
closepath stroke
0.000 0.000 0.000 edgecolor
14 /Times-Roman set_font
51.5 84.9 moveto 53 (a:2/0.800) alignedtext
grestore
% 0->1
gsave
1 setlinewidth
0.000 0.000 0.000 edgecolor
newpath 35 49 moveto
53 44 82 39 105 48 curveto
114 51 122 57 129 63 curveto
stroke
0.000 0.000 0.000 edgecolor
newpath 126.45 65.4 moveto
136 70 lineto
131.4 60.45 lineto
closepath fill
1 setlinewidth
solid
0.000 0.000 0.000 edgecolor
newpath 126.45 65.4 moveto
136 70 lineto
131.4 60.45 lineto
closepath stroke
0.000 0.000 0.000 edgecolor
14 /Times-Roman set_font
59 51.9 moveto 38 (a:2/0.5) alignedtext
grestore
% 3
gsave
1 setlinewidth
solid
0.000 0.000 0.000 nodecolor
302 26 18 18 ellipse_path stroke
0.000 0.000 0.000 nodecolor
14 /Times-Roman set_font
298 21.9 moveto 8 (3) alignedtext
grestore
% 0->3
gsave
1 setlinewidth
0.000 0.000 0.000 edgecolor
newpath 33 44 moveto
39 41 45 39 51 37 curveto
130 17 227 20 274 23 curveto
stroke
0.000 0.000 0.000 edgecolor
newpath 273.7 26.49 moveto
284 24 lineto
274.4 19.52 lineto
closepath fill
1 setlinewidth
solid
0.000 0.000 0.000 edgecolor
newpath 273.7 26.49 moveto
284 24 lineto
274.4 19.52 lineto
closepath stroke
0.000 0.000 0.000 edgecolor
14 /Times-Roman set_font
120.5 27.9 moveto 55 (b:1/0.200) alignedtext
grestore
% 1->3
gsave
1 setlinewidth
0.000 0.000 0.000 edgecolor
newpath 164 76 moveto
172 73 182 68 191 65 curveto
220 54 253 42 275 35 curveto
stroke
0.000 0.000 0.000 edgecolor
newpath 276.43 38.23 moveto
285 32 lineto
274.42 31.52 lineto
closepath fill
1 setlinewidth
solid
0.000 0.000 0.000 edgecolor
newpath 276.43 38.23 moveto
285 32 lineto
274.42 31.52 lineto
closepath stroke
0.000 0.000 0.000 edgecolor
14 /Times-Roman set_font
197.5 68.9 moveto 55 (b:0/0.200) alignedtext
grestore
% 2
gsave
1 setlinewidth
solid
0.000 0.000 0.000 nodecolor
302 94 23.89 23.89 ellipse_path stroke
1 setlinewidth
solid
0.000 0.000 0.000 nodecolor
302 94 27.82 27.82 ellipse_path stroke
0.000 0.000 0.000 nodecolor
14 /Times-Roman set_font
292.5 89.9 moveto 19 (2/0) alignedtext
grestore
% 1->2
gsave
1 setlinewidth
0.000 0.000 0.000 edgecolor
newpath 166 85 moveto
190 87 232 89 264 91 curveto
stroke
0.000 0.000 0.000 edgecolor
newpath 263.7 94.49 moveto
274 92 lineto
264.4 87.52 lineto
closepath fill
1 setlinewidth
solid
0.000 0.000 0.000 edgecolor
newpath 263.7 94.49 moveto
274 92 lineto
264.4 87.52 lineto
closepath stroke
0.000 0.000 0.000 edgecolor
14 /Times-Roman set_font
191.5 93.9 moveto 67 (eps:1/0.300) alignedtext
grestore
endpage
showpage
grestore
%%PageTrailer
%%EndPage: 1
%%Trailer
%%Pages: 1
%%BoundingBox: 241 227 371 565
end
restore
%%EOF
