%!PS-Adobe-3.0 EPSF-3.0
%%Creator: Graphviz version 2.20.3 (Tue Oct 14 12:23:50 UTC 2008)
%%For: (ashishdepankaj) Ashish Depankaj
%%Title: FSM
%%Pages: (atend)
%%BoundingBox: (atend)
%%EndComments
save
%%BeginProlog
/DotDict 200 dict def
DotDict begin

/setupLatin1 {
mark
/EncodingVector 256 array def
 EncodingVector 0

ISOLatin1Encoding 0 255 getinterval putinterval
EncodingVector 45 /hyphen put

% Set up ISO Latin 1 character encoding
/starnetISO {
        dup dup findfont dup length dict begin
        { 1 index /FID ne { def }{ pop pop } ifelse
        } forall
        /Encoding EncodingVector def
        currentdict end definefont
} def
/Times-Roman starnetISO def
/Times-Italic starnetISO def
/Times-Bold starnetISO def
/Times-BoldItalic starnetISO def
/Helvetica starnetISO def
/Helvetica-Oblique starnetISO def
/Helvetica-Bold starnetISO def
/Helvetica-BoldOblique starnetISO def
/Courier starnetISO def
/Courier-Oblique starnetISO def
/Courier-Bold starnetISO def
/Courier-BoldOblique starnetISO def
cleartomark
} bind def

%%BeginResource: procset graphviz 0 0
/coord-font-family /Times-Roman def
/default-font-family /Times-Roman def
/coordfont coord-font-family findfont 8 scalefont def

/InvScaleFactor 1.0 def
/set_scale {
       dup 1 exch div /InvScaleFactor exch def
       scale
} bind def

% styles
/solid { [] 0 setdash } bind def
/dashed { [9 InvScaleFactor mul dup ] 0 setdash } bind def
/dotted { [1 InvScaleFactor mul 6 InvScaleFactor mul] 0 setdash } bind def
/invis {/fill {newpath} def /stroke {newpath} def /show {pop newpath} def} bind def
/bold { 2 setlinewidth } bind def
/filled { } bind def
/unfilled { } bind def
/rounded { } bind def
/diagonals { } bind def

% hooks for setting color 
/nodecolor { sethsbcolor } bind def
/edgecolor { sethsbcolor } bind def
/graphcolor { sethsbcolor } bind def
/nopcolor {pop pop pop} bind def

/beginpage {	% i j npages
	/npages exch def
	/j exch def
	/i exch def
	/str 10 string def
	npages 1 gt {
		gsave
			coordfont setfont
			0 0 moveto
			(\() show i str cvs show (,) show j str cvs show (\)) show
		grestore
	} if
} bind def

/set_font {
	findfont exch
	scalefont setfont
} def

% draw text fitted to its expected width
/alignedtext {			% width text
	/text exch def
	/width exch def
	gsave
		width 0 gt {
			[] 0 setdash
			text stringwidth pop width exch sub text length div 0 text ashow
		} if
	grestore
} def

/boxprim {				% xcorner ycorner xsize ysize
		4 2 roll
		moveto
		2 copy
		exch 0 rlineto
		0 exch rlineto
		pop neg 0 rlineto
		closepath
} bind def

/ellipse_path {
	/ry exch def
	/rx exch def
	/y exch def
	/x exch def
	matrix currentmatrix
	newpath
	x y translate
	rx ry scale
	0 0 1 0 360 arc
	setmatrix
} bind def

/endpage { showpage } bind def
/showpage { } def

/layercolorseq
	[	% layer color sequence - darkest to lightest
		[0 0 0]
		[.2 .8 .8]
		[.4 .8 .8]
		[.6 .8 .8]
		[.8 .8 .8]
	]
def

/layerlen layercolorseq length def

/setlayer {/maxlayer exch def /curlayer exch def
	layercolorseq curlayer 1 sub layerlen mod get
	aload pop sethsbcolor
	/nodecolor {nopcolor} def
	/edgecolor {nopcolor} def
	/graphcolor {nopcolor} def
} bind def

/onlayer { curlayer ne {invis} if } def

/onlayers {
	/myupper exch def
	/mylower exch def
	curlayer mylower lt
	curlayer myupper gt
	or
	{invis} if
} def

/curlayer 0 def

%%EndResource
%%EndProlog
%%BeginSetup
14 default-font-family set_font
1 setmiterlimit
% /arrowlength 10 def
% /arrowwidth 5 def

% make sure pdfmark is harmless for PS-interpreters other than Distiller
/pdfmark where {pop} {userdict /pdfmark /cleartomark load put} ifelse
% make '<<' and '>>' safe on PS Level 1 devices
/languagelevel where {pop languagelevel}{1} ifelse
2 lt {
    userdict (<<) cvn ([) cvn load put
    userdict (>>) cvn ([) cvn load put
} if

%%EndSetup
setupLatin1
%%Page: 1 1
%%PageBoundingBox: 83 158 530 634
%%PageOrientation: Landscape
0 0 1 beginpage
gsave
83 158 447 476 boxprim clip newpath
1 1 set_scale 90 rotate 162 -525.5 translate
% 0
gsave
2 setlinewidth
bold
0.000 0.000 0.000 nodecolor
28 183 23.89 23.89 ellipse_path stroke
2 setlinewidth
bold
0.000 0.000 0.000 nodecolor
28 183 27.82 27.82 ellipse_path stroke
0.000 0.000 0.000 nodecolor
14 /Times-Roman set_font
18.5 178.9 moveto 19 (0/0) alignedtext
grestore
% 2
gsave
1 setlinewidth
solid
0.000 0.000 0.000 nodecolor
158 338 23.89 23.89 ellipse_path stroke
1 setlinewidth
solid
0.000 0.000 0.000 nodecolor
158 338 27.82 27.82 ellipse_path stroke
0.000 0.000 0.000 nodecolor
14 /Times-Roman set_font
148.5 333.9 moveto 19 (2/0) alignedtext
grestore
% 0->2
gsave
1 setlinewidth
0.000 0.000 0.000 edgecolor
newpath 40 209 moveto
47 225 59 245 71 262 curveto
87 282 110 301 127 315 curveto
stroke
0.000 0.000 0.000 edgecolor
newpath 124.9 317.8 moveto
135 321 lineto
129.1 312.2 lineto
closepath fill
1 setlinewidth
solid
0.000 0.000 0.000 edgecolor
newpath 124.9 317.8 moveto
135 321 lineto
129.1 312.2 lineto
closepath stroke
0.000 0.000 0.000 edgecolor
14 /Times-Roman set_font
75.5 306.9 moveto 35 (<s>/2) alignedtext
grestore
% 4
gsave
1 setlinewidth
solid
0.000 0.000 0.000 nodecolor
158 261 23.89 23.89 ellipse_path stroke
1 setlinewidth
solid
0.000 0.000 0.000 nodecolor
158 261 27.82 27.82 ellipse_path stroke
0.000 0.000 0.000 nodecolor
14 /Times-Roman set_font
148.5 256.9 moveto 19 (4/0) alignedtext
grestore
% 0->4
gsave
1 setlinewidth
0.000 0.000 0.000 edgecolor
newpath 49 203 moveto
55 209 63 215 71 220 curveto
87 230 106 239 123 247 curveto
stroke
0.000 0.000 0.000 edgecolor
newpath 121.44 250.14 moveto
132 251 lineto
124.28 243.74 lineto
closepath fill
1 setlinewidth
solid
0.000 0.000 0.000 edgecolor
newpath 121.44 250.14 moveto
132 251 lineto
124.28 243.74 lineto
closepath stroke
0.000 0.000 0.000 edgecolor
14 /Times-Roman set_font
78 244.9 moveto 30 (jim/1) alignedtext
grestore
% 6
gsave
1 setlinewidth
solid
0.000 0.000 0.000 nodecolor
234 208 23.89 23.89 ellipse_path stroke
1 setlinewidth
solid
0.000 0.000 0.000 nodecolor
234 208 27.82 27.82 ellipse_path stroke
0.000 0.000 0.000 nodecolor
14 /Times-Roman set_font
224.5 203.9 moveto 19 (6/0) alignedtext
grestore
% 0->6
gsave
1 setlinewidth
0.000 0.000 0.000 edgecolor
newpath 56 186 moveto
93 191 156 199 196 204 curveto
stroke
0.000 0.000 0.000 edgecolor
newpath 195.7 207.49 moveto
206 205 lineto
196.4 200.52 lineto
closepath fill
1 setlinewidth
solid
0.000 0.000 0.000 edgecolor
newpath 195.7 207.49 moveto
206 205 lineto
196.4 200.52 lineto
closepath stroke
0.000 0.000 0.000 edgecolor
14 /Times-Roman set_font
74.5 195.9 moveto 37 (read/1) alignedtext
grestore
% 1
gsave
1 setlinewidth
solid
0.000 0.000 0.000 nodecolor
440 204 23.89 23.89 ellipse_path stroke
1 setlinewidth
solid
0.000 0.000 0.000 nodecolor
440 204 27.82 27.82 ellipse_path stroke
0.000 0.000 0.000 nodecolor
14 /Times-Roman set_font
430.5 199.9 moveto 19 (1/0) alignedtext
grestore
% 0->1
gsave
1 setlinewidth
0.000 0.000 0.000 edgecolor
newpath 55 175 moveto
100 163 191 142 267 154 curveto
316 160 369 178 404 190 curveto
stroke
0.000 0.000 0.000 edgecolor
newpath 403.42 193.54 moveto
414 194 lineto
406.02 187.04 lineto
closepath fill
1 setlinewidth
solid
0.000 0.000 0.000 edgecolor
newpath 403.42 193.54 moveto
414 194 lineto
406.02 187.04 lineto
closepath stroke
0.000 0.000 0.000 edgecolor
14 /Times-Roman set_font
215 157.9 moveto 38 (</s>/2) alignedtext
grestore
% 8
gsave
1 setlinewidth
solid
0.000 0.000 0.000 nodecolor
158 103 23.2 23.2 ellipse_path stroke
1 setlinewidth
solid
0.000 0.000 0.000 nodecolor
158 103 27.12 27.12 ellipse_path stroke
0.000 0.000 0.000 nodecolor
14 /Times-Roman set_font
149 98.9 moveto 18 (8/0) alignedtext
grestore
% 0->8
gsave
1 setlinewidth
0.000 0.000 0.000 edgecolor
newpath 42 158 moveto
49 147 59 135 71 127 curveto
86 117 105 111 121 108 curveto
stroke
0.000 0.000 0.000 edgecolor
newpath 121.88 111.39 moveto
131 106 lineto
120.51 104.53 lineto
closepath fill
1 setlinewidth
solid
0.000 0.000 0.000 edgecolor
newpath 121.88 111.39 moveto
131 106 lineto
120.51 104.53 lineto
closepath stroke
0.000 0.000 0.000 edgecolor
14 /Times-Roman set_font
80 130.9 moveto 26 (jill/1) alignedtext
grestore
% 10
gsave
1 setlinewidth
solid
0.000 0.000 0.000 nodecolor
234 41 29.19 29.19 ellipse_path stroke
1 setlinewidth
solid
0.000 0.000 0.000 nodecolor
234 41 33.19 33.19 ellipse_path stroke
0.000 0.000 0.000 nodecolor
14 /Times-Roman set_font
221 36.9 moveto 26 (10/0) alignedtext
grestore
% 0->10
gsave
1 setlinewidth
0.000 0.000 0.000 edgecolor
newpath 34 155 moveto
40 134 51 105 71 87 curveto
104 58 155 47 191 43 curveto
stroke
0.000 0.000 0.000 edgecolor
newpath 191.4 46.48 moveto
201 42 lineto
190.7 39.51 lineto
closepath fill
1 setlinewidth
solid
0.000 0.000 0.000 edgecolor
newpath 191.4 46.48 moveto
201 42 lineto
190.7 39.51 lineto
closepath stroke
0.000 0.000 0.000 edgecolor
14 /Times-Roman set_font
71 90.9 moveto 44 (wrote/1) alignedtext
grestore
% 3
gsave
1 setlinewidth
solid
0.000 0.000 0.000 nodecolor
310 411 23.89 23.89 ellipse_path stroke
1 setlinewidth
solid
0.000 0.000 0.000 nodecolor
310 411 27.82 27.82 ellipse_path stroke
0.000 0.000 0.000 nodecolor
14 /Times-Roman set_font
300.5 406.9 moveto 19 (3/0) alignedtext
grestore
% 2->3
gsave
1 setlinewidth
0.000 0.000 0.000 edgecolor
newpath 184 350 moveto
189 353 195 356 201 359 curveto
226 371 255 384 276 395 curveto
stroke
0.000 0.000 0.000 edgecolor
newpath 274.44 398.14 moveto
285 399 lineto
277.28 391.74 lineto
closepath fill
1 setlinewidth
solid
0.000 0.000 0.000 edgecolor
newpath 274.44 398.14 moveto
285 399 lineto
277.28 391.74 lineto
closepath stroke
0.000 0.000 0.000 edgecolor
14 /Times-Roman set_font
219 392.9 moveto 30 (jim/1) alignedtext
grestore
% 7
gsave
1 setlinewidth
solid
0.000 0.000 0.000 nodecolor
310 338 23.2 23.2 ellipse_path stroke
1 setlinewidth
solid
0.000 0.000 0.000 nodecolor
310 338 27.12 27.12 ellipse_path stroke
0.000 0.000 0.000 nodecolor
14 /Times-Roman set_font
301 333.9 moveto 18 (7/0) alignedtext
grestore
% 2->7
gsave
1 setlinewidth
0.000 0.000 0.000 edgecolor
newpath 186 338 moveto
211 338 246 338 273 338 curveto
stroke
0.000 0.000 0.000 edgecolor
newpath 273 341.5 moveto
283 338 lineto
273 334.5 lineto
closepath fill
1 setlinewidth
solid
0.000 0.000 0.000 edgecolor
newpath 273 341.5 moveto
283 338 lineto
273 334.5 lineto
closepath stroke
0.000 0.000 0.000 edgecolor
14 /Times-Roman set_font
221 341.9 moveto 26 (jill/1) alignedtext
grestore
% 5
gsave
1 setlinewidth
solid
0.000 0.000 0.000 nodecolor
310 266 23.2 23.2 ellipse_path stroke
1 setlinewidth
solid
0.000 0.000 0.000 nodecolor
310 266 27.12 27.12 ellipse_path stroke
0.000 0.000 0.000 nodecolor
14 /Times-Roman set_font
301 261.9 moveto 18 (5/0) alignedtext
grestore
% 4->5
gsave
1 setlinewidth
0.000 0.000 0.000 edgecolor
newpath 186 262 moveto
211 263 246 264 273 265 curveto
stroke
0.000 0.000 0.000 edgecolor
newpath 273 268.5 moveto
283 265 lineto
273 261.5 lineto
closepath fill
1 setlinewidth
solid
0.000 0.000 0.000 edgecolor
newpath 273 268.5 moveto
283 265 lineto
273 261.5 lineto
closepath stroke
0.000 0.000 0.000 edgecolor
14 /Times-Roman set_font
215.5 266.9 moveto 37 (read/1) alignedtext
grestore
% 6->1
gsave
1 setlinewidth
0.000 0.000 0.000 edgecolor
newpath 262 207 moveto
299 206 362 205 402 204 curveto
stroke
0.000 0.000 0.000 edgecolor
newpath 402 207.5 moveto
412 204 lineto
402 200.5 lineto
closepath fill
1 setlinewidth
solid
0.000 0.000 0.000 edgecolor
newpath 402 207.5 moveto
412 204 lineto
402 200.5 lineto
closepath stroke
0.000 0.000 0.000 edgecolor
14 /Times-Roman set_font
291 209.9 moveto 38 (</s>/1) alignedtext
grestore
% 9
gsave
1 setlinewidth
solid
0.000 0.000 0.000 nodecolor
310 102 23.89 23.89 ellipse_path stroke
1 setlinewidth
solid
0.000 0.000 0.000 nodecolor
310 102 27.82 27.82 ellipse_path stroke
0.000 0.000 0.000 nodecolor
14 /Times-Roman set_font
300.5 97.9 moveto 19 (9/0) alignedtext
grestore
% 8->9
gsave
1 setlinewidth
0.000 0.000 0.000 edgecolor
newpath 185 103 moveto
209 103 245 103 272 102 curveto
stroke
0.000 0.000 0.000 edgecolor
newpath 272 105.5 moveto
282 102 lineto
272 98.5 lineto
closepath fill
1 setlinewidth
solid
0.000 0.000 0.000 edgecolor
newpath 272 105.5 moveto
282 102 lineto
272 98.5 lineto
closepath stroke
0.000 0.000 0.000 edgecolor
14 /Times-Roman set_font
212 105.9 moveto 44 (wrote/1) alignedtext
grestore
% 10->1
gsave
1 setlinewidth
0.000 0.000 0.000 edgecolor
newpath 267 38 moveto
288 37 316 39 338 48 curveto
388 69 416 128 430 167 curveto
stroke
0.000 0.000 0.000 edgecolor
newpath 426.77 168.43 moveto
433 177 lineto
433.48 166.42 lineto
closepath fill
1 setlinewidth
solid
0.000 0.000 0.000 edgecolor
newpath 426.77 168.43 moveto
433 177 lineto
433.48 166.42 lineto
closepath stroke
0.000 0.000 0.000 edgecolor
14 /Times-Roman set_font
291 52.9 moveto 38 (</s>/1) alignedtext
grestore
% 3->1
gsave
1 setlinewidth
0.000 0.000 0.000 edgecolor
newpath 333 394 moveto
352 378 380 353 397 326 curveto
414 300 425 267 431 242 curveto
stroke
0.000 0.000 0.000 edgecolor
newpath 434.48 242.58 moveto
434 232 lineto
427.77 240.57 lineto
closepath fill
1 setlinewidth
solid
0.000 0.000 0.000 edgecolor
newpath 434.48 242.58 moveto
434 232 lineto
427.77 240.57 lineto
closepath stroke
0.000 0.000 0.000 edgecolor
14 /Times-Roman set_font
356.5 379.9 moveto 37 (read/1) alignedtext
grestore
% 7->1
gsave
1 setlinewidth
0.000 0.000 0.000 edgecolor
newpath 332 322 moveto
351 308 377 287 397 265 curveto
405 256 413 246 420 237 curveto
stroke
0.000 0.000 0.000 edgecolor
newpath 423.2 238.44 moveto
425 228 lineto
417.08 235.04 lineto
closepath fill
1 setlinewidth
solid
0.000 0.000 0.000 edgecolor
newpath 423.2 238.44 moveto
425 228 lineto
417.08 235.04 lineto
closepath stroke
0.000 0.000 0.000 edgecolor
14 /Times-Roman set_font
353 308.9 moveto 44 (wrote/1) alignedtext
grestore
% 5->1
gsave
1 setlinewidth
0.000 0.000 0.000 edgecolor
newpath 334 254 moveto
354 244 383 231 405 220 curveto
stroke
0.000 0.000 0.000 edgecolor
newpath 406.28 223.26 moveto
414 216 lineto
403.44 216.86 lineto
closepath fill
1 setlinewidth
solid
0.000 0.000 0.000 edgecolor
newpath 406.28 223.26 moveto
414 216 lineto
403.44 216.86 lineto
closepath stroke
0.000 0.000 0.000 edgecolor
14 /Times-Roman set_font
356 247.9 moveto 38 (</s>/1) alignedtext
grestore
% 9->1
gsave
1 setlinewidth
0.000 0.000 0.000 edgecolor
newpath 338 104 moveto
357 107 380 113 397 127 curveto
410 138 420 153 427 168 curveto
stroke
0.000 0.000 0.000 edgecolor
newpath 423.74 169.28 moveto
431 177 lineto
430.14 166.44 lineto
closepath fill
1 setlinewidth
solid
0.000 0.000 0.000 edgecolor
newpath 423.74 169.28 moveto
431 177 lineto
430.14 166.44 lineto
closepath stroke
0.000 0.000 0.000 edgecolor
14 /Times-Roman set_font
356 130.9 moveto 38 (</s>/1) alignedtext
grestore
endpage
showpage
grestore
%%PageTrailer
%%EndPage: 1
%%Trailer
%%Pages: 1
%%BoundingBox: 83 158 530 634
end
restore
%%EOF
