%!PS-Adobe-3.0 EPSF-3.0
%%Creator: Graphviz version 2.20.3 (Tue Oct 14 12:23:50 UTC 2008)
%%For: (ashishdepankaj) Ashish Depankaj
%%Title: FSM
%%Pages: (atend)
%%BoundingBox: (atend)
%%EndComments
save
%%BeginProlog
/DotDict 200 dict def
DotDict begin

/setupLatin1 {
mark
/EncodingVector 256 array def
 EncodingVector 0

ISOLatin1Encoding 0 255 getinterval putinterval
EncodingVector 45 /hyphen put

% Set up ISO Latin 1 character encoding
/starnetISO {
        dup dup findfont dup length dict begin
        { 1 index /FID ne { def }{ pop pop } ifelse
        } forall
        /Encoding EncodingVector def
        currentdict end definefont
} def
/Times-Roman starnetISO def
/Times-Italic starnetISO def
/Times-Bold starnetISO def
/Times-BoldItalic starnetISO def
/Helvetica starnetISO def
/Helvetica-Oblique starnetISO def
/Helvetica-Bold starnetISO def
/Helvetica-BoldOblique starnetISO def
/Courier starnetISO def
/Courier-Oblique starnetISO def
/Courier-Bold starnetISO def
/Courier-BoldOblique starnetISO def
cleartomark
} bind def

%%BeginResource: procset graphviz 0 0
/coord-font-family /Times-Roman def
/default-font-family /Times-Roman def
/coordfont coord-font-family findfont 8 scalefont def

/InvScaleFactor 1.0 def
/set_scale {
       dup 1 exch div /InvScaleFactor exch def
       scale
} bind def

% styles
/solid { [] 0 setdash } bind def
/dashed { [9 InvScaleFactor mul dup ] 0 setdash } bind def
/dotted { [1 InvScaleFactor mul 6 InvScaleFactor mul] 0 setdash } bind def
/invis {/fill {newpath} def /stroke {newpath} def /show {pop newpath} def} bind def
/bold { 2 setlinewidth } bind def
/filled { } bind def
/unfilled { } bind def
/rounded { } bind def
/diagonals { } bind def

% hooks for setting color 
/nodecolor { sethsbcolor } bind def
/edgecolor { sethsbcolor } bind def
/graphcolor { sethsbcolor } bind def
/nopcolor {pop pop pop} bind def

/beginpage {	% i j npages
	/npages exch def
	/j exch def
	/i exch def
	/str 10 string def
	npages 1 gt {
		gsave
			coordfont setfont
			0 0 moveto
			(\() show i str cvs show (,) show j str cvs show (\)) show
		grestore
	} if
} bind def

/set_font {
	findfont exch
	scalefont setfont
} def

% draw text fitted to its expected width
/alignedtext {			% width text
	/text exch def
	/width exch def
	gsave
		width 0 gt {
			[] 0 setdash
			text stringwidth pop width exch sub text length div 0 text ashow
		} if
	grestore
} def

/boxprim {				% xcorner ycorner xsize ysize
		4 2 roll
		moveto
		2 copy
		exch 0 rlineto
		0 exch rlineto
		pop neg 0 rlineto
		closepath
} bind def

/ellipse_path {
	/ry exch def
	/rx exch def
	/y exch def
	/x exch def
	matrix currentmatrix
	newpath
	x y translate
	rx ry scale
	0 0 1 0 360 arc
	setmatrix
} bind def

/endpage { showpage } bind def
/showpage { } def

/layercolorseq
	[	% layer color sequence - darkest to lightest
		[0 0 0]
		[.2 .8 .8]
		[.4 .8 .8]
		[.6 .8 .8]
		[.8 .8 .8]
	]
def

/layerlen layercolorseq length def

/setlayer {/maxlayer exch def /curlayer exch def
	layercolorseq curlayer 1 sub layerlen mod get
	aload pop sethsbcolor
	/nodecolor {nopcolor} def
	/edgecolor {nopcolor} def
	/graphcolor {nopcolor} def
} bind def

/onlayer { curlayer ne {invis} if } def

/onlayers {
	/myupper exch def
	/mylower exch def
	curlayer mylower lt
	curlayer myupper gt
	or
	{invis} if
} def

/curlayer 0 def

%%EndResource
%%EndProlog
%%BeginSetup
14 default-font-family set_font
1 setmiterlimit
% /arrowlength 10 def
% /arrowwidth 5 def

% make sure pdfmark is harmless for PS-interpreters other than Distiller
/pdfmark where {pop} {userdict /pdfmark /cleartomark load put} ifelse
% make '<<' and '>>' safe on PS Level 1 devices
/languagelevel where {pop languagelevel}{1} ifelse
2 lt {
    userdict (<<) cvn ([) cvn load put
    userdict (>>) cvn ([) cvn load put
} if

%%EndSetup
setupLatin1
%%Page: 1 1
%%PageBoundingBox: 180 90 432 702
%%PageOrientation: Landscape
0 0 1 beginpage
gsave
180 90 252 612 boxprim clip newpath
0.507463 0.507463 set_scale 90 rotate 181.353 -847 translate
% 0
gsave
1 setlinewidth
solid
0.000 0.000 0.000 nodecolor
1170 261 23.89 23.89 ellipse_path stroke
1 setlinewidth
solid
0.000 0.000 0.000 nodecolor
1170 261 27.82 27.82 ellipse_path stroke
0.000 0.000 0.000 nodecolor
14 /Times-Roman set_font
1160.5 256.9 moveto 19 (0/0) alignedtext
grestore
% 1
gsave
1 setlinewidth
solid
0.000 0.000 0.000 nodecolor
279 152 18 18 ellipse_path stroke
0.000 0.000 0.000 nodecolor
14 /Times-Roman set_font
275 147.9 moveto 8 (1) alignedtext
grestore
% 1->0
gsave
1 setlinewidth
0.000 0.000 0.000 edgecolor
newpath 288 168 moveto
294 178 300 190 306 202 curveto
359 304 306 434 420 434 curveto
420 434 420 434 1016 434 curveto
1088 434 1135 348 1157 297 curveto
stroke
0.000 0.000 0.000 edgecolor
newpath 1160.14 298.56 moveto
1161 288 lineto
1153.74 295.72 lineto
closepath fill
1 setlinewidth
solid
0.000 0.000 0.000 edgecolor
newpath 1160.14 298.56 moveto
1161 288 lineto
1153.74 295.72 lineto
closepath stroke
0.000 0.000 0.000 edgecolor
14 /Times-Roman set_font
676.5 437.9 moveto 63 (</s>/7.624) alignedtext
grestore
% 2
gsave
1 setlinewidth
solid
0.000 0.000 0.000 nodecolor
420 152 18 18 ellipse_path stroke
0.000 0.000 0.000 nodecolor
14 /Times-Roman set_font
416 147.9 moveto 8 (2) alignedtext
grestore
% 1->2
gsave
1 setlinewidth
0.000 0.000 0.000 edgecolor
newpath 297 152 moveto
321 152 364 152 392 152 curveto
stroke
0.000 0.000 0.000 edgecolor
newpath 392 155.5 moveto
402 152 lineto
392 148.5 lineto
closepath fill
1 setlinewidth
solid
0.000 0.000 0.000 edgecolor
newpath 392 155.5 moveto
402 152 lineto
392 148.5 lineto
closepath stroke
0.000 0.000 0.000 edgecolor
14 /Times-Roman set_font
321 155.9 moveto 56 (eps/0.000) alignedtext
grestore
% 2->0
gsave
1 setlinewidth
0.000 0.000 0.000 edgecolor
newpath 435 142 moveto
461 124 517 92 569 91 curveto
569 91 569 91 1016 91 curveto
1087 92 1135 175 1156 225 curveto
stroke
0.000 0.000 0.000 edgecolor
newpath 1153.04 227.02 moveto
1160 235 lineto
1159.54 224.42 lineto
closepath fill
1 setlinewidth
solid
0.000 0.000 0.000 edgecolor
newpath 1153.04 227.02 moveto
1160 235 lineto
1159.54 224.42 lineto
closepath stroke
0.000 0.000 0.000 edgecolor
14 /Times-Roman set_font
755.5 95.9 moveto 63 (</s>/8.030) alignedtext
grestore
% 10
gsave
1 setlinewidth
solid
0.000 0.000 0.000 nodecolor
569 208 21.04 21.04 ellipse_path stroke
0.000 0.000 0.000 nodecolor
14 /Times-Roman set_font
561.5 203.9 moveto 15 (10) alignedtext
grestore
% 2->10
gsave
1 setlinewidth
0.000 0.000 0.000 edgecolor
newpath 437 159 moveto
445 162 454 166 463 170 curveto
494 181 503 181 533 193 curveto
536 194 538 195 540 196 curveto
stroke
0.000 0.000 0.000 edgecolor
newpath 539.42 199.48 moveto
550 199 lineto
541.43 192.77 lineto
closepath fill
1 setlinewidth
solid
0.000 0.000 0.000 edgecolor
newpath 539.42 199.48 moveto
550 199 lineto
541.43 192.77 lineto
closepath stroke
0.000 0.000 0.000 edgecolor
14 /Times-Roman set_font
471.5 196.9 moveto 53 (eps/-0.40) alignedtext
grestore
% 10->0
gsave
1 setlinewidth
0.000 0.000 0.000 edgecolor
newpath 590 206 moveto
642 200 782 188 898 201 curveto
966 208 982 219 1048 234 curveto
1077 240 1109 247 1133 253 curveto
stroke
0.000 0.000 0.000 edgecolor
newpath 1132.51 256.47 moveto
1143 255 lineto
1133.88 249.61 lineto
closepath fill
1 setlinewidth
solid
0.000 0.000 0.000 edgecolor
newpath 1132.51 256.47 moveto
1143 255 lineto
1133.88 249.61 lineto
closepath stroke
0.000 0.000 0.000 edgecolor
14 /Times-Roman set_font
834.5 204.9 moveto 63 (</s>/1.098) alignedtext
grestore
% 10->2
gsave
1 setlinewidth
0.000 0.000 0.000 edgecolor
newpath 563 188 moveto
558 173 549 154 533 146 curveto
507 130 471 136 447 143 curveto
stroke
0.000 0.000 0.000 edgecolor
newpath 445.57 139.77 moveto
437 146 lineto
447.58 146.48 lineto
closepath fill
1 setlinewidth
solid
0.000 0.000 0.000 edgecolor
newpath 445.57 139.77 moveto
437 146 lineto
447.58 146.48 lineto
closepath stroke
0.000 0.000 0.000 edgecolor
14 /Times-Roman set_font
463.5 149.9 moveto 69 (wrote/1.791) alignedtext
grestore
% 4
gsave
1 setlinewidth
solid
0.000 0.000 0.000 nodecolor
708 45 18 18 ellipse_path stroke
0.000 0.000 0.000 nodecolor
14 /Times-Roman set_font
704 40.9 moveto 8 (4) alignedtext
grestore
% 10->4
gsave
1 setlinewidth
0.000 0.000 0.000 edgecolor
newpath 574 187 moveto
580 169 590 141 605 121 curveto
627 95 661 72 683 59 curveto
stroke
0.000 0.000 0.000 edgecolor
newpath 684.96 61.92 moveto
692 54 lineto
681.56 55.8 lineto
closepath fill
1 setlinewidth
solid
0.000 0.000 0.000 edgecolor
newpath 684.96 61.92 moveto
692 54 lineto
681.56 55.8 lineto
closepath stroke
0.000 0.000 0.000 edgecolor
14 /Times-Roman set_font
607.5 124.9 moveto 51 (jill/1.791) alignedtext
grestore
% 6
gsave
1 setlinewidth
solid
0.000 0.000 0.000 nodecolor
1016 261 18 18 ellipse_path stroke
0.000 0.000 0.000 nodecolor
14 /Times-Roman set_font
1012 256.9 moveto 8 (6) alignedtext
grestore
% 10->6
gsave
1 setlinewidth
0.000 0.000 0.000 edgecolor
newpath 588 216 moveto
594 218 600 220 605 222 curveto
746 256 920 261 988 261 curveto
stroke
0.000 0.000 0.000 edgecolor
newpath 988 264.5 moveto
998 261 lineto
988 257.5 lineto
closepath fill
1 setlinewidth
solid
0.000 0.000 0.000 edgecolor
newpath 988 264.5 moveto
998 261 lineto
988 257.5 lineto
closepath stroke
0.000 0.000 0.000 edgecolor
14 /Times-Roman set_font
756 255.9 moveto 62 (read/1.791) alignedtext
grestore
% 8
gsave
1 setlinewidth
solid
0.000 0.000 0.000 nodecolor
708 322 18 18 ellipse_path stroke
0.000 0.000 0.000 nodecolor
14 /Times-Roman set_font
704.5 317.9 moveto 7 (8) alignedtext
grestore
% 10->8
gsave
1 setlinewidth
0.000 0.000 0.000 edgecolor
newpath 572 229 moveto
576 249 585 280 605 297 curveto
616 307 654 314 680 318 curveto
stroke
0.000 0.000 0.000 edgecolor
newpath 679.51 321.47 moveto
690 320 lineto
680.88 314.61 lineto
closepath fill
1 setlinewidth
solid
0.000 0.000 0.000 edgecolor
newpath 679.51 321.47 moveto
690 320 lineto
680.88 314.61 lineto
closepath stroke
0.000 0.000 0.000 edgecolor
14 /Times-Roman set_font
605.5 315.9 moveto 55 (jim/1.791) alignedtext
grestore
% 3
gsave
1 setlinewidth
solid
0.000 0.000 0.000 nodecolor
134 152 18 18 ellipse_path stroke
0.000 0.000 0.000 nodecolor
14 /Times-Roman set_font
130 147.9 moveto 8 (3) alignedtext
grestore
% 3->1
gsave
1 setlinewidth
0.000 0.000 0.000 edgecolor
newpath 152 152 moveto
177 152 222 152 251 152 curveto
stroke
0.000 0.000 0.000 edgecolor
newpath 251 155.5 moveto
261 152 lineto
251 148.5 lineto
closepath fill
1 setlinewidth
solid
0.000 0.000 0.000 edgecolor
newpath 251 155.5 moveto
261 152 lineto
251 148.5 lineto
closepath stroke
0.000 0.000 0.000 edgecolor
14 /Times-Roman set_font
167.5 155.9 moveto 69 (wrote/7.624) alignedtext
grestore
% 3->4
gsave
1 setlinewidth
0.000 0.000 0.000 edgecolor
newpath 141 135 moveto
159 98 208 8 279 8 curveto
279 8 279 8 569 8 curveto
609 8 654 23 682 34 curveto
stroke
0.000 0.000 0.000 edgecolor
newpath 680.44 37.14 moveto
691 38 lineto
683.28 30.74 lineto
closepath fill
1 setlinewidth
solid
0.000 0.000 0.000 edgecolor
newpath 680.44 37.14 moveto
691 38 lineto
683.28 30.74 lineto
closepath stroke
0.000 0.000 0.000 edgecolor
14 /Times-Roman set_font
392 12.9 moveto 56 (eps/0.000) alignedtext
grestore
% 4->1
gsave
1 setlinewidth
0.000 0.000 0.000 edgecolor
newpath 690 44 moveto
649 41 546 38 463 60 curveto
402 76 336 115 303 136 curveto
stroke
0.000 0.000 0.000 edgecolor
newpath 300.38 133.54 moveto
294 142 lineto
304.26 139.37 lineto
closepath fill
1 setlinewidth
solid
0.000 0.000 0.000 edgecolor
newpath 300.38 133.54 moveto
294 142 lineto
304.26 139.37 lineto
closepath stroke
0.000 0.000 0.000 edgecolor
14 /Times-Roman set_font
463.5 67.9 moveto 69 (wrote/8.030) alignedtext
grestore
% 4->10
gsave
1 setlinewidth
0.000 0.000 0.000 edgecolor
newpath 704 63 moveto
697 84 684 120 661 142 curveto
642 160 627 149 605 165 curveto
599 170 592 176 587 182 curveto
stroke
0.000 0.000 0.000 edgecolor
newpath 584.2 179.9 moveto
581 190 lineto
589.8 184.1 lineto
closepath fill
1 setlinewidth
solid
0.000 0.000 0.000 edgecolor
newpath 584.2 179.9 moveto
581 190 lineto
589.8 184.1 lineto
closepath stroke
0.000 0.000 0.000 edgecolor
14 /Times-Roman set_font
606.5 168.9 moveto 53 (eps/-0.18) alignedtext
grestore
% 5
gsave
1 setlinewidth
solid
0.000 0.000 0.000 nodecolor
866 325 18 18 ellipse_path stroke
0.000 0.000 0.000 nodecolor
14 /Times-Roman set_font
862.5 320.9 moveto 7 (5) alignedtext
grestore
% 5->0
gsave
1 setlinewidth
0.000 0.000 0.000 edgecolor
newpath 884 324 moveto
928 321 1039 311 1127 282 curveto
1130 281 1133 280 1136 279 curveto
stroke
0.000 0.000 0.000 edgecolor
newpath 1137.96 281.92 moveto
1145 274 lineto
1134.56 275.8 lineto
closepath fill
1 setlinewidth
solid
0.000 0.000 0.000 edgecolor
newpath 1137.96 281.92 moveto
1145 274 lineto
1134.56 275.8 lineto
closepath stroke
0.000 0.000 0.000 edgecolor
14 /Times-Roman set_font
984.5 315.9 moveto 63 (</s>/7.624) alignedtext
grestore
% 5->6
gsave
1 setlinewidth
0.000 0.000 0.000 edgecolor
newpath 881 314 moveto
890 308 902 300 913 295 curveto
938 283 968 274 988 268 curveto
stroke
0.000 0.000 0.000 edgecolor
newpath 989.43 271.23 moveto
998 265 lineto
987.42 264.52 lineto
closepath fill
1 setlinewidth
solid
0.000 0.000 0.000 edgecolor
newpath 989.43 271.23 moveto
998 265 lineto
987.42 264.52 lineto
closepath stroke
0.000 0.000 0.000 edgecolor
14 /Times-Roman set_font
913 298.9 moveto 56 (eps/0.000) alignedtext
grestore
% 6->0
gsave
1 setlinewidth
0.000 0.000 0.000 edgecolor
newpath 1034 261 moveto
1058 261 1100 261 1132 261 curveto
stroke
0.000 0.000 0.000 edgecolor
newpath 1132 264.5 moveto
1142 261 lineto
1132 257.5 lineto
closepath fill
1 setlinewidth
solid
0.000 0.000 0.000 edgecolor
newpath 1132 264.5 moveto
1142 261 lineto
1132 257.5 lineto
closepath stroke
0.000 0.000 0.000 edgecolor
14 /Times-Roman set_font
1063.5 264.9 moveto 63 (</s>/8.030) alignedtext
grestore
% 6->10
gsave
1 setlinewidth
0.000 0.000 0.000 edgecolor
newpath 999 255 moveto
990 252 979 249 969 247 curveto
904 231 887 229 819 222 curveto
741 213 648 209 600 208 curveto
stroke
0.000 0.000 0.000 edgecolor
newpath 600 204.5 moveto
590 208 lineto
600 211.5 lineto
closepath fill
1 setlinewidth
solid
0.000 0.000 0.000 edgecolor
newpath 600 204.5 moveto
590 208 lineto
600 211.5 lineto
closepath stroke
0.000 0.000 0.000 edgecolor
14 /Times-Roman set_font
760.5 225.9 moveto 53 (eps/-0.40) alignedtext
grestore
% 7
gsave
1 setlinewidth
solid
0.000 0.000 0.000 nodecolor
569 388 18 18 ellipse_path stroke
0.000 0.000 0.000 nodecolor
14 /Times-Roman set_font
565.5 383.9 moveto 7 (7) alignedtext
grestore
% 7->5
gsave
1 setlinewidth
0.000 0.000 0.000 edgecolor
newpath 587 386 moveto
629 382 735 369 819 344 curveto
826 342 833 339 840 336 curveto
stroke
0.000 0.000 0.000 edgecolor
newpath 841.28 339.26 moveto
849 332 lineto
838.44 332.86 lineto
closepath fill
1 setlinewidth
solid
0.000 0.000 0.000 edgecolor
newpath 841.28 339.26 moveto
849 332 lineto
838.44 332.86 lineto
closepath stroke
0.000 0.000 0.000 edgecolor
14 /Times-Roman set_font
677 377.9 moveto 62 (read/7.624) alignedtext
grestore
% 7->8
gsave
1 setlinewidth
0.000 0.000 0.000 edgecolor
newpath 583 376 moveto
589 370 597 364 605 360 curveto
619 353 656 340 681 331 curveto
stroke
0.000 0.000 0.000 edgecolor
newpath 682.43 334.23 moveto
691 328 lineto
680.42 327.52 lineto
closepath fill
1 setlinewidth
solid
0.000 0.000 0.000 edgecolor
newpath 682.43 334.23 moveto
691 328 lineto
680.42 327.52 lineto
closepath stroke
0.000 0.000 0.000 edgecolor
14 /Times-Roman set_font
605 363.9 moveto 56 (eps/0.000) alignedtext
grestore
% 8->10
gsave
1 setlinewidth
0.000 0.000 0.000 edgecolor
newpath 696 309 moveto
687 299 674 288 661 280 curveto
639 265 627 273 605 257 curveto
598 251 591 243 585 235 curveto
stroke
0.000 0.000 0.000 edgecolor
newpath 587.8 232.9 moveto
579 227 lineto
582.2 237.1 lineto
closepath fill
1 setlinewidth
solid
0.000 0.000 0.000 edgecolor
newpath 587.8 232.9 moveto
579 227 lineto
582.2 237.1 lineto
closepath stroke
0.000 0.000 0.000 edgecolor
14 /Times-Roman set_font
606.5 283.9 moveto 53 (eps/-0.18) alignedtext
grestore
% 8->5
gsave
1 setlinewidth
0.000 0.000 0.000 edgecolor
newpath 726 322 moveto
754 323 805 324 838 325 curveto
stroke
0.000 0.000 0.000 edgecolor
newpath 838 328.5 moveto
848 325 lineto
838 321.5 lineto
closepath fill
1 setlinewidth
solid
0.000 0.000 0.000 edgecolor
newpath 838 328.5 moveto
848 325 lineto
838 321.5 lineto
closepath stroke
0.000 0.000 0.000 edgecolor
14 /Times-Roman set_font
756 326.9 moveto 62 (read/8.030) alignedtext
grestore
% 9
gsave
2 setlinewidth
bold
0.000 0.000 0.000 nodecolor
18 224 18 18 ellipse_path stroke
0.000 0.000 0.000 nodecolor
14 /Times-Roman set_font
14 219.9 moveto 8 (9) alignedtext
grestore
% 9->10
gsave
1 setlinewidth
0.000 0.000 0.000 edgecolor
newpath 36 224 moveto
59 224 100 224 134 224 curveto
134 224 134 224 420 224 curveto
461 224 508 218 538 213 curveto
stroke
0.000 0.000 0.000 edgecolor
newpath 538.4 216.48 moveto
548 212 lineto
537.7 209.51 lineto
closepath fill
1 setlinewidth
solid
0.000 0.000 0.000 edgecolor
newpath 538.4 216.48 moveto
548 212 lineto
537.7 209.51 lineto
closepath stroke
0.000 0.000 0.000 edgecolor
14 /Times-Roman set_font
252.5 227.9 moveto 53 (eps/-0.40) alignedtext
grestore
% 9->3
gsave
1 setlinewidth
0.000 0.000 0.000 edgecolor
newpath 30 211 moveto
36 205 44 198 51 193 curveto
68 181 91 170 107 163 curveto
stroke
0.000 0.000 0.000 edgecolor
newpath 109.02 165.96 moveto
117 159 lineto
106.42 159.46 lineto
closepath fill
1 setlinewidth
solid
0.000 0.000 0.000 edgecolor
newpath 109.02 165.96 moveto
117 159 lineto
106.42 159.46 lineto
closepath stroke
0.000 0.000 0.000 edgecolor
14 /Times-Roman set_font
51 196.9 moveto 50 (jill/8.723) alignedtext
grestore
% 9->7
gsave
1 setlinewidth
0.000 0.000 0.000 edgecolor
newpath 22 242 moveto
36 299 84 472 134 472 curveto
134 472 134 472 420 472 curveto
473 472 523 433 550 408 curveto
stroke
0.000 0.000 0.000 edgecolor
newpath 552.4 410.55 moveto
557 401 lineto
547.45 405.6 lineto
closepath fill
1 setlinewidth
solid
0.000 0.000 0.000 edgecolor
newpath 552.4 410.55 moveto
557 401 lineto
547.45 405.6 lineto
closepath stroke
0.000 0.000 0.000 edgecolor
14 /Times-Roman set_font
252 475.9 moveto 54 (jim/8.723) alignedtext
grestore
endpage
showpage
grestore
%%PageTrailer
%%EndPage: 1
%%Trailer
%%Pages: 1
%%BoundingBox: 180 90 432 702
end
restore
%%EOF
