%!PS-Adobe-3.0 EPSF-3.0
%%Creator: Graphviz version 2.20.3 (Tue Oct 14 12:23:50 UTC 2008)
%%For: (ashishdepankaj) Ashish Depankaj
%%Title: FSM
%%Pages: (atend)
%%BoundingBox: (atend)
%%EndComments
save
%%BeginProlog
/DotDict 200 dict def
DotDict begin

/setupLatin1 {
mark
/EncodingVector 256 array def
 EncodingVector 0

ISOLatin1Encoding 0 255 getinterval putinterval
EncodingVector 45 /hyphen put

% Set up ISO Latin 1 character encoding
/starnetISO {
        dup dup findfont dup length dict begin
        { 1 index /FID ne { def }{ pop pop } ifelse
        } forall
        /Encoding EncodingVector def
        currentdict end definefont
} def
/Times-Roman starnetISO def
/Times-Italic starnetISO def
/Times-Bold starnetISO def
/Times-BoldItalic starnetISO def
/Helvetica starnetISO def
/Helvetica-Oblique starnetISO def
/Helvetica-Bold starnetISO def
/Helvetica-BoldOblique starnetISO def
/Courier starnetISO def
/Courier-Oblique starnetISO def
/Courier-Bold starnetISO def
/Courier-BoldOblique starnetISO def
cleartomark
} bind def

%%BeginResource: procset graphviz 0 0
/coord-font-family /Times-Roman def
/default-font-family /Times-Roman def
/coordfont coord-font-family findfont 8 scalefont def

/InvScaleFactor 1.0 def
/set_scale {
       dup 1 exch div /InvScaleFactor exch def
       scale
} bind def

% styles
/solid { [] 0 setdash } bind def
/dashed { [9 InvScaleFactor mul dup ] 0 setdash } bind def
/dotted { [1 InvScaleFactor mul 6 InvScaleFactor mul] 0 setdash } bind def
/invis {/fill {newpath} def /stroke {newpath} def /show {pop newpath} def} bind def
/bold { 2 setlinewidth } bind def
/filled { } bind def
/unfilled { } bind def
/rounded { } bind def
/diagonals { } bind def

% hooks for setting color 
/nodecolor { sethsbcolor } bind def
/edgecolor { sethsbcolor } bind def
/graphcolor { sethsbcolor } bind def
/nopcolor {pop pop pop} bind def

/beginpage {	% i j npages
	/npages exch def
	/j exch def
	/i exch def
	/str 10 string def
	npages 1 gt {
		gsave
			coordfont setfont
			0 0 moveto
			(\() show i str cvs show (,) show j str cvs show (\)) show
		grestore
	} if
} bind def

/set_font {
	findfont exch
	scalefont setfont
} def

% draw text fitted to its expected width
/alignedtext {			% width text
	/text exch def
	/width exch def
	gsave
		width 0 gt {
			[] 0 setdash
			text stringwidth pop width exch sub text length div 0 text ashow
		} if
	grestore
} def

/boxprim {				% xcorner ycorner xsize ysize
		4 2 roll
		moveto
		2 copy
		exch 0 rlineto
		0 exch rlineto
		pop neg 0 rlineto
		closepath
} bind def

/ellipse_path {
	/ry exch def
	/rx exch def
	/y exch def
	/x exch def
	matrix currentmatrix
	newpath
	x y translate
	rx ry scale
	0 0 1 0 360 arc
	setmatrix
} bind def

/endpage { showpage } bind def
/showpage { } def

/layercolorseq
	[	% layer color sequence - darkest to lightest
		[0 0 0]
		[.2 .8 .8]
		[.4 .8 .8]
		[.6 .8 .8]
		[.8 .8 .8]
	]
def

/layerlen layercolorseq length def

/setlayer {/maxlayer exch def /curlayer exch def
	layercolorseq curlayer 1 sub layerlen mod get
	aload pop sethsbcolor
	/nodecolor {nopcolor} def
	/edgecolor {nopcolor} def
	/graphcolor {nopcolor} def
} bind def

/onlayer { curlayer ne {invis} if } def

/onlayers {
	/myupper exch def
	/mylower exch def
	curlayer mylower lt
	curlayer myupper gt
	or
	{invis} if
} def

/curlayer 0 def

%%EndResource
%%EndProlog
%%BeginSetup
14 default-font-family set_font
1 setmiterlimit
% /arrowlength 10 def
% /arrowwidth 5 def

% make sure pdfmark is harmless for PS-interpreters other than Distiller
/pdfmark where {pop} {userdict /pdfmark /cleartomark load put} ifelse
% make '<<' and '>>' safe on PS Level 1 devices
/languagelevel where {pop languagelevel}{1} ifelse
2 lt {
    userdict (<<) cvn ([) cvn load put
    userdict (>>) cvn ([) cvn load put
} if

%%EndSetup
setupLatin1
%%Page: 1 1
%%PageBoundingBox: 214 166 398 626
%%PageOrientation: Landscape
0 0 1 beginpage
gsave
214 166 184 460 boxprim clip newpath
1 1 set_scale 90 rotate 170 -394 translate
% 0
gsave
2 setlinewidth
bold
0.000 0.000 0.000 nodecolor
18 96 18 18 ellipse_path stroke
0.000 0.000 0.000 nodecolor
14 /Times-Roman set_font
14 91.9 moveto 8 (0) alignedtext
grestore
% 1
gsave
1 setlinewidth
solid
0.000 0.000 0.000 nodecolor
120 150 18 18 ellipse_path stroke
0.000 0.000 0.000 nodecolor
14 /Times-Roman set_font
116 145.9 moveto 8 (1) alignedtext
grestore
% 0->1
gsave
1 setlinewidth
0.000 0.000 0.000 edgecolor
newpath 33 106 moveto
39 110 45 113 51 117 curveto
65 124 81 132 94 138 curveto
stroke
0.000 0.000 0.000 edgecolor
newpath 92.56 141.2 moveto
103 143 lineto
95.96 135.08 lineto
closepath fill
1 setlinewidth
solid
0.000 0.000 0.000 edgecolor
newpath 92.56 141.2 moveto
103 143 lineto
95.96 135.08 lineto
closepath stroke
0.000 0.000 0.000 edgecolor
14 /Times-Roman set_font
56 136.9 moveto 26 (j:jim) alignedtext
grestore
% 4
gsave
1 setlinewidth
solid
0.000 0.000 0.000 nodecolor
120 96 18 18 ellipse_path stroke
0.000 0.000 0.000 nodecolor
14 /Times-Roman set_font
116 91.9 moveto 8 (4) alignedtext
grestore
% 0->4
gsave
1 setlinewidth
0.000 0.000 0.000 edgecolor
newpath 36 96 moveto
52 96 74 96 92 96 curveto
stroke
0.000 0.000 0.000 edgecolor
newpath 92 99.5 moveto
102 96 lineto
92 92.5 lineto
closepath fill
1 setlinewidth
solid
0.000 0.000 0.000 edgecolor
newpath 92 99.5 moveto
102 96 lineto
92 92.5 lineto
closepath stroke
0.000 0.000 0.000 edgecolor
14 /Times-Roman set_font
57.5 99.9 moveto 23 (j:jill) alignedtext
grestore
% 8
gsave
1 setlinewidth
solid
0.000 0.000 0.000 nodecolor
120 42 18 18 ellipse_path stroke
0.000 0.000 0.000 nodecolor
14 /Times-Roman set_font
116.5 37.9 moveto 7 (8) alignedtext
grestore
% 0->8
gsave
1 setlinewidth
0.000 0.000 0.000 edgecolor
newpath 33 86 moveto
39 82 45 78 51 75 curveto
65 67 81 59 94 53 curveto
stroke
0.000 0.000 0.000 edgecolor
newpath 95.28 56.26 moveto
103 49 lineto
92.44 49.86 lineto
closepath fill
1 setlinewidth
solid
0.000 0.000 0.000 edgecolor
newpath 95.28 56.26 moveto
103 49 lineto
92.44 49.86 lineto
closepath stroke
0.000 0.000 0.000 edgecolor
14 /Times-Roman set_font
51.5 78.9 moveto 35 (r:read) alignedtext
grestore
% 2
gsave
1 setlinewidth
solid
0.000 0.000 0.000 nodecolor
216 153 18 18 ellipse_path stroke
0.000 0.000 0.000 nodecolor
14 /Times-Roman set_font
212 148.9 moveto 8 (2) alignedtext
grestore
% 1->2
gsave
1 setlinewidth
0.000 0.000 0.000 edgecolor
newpath 138 151 moveto
152 151 172 152 188 152 curveto
stroke
0.000 0.000 0.000 edgecolor
newpath 188 155.5 moveto
198 152 lineto
188 148.5 lineto
closepath fill
1 setlinewidth
solid
0.000 0.000 0.000 edgecolor
newpath 188 155.5 moveto
198 152 lineto
188 148.5 lineto
closepath stroke
0.000 0.000 0.000 edgecolor
14 /Times-Roman set_font
155 154.9 moveto 26 (i:eps) alignedtext
grestore
% 5
gsave
1 setlinewidth
solid
0.000 0.000 0.000 nodecolor
216 96 18 18 ellipse_path stroke
0.000 0.000 0.000 nodecolor
14 /Times-Roman set_font
212.5 91.9 moveto 7 (5) alignedtext
grestore
% 4->5
gsave
1 setlinewidth
0.000 0.000 0.000 edgecolor
newpath 138 96 moveto
152 96 172 96 188 96 curveto
stroke
0.000 0.000 0.000 edgecolor
newpath 188 99.5 moveto
198 96 lineto
188 92.5 lineto
closepath fill
1 setlinewidth
solid
0.000 0.000 0.000 edgecolor
newpath 188 99.5 moveto
198 96 lineto
188 92.5 lineto
closepath stroke
0.000 0.000 0.000 edgecolor
14 /Times-Roman set_font
155 99.9 moveto 26 (i:eps) alignedtext
grestore
% 9
gsave
1 setlinewidth
solid
0.000 0.000 0.000 nodecolor
216 41 18 18 ellipse_path stroke
0.000 0.000 0.000 nodecolor
14 /Times-Roman set_font
212 36.9 moveto 8 (9) alignedtext
grestore
% 8->9
gsave
1 setlinewidth
0.000 0.000 0.000 edgecolor
newpath 138 42 moveto
152 42 172 42 188 41 curveto
stroke
0.000 0.000 0.000 edgecolor
newpath 188 44.5 moveto
198 41 lineto
188 37.5 lineto
closepath fill
1 setlinewidth
solid
0.000 0.000 0.000 edgecolor
newpath 188 44.5 moveto
198 41 lineto
188 37.5 lineto
closepath stroke
0.000 0.000 0.000 edgecolor
14 /Times-Roman set_font
153.5 44.9 moveto 29 (e:eps) alignedtext
grestore
% 3
gsave
1 setlinewidth
solid
0.000 0.000 0.000 nodecolor
320 154 18 18 ellipse_path stroke
1 setlinewidth
solid
0.000 0.000 0.000 nodecolor
320 154 22 22 ellipse_path stroke
0.000 0.000 0.000 nodecolor
14 /Times-Roman set_font
316 149.9 moveto 8 (3) alignedtext
grestore
% 2->3
gsave
1 setlinewidth
0.000 0.000 0.000 edgecolor
newpath 234 153 moveto
249 153 270 153 288 154 curveto
stroke
0.000 0.000 0.000 edgecolor
newpath 288 157.5 moveto
298 154 lineto
288 150.5 lineto
closepath fill
1 setlinewidth
solid
0.000 0.000 0.000 edgecolor
newpath 288 157.5 moveto
298 154 lineto
288 150.5 lineto
closepath stroke
0.000 0.000 0.000 edgecolor
14 /Times-Roman set_font
249 156.9 moveto 34 (m:eps) alignedtext
grestore
% 6
gsave
1 setlinewidth
solid
0.000 0.000 0.000 nodecolor
320 96 18 18 ellipse_path stroke
0.000 0.000 0.000 nodecolor
14 /Times-Roman set_font
316 91.9 moveto 8 (6) alignedtext
grestore
% 5->6
gsave
1 setlinewidth
0.000 0.000 0.000 edgecolor
newpath 234 96 moveto
250 96 273 96 292 96 curveto
stroke
0.000 0.000 0.000 edgecolor
newpath 292 99.5 moveto
302 96 lineto
292 92.5 lineto
closepath fill
1 setlinewidth
solid
0.000 0.000 0.000 edgecolor
newpath 292 99.5 moveto
302 96 lineto
292 92.5 lineto
closepath stroke
0.000 0.000 0.000 edgecolor
14 /Times-Roman set_font
253 99.9 moveto 26 (l:eps) alignedtext
grestore
% 7
gsave
1 setlinewidth
solid
0.000 0.000 0.000 nodecolor
427 98 18 18 ellipse_path stroke
1 setlinewidth
solid
0.000 0.000 0.000 nodecolor
427 98 22 22 ellipse_path stroke
0.000 0.000 0.000 nodecolor
14 /Times-Roman set_font
423.5 93.9 moveto 7 (7) alignedtext
grestore
% 6->7
gsave
1 setlinewidth
0.000 0.000 0.000 edgecolor
newpath 338 96 moveto
354 97 376 97 395 98 curveto
stroke
0.000 0.000 0.000 edgecolor
newpath 395 101.5 moveto
405 98 lineto
395 94.5 lineto
closepath fill
1 setlinewidth
solid
0.000 0.000 0.000 edgecolor
newpath 395 101.5 moveto
405 98 lineto
395 94.5 lineto
closepath stroke
0.000 0.000 0.000 edgecolor
14 /Times-Roman set_font
359 99.9 moveto 26 (l:eps) alignedtext
grestore
% 10
gsave
1 setlinewidth
solid
0.000 0.000 0.000 nodecolor
320 37 21.04 21.04 ellipse_path stroke
0.000 0.000 0.000 nodecolor
14 /Times-Roman set_font
312.5 32.9 moveto 15 (10) alignedtext
grestore
% 9->10
gsave
1 setlinewidth
0.000 0.000 0.000 edgecolor
newpath 234 40 moveto
249 39 271 38 289 38 curveto
stroke
0.000 0.000 0.000 edgecolor
newpath 289 41.5 moveto
299 38 lineto
289 34.5 lineto
closepath fill
1 setlinewidth
solid
0.000 0.000 0.000 edgecolor
newpath 289 41.5 moveto
299 38 lineto
289 34.5 lineto
closepath stroke
0.000 0.000 0.000 edgecolor
14 /Times-Roman set_font
251.5 42.9 moveto 29 (a:eps) alignedtext
grestore
% 11
gsave
1 setlinewidth
solid
0.000 0.000 0.000 nodecolor
427 33 20.85 20.85 ellipse_path stroke
1 setlinewidth
solid
0.000 0.000 0.000 nodecolor
427 33 24.85 24.85 ellipse_path stroke
0.000 0.000 0.000 nodecolor
14 /Times-Roman set_font
420 28.9 moveto 14 (11) alignedtext
grestore
% 10->11
gsave
1 setlinewidth
0.000 0.000 0.000 edgecolor
newpath 341 36 moveto
355 35 375 35 392 34 curveto
stroke
0.000 0.000 0.000 edgecolor
newpath 392 37.5 moveto
402 34 lineto
392 30.5 lineto
closepath fill
1 setlinewidth
solid
0.000 0.000 0.000 edgecolor
newpath 392 37.5 moveto
402 34 lineto
392 30.5 lineto
closepath stroke
0.000 0.000 0.000 edgecolor
14 /Times-Roman set_font
357 38.9 moveto 30 (d:eps) alignedtext
grestore
endpage
showpage
grestore
%%PageTrailer
%%EndPage: 1
%%Trailer
%%Pages: 1
%%BoundingBox: 214 166 398 626
end
restore
%%EOF
