%!PS-Adobe-3.0 EPSF-3.0
%%Creator: Graphviz version 2.20.3 (Tue Oct 14 12:23:50 UTC 2008)
%%For: (ashishdepankaj) Ashish Depankaj
%%Title: FSM
%%Pages: (atend)
%%BoundingBox: (atend)
%%EndComments
save
%%BeginProlog
/DotDict 200 dict def
DotDict begin

/setupLatin1 {
mark
/EncodingVector 256 array def
 EncodingVector 0

ISOLatin1Encoding 0 255 getinterval putinterval
EncodingVector 45 /hyphen put

% Set up ISO Latin 1 character encoding
/starnetISO {
        dup dup findfont dup length dict begin
        { 1 index /FID ne { def }{ pop pop } ifelse
        } forall
        /Encoding EncodingVector def
        currentdict end definefont
} def
/Times-Roman starnetISO def
/Times-Italic starnetISO def
/Times-Bold starnetISO def
/Times-BoldItalic starnetISO def
/Helvetica starnetISO def
/Helvetica-Oblique starnetISO def
/Helvetica-Bold starnetISO def
/Helvetica-BoldOblique starnetISO def
/Courier starnetISO def
/Courier-Oblique starnetISO def
/Courier-Bold starnetISO def
/Courier-BoldOblique starnetISO def
cleartomark
} bind def

%%BeginResource: procset graphviz 0 0
/coord-font-family /Times-Roman def
/default-font-family /Times-Roman def
/coordfont coord-font-family findfont 8 scalefont def

/InvScaleFactor 1.0 def
/set_scale {
       dup 1 exch div /InvScaleFactor exch def
       scale
} bind def

% styles
/solid { [] 0 setdash } bind def
/dashed { [9 InvScaleFactor mul dup ] 0 setdash } bind def
/dotted { [1 InvScaleFactor mul 6 InvScaleFactor mul] 0 setdash } bind def
/invis {/fill {newpath} def /stroke {newpath} def /show {pop newpath} def} bind def
/bold { 2 setlinewidth } bind def
/filled { } bind def
/unfilled { } bind def
/rounded { } bind def
/diagonals { } bind def

% hooks for setting color 
/nodecolor { sethsbcolor } bind def
/edgecolor { sethsbcolor } bind def
/graphcolor { sethsbcolor } bind def
/nopcolor {pop pop pop} bind def

/beginpage {	% i j npages
	/npages exch def
	/j exch def
	/i exch def
	/str 10 string def
	npages 1 gt {
		gsave
			coordfont setfont
			0 0 moveto
			(\() show i str cvs show (,) show j str cvs show (\)) show
		grestore
	} if
} bind def

/set_font {
	findfont exch
	scalefont setfont
} def

% draw text fitted to its expected width
/alignedtext {			% width text
	/text exch def
	/width exch def
	gsave
		width 0 gt {
			[] 0 setdash
			text stringwidth pop width exch sub text length div 0 text ashow
		} if
	grestore
} def

/boxprim {				% xcorner ycorner xsize ysize
		4 2 roll
		moveto
		2 copy
		exch 0 rlineto
		0 exch rlineto
		pop neg 0 rlineto
		closepath
} bind def

/ellipse_path {
	/ry exch def
	/rx exch def
	/y exch def
	/x exch def
	matrix currentmatrix
	newpath
	x y translate
	rx ry scale
	0 0 1 0 360 arc
	setmatrix
} bind def

/endpage { showpage } bind def
/showpage { } def

/layercolorseq
	[	% layer color sequence - darkest to lightest
		[0 0 0]
		[.2 .8 .8]
		[.4 .8 .8]
		[.6 .8 .8]
		[.8 .8 .8]
	]
def

/layerlen layercolorseq length def

/setlayer {/maxlayer exch def /curlayer exch def
	layercolorseq curlayer 1 sub layerlen mod get
	aload pop sethsbcolor
	/nodecolor {nopcolor} def
	/edgecolor {nopcolor} def
	/graphcolor {nopcolor} def
} bind def

/onlayer { curlayer ne {invis} if } def

/onlayers {
	/myupper exch def
	/mylower exch def
	curlayer mylower lt
	curlayer myupper gt
	or
	{invis} if
} def

/curlayer 0 def

%%EndResource
%%EndProlog
%%BeginSetup
14 default-font-family set_font
1 setmiterlimit
% /arrowlength 10 def
% /arrowwidth 5 def

% make sure pdfmark is harmless for PS-interpreters other than Distiller
/pdfmark where {pop} {userdict /pdfmark /cleartomark load put} ifelse
% make '<<' and '>>' safe on PS Level 1 devices
/languagelevel where {pop languagelevel}{1} ifelse
2 lt {
    userdict (<<) cvn ([) cvn load put
    userdict (>>) cvn ([) cvn load put
} if

%%EndSetup
setupLatin1
%%Page: 1 1
%%PageBoundingBox: 154 96 458 696
%%PageOrientation: Landscape
0 0 1 beginpage
gsave
154 96 304 600 boxprim clip newpath
1 1 set_scale 90 rotate 100 -454 translate
% 0
gsave
1 setlinewidth
solid
0.000 0.000 0.000 nodecolor
140 153 18 18 ellipse_path stroke
0.000 0.000 0.000 nodecolor
14 /Times-Roman set_font
136 148.9 moveto 8 (0) alignedtext
grestore
% 1
gsave
1 setlinewidth
solid
0.000 0.000 0.000 nodecolor
242 183 18 18 ellipse_path stroke
0.000 0.000 0.000 nodecolor
14 /Times-Roman set_font
238 178.9 moveto 8 (1) alignedtext
grestore
% 0->1
gsave
1 setlinewidth
0.000 0.000 0.000 edgecolor
newpath 157 158 moveto
173 163 196 170 214 175 curveto
stroke
0.000 0.000 0.000 edgecolor
newpath 213.42 178.48 moveto
224 178 lineto
215.43 171.77 lineto
closepath fill
1 setlinewidth
solid
0.000 0.000 0.000 edgecolor
newpath 213.42 178.48 moveto
224 178 lineto
215.43 171.77 lineto
closepath stroke
0.000 0.000 0.000 edgecolor
14 /Times-Roman set_font
178 175.9 moveto 26 (j:jim) alignedtext
grestore
% 4
gsave
1 setlinewidth
solid
0.000 0.000 0.000 nodecolor
242 278 18 18 ellipse_path stroke
0.000 0.000 0.000 nodecolor
14 /Times-Roman set_font
238 273.9 moveto 8 (4) alignedtext
grestore
% 0->4
gsave
1 setlinewidth
0.000 0.000 0.000 edgecolor
newpath 142 171 moveto
146 191 154 224 173 246 curveto
184 257 201 265 215 271 curveto
stroke
0.000 0.000 0.000 edgecolor
newpath 213.41 274.16 moveto
224 274 lineto
215.62 267.52 lineto
closepath fill
1 setlinewidth
solid
0.000 0.000 0.000 edgecolor
newpath 213.41 274.16 moveto
224 274 lineto
215.62 267.52 lineto
closepath stroke
0.000 0.000 0.000 edgecolor
14 /Times-Roman set_font
179.5 270.9 moveto 23 (j:jill) alignedtext
grestore
% 8
gsave
1 setlinewidth
solid
0.000 0.000 0.000 nodecolor
242 32 18 18 ellipse_path stroke
0.000 0.000 0.000 nodecolor
14 /Times-Roman set_font
238.5 27.9 moveto 7 (8) alignedtext
grestore
% 0->8
gsave
1 setlinewidth
0.000 0.000 0.000 edgecolor
newpath 144 135 moveto
149 109 161 61 173 49 curveto
184 40 200 35 214 33 curveto
stroke
0.000 0.000 0.000 edgecolor
newpath 214.4 36.48 moveto
224 32 lineto
213.7 29.51 lineto
closepath fill
1 setlinewidth
solid
0.000 0.000 0.000 edgecolor
newpath 214.4 36.48 moveto
224 32 lineto
213.7 29.51 lineto
closepath stroke
0.000 0.000 0.000 edgecolor
14 /Times-Roman set_font
173.5 56.9 moveto 35 (r:read) alignedtext
grestore
% 2
gsave
1 setlinewidth
solid
0.000 0.000 0.000 nodecolor
353 186 18 18 ellipse_path stroke
0.000 0.000 0.000 nodecolor
14 /Times-Roman set_font
349 181.9 moveto 8 (2) alignedtext
grestore
% 1->2
gsave
1 setlinewidth
0.000 0.000 0.000 edgecolor
newpath 260 183 moveto
278 184 304 185 325 185 curveto
stroke
0.000 0.000 0.000 edgecolor
newpath 325 188.5 moveto
335 185 lineto
325 181.5 lineto
closepath fill
1 setlinewidth
solid
0.000 0.000 0.000 edgecolor
newpath 325 188.5 moveto
335 185 lineto
325 181.5 lineto
closepath stroke
0.000 0.000 0.000 edgecolor
14 /Times-Roman set_font
283 187.9 moveto 26 (i:eps) alignedtext
grestore
% 5
gsave
1 setlinewidth
solid
0.000 0.000 0.000 nodecolor
353 278 18 18 ellipse_path stroke
0.000 0.000 0.000 nodecolor
14 /Times-Roman set_font
349.5 273.9 moveto 7 (5) alignedtext
grestore
% 4->5
gsave
1 setlinewidth
0.000 0.000 0.000 edgecolor
newpath 260 278 moveto
278 278 304 278 325 278 curveto
stroke
0.000 0.000 0.000 edgecolor
newpath 325 281.5 moveto
335 278 lineto
325 274.5 lineto
closepath fill
1 setlinewidth
solid
0.000 0.000 0.000 edgecolor
newpath 325 281.5 moveto
335 278 lineto
325 274.5 lineto
closepath stroke
0.000 0.000 0.000 edgecolor
14 /Times-Roman set_font
283 281.9 moveto 26 (i:eps) alignedtext
grestore
% 9
gsave
1 setlinewidth
solid
0.000 0.000 0.000 nodecolor
353 26 18 18 ellipse_path stroke
0.000 0.000 0.000 nodecolor
14 /Times-Roman set_font
349 21.9 moveto 8 (9) alignedtext
grestore
% 8->9
gsave
1 setlinewidth
0.000 0.000 0.000 edgecolor
newpath 260 31 moveto
278 30 304 29 325 28 curveto
stroke
0.000 0.000 0.000 edgecolor
newpath 325.4 31.48 moveto
335 27 lineto
324.7 24.51 lineto
closepath fill
1 setlinewidth
solid
0.000 0.000 0.000 edgecolor
newpath 325.4 31.48 moveto
335 27 lineto
324.7 24.51 lineto
closepath stroke
0.000 0.000 0.000 edgecolor
14 /Times-Roman set_font
281.5 35.9 moveto 29 (e:eps) alignedtext
grestore
% 3
gsave
1 setlinewidth
solid
0.000 0.000 0.000 nodecolor
460 206 18 18 ellipse_path stroke
1 setlinewidth
solid
0.000 0.000 0.000 nodecolor
460 206 22 22 ellipse_path stroke
0.000 0.000 0.000 nodecolor
14 /Times-Roman set_font
456 201.9 moveto 8 (3) alignedtext
grestore
% 2->3
gsave
1 setlinewidth
0.000 0.000 0.000 edgecolor
newpath 371 189 moveto
387 192 409 196 428 200 curveto
stroke
0.000 0.000 0.000 edgecolor
newpath 427.51 203.47 moveto
438 202 lineto
428.88 196.61 lineto
closepath fill
1 setlinewidth
solid
0.000 0.000 0.000 edgecolor
newpath 427.51 203.47 moveto
438 202 lineto
428.88 196.61 lineto
closepath stroke
0.000 0.000 0.000 edgecolor
14 /Times-Roman set_font
389 200.9 moveto 34 (m:eps) alignedtext
grestore
% 3->0
gsave
1 setlinewidth
0.000 0.000 0.000 edgecolor
newpath 439 214 moveto
434 216 428 217 423 218 curveto
409 220 405 218 389 218 curveto
316 216 297 223 224 210 curveto
201 205 193 206 173 193 curveto
167 188 161 183 157 177 curveto
stroke
0.000 0.000 0.000 edgecolor
newpath 159.22 174.22 moveto
150 169 lineto
153.95 178.83 lineto
closepath fill
1 setlinewidth
solid
0.000 0.000 0.000 edgecolor
newpath 159.22 174.22 moveto
150 169 lineto
153.95 178.83 lineto
closepath stroke
0.000 0.000 0.000 edgecolor
14 /Times-Roman set_font
275.5 220.9 moveto 41 (eps:eps) alignedtext
grestore
% 6
gsave
1 setlinewidth
solid
0.000 0.000 0.000 nodecolor
460 267 18 18 ellipse_path stroke
0.000 0.000 0.000 nodecolor
14 /Times-Roman set_font
456 262.9 moveto 8 (6) alignedtext
grestore
% 5->6
gsave
1 setlinewidth
0.000 0.000 0.000 edgecolor
newpath 371 276 moveto
388 274 413 272 432 270 curveto
stroke
0.000 0.000 0.000 edgecolor
newpath 432.4 273.48 moveto
442 269 lineto
431.7 266.51 lineto
closepath fill
1 setlinewidth
solid
0.000 0.000 0.000 edgecolor
newpath 432.4 273.48 moveto
442 269 lineto
431.7 266.51 lineto
closepath stroke
0.000 0.000 0.000 edgecolor
14 /Times-Roman set_font
393 276.9 moveto 26 (l:eps) alignedtext
grestore
% 7
gsave
1 setlinewidth
solid
0.000 0.000 0.000 nodecolor
567 139 18 18 ellipse_path stroke
1 setlinewidth
solid
0.000 0.000 0.000 nodecolor
567 139 22 22 ellipse_path stroke
0.000 0.000 0.000 nodecolor
14 /Times-Roman set_font
563.5 134.9 moveto 7 (7) alignedtext
grestore
% 6->7
gsave
1 setlinewidth
0.000 0.000 0.000 edgecolor
newpath 472 253 moveto
490 231 524 190 546 164 curveto
stroke
0.000 0.000 0.000 edgecolor
newpath 549.05 165.83 moveto
553 156 lineto
543.78 161.22 lineto
closepath fill
1 setlinewidth
solid
0.000 0.000 0.000 edgecolor
newpath 549.05 165.83 moveto
553 156 lineto
543.78 161.22 lineto
closepath stroke
0.000 0.000 0.000 edgecolor
14 /Times-Roman set_font
499 224.9 moveto 26 (l:eps) alignedtext
grestore
% 7->0
gsave
1 setlinewidth
0.000 0.000 0.000 edgecolor
newpath 545 137 moveto
523 136 490 134 460 133 curveto
242 133 242 133 242 133 curveto
216 134 188 140 168 145 curveto
stroke
0.000 0.000 0.000 edgecolor
newpath 166.57 141.77 moveto
158 148 lineto
168.58 148.48 lineto
closepath fill
1 setlinewidth
solid
0.000 0.000 0.000 edgecolor
newpath 166.57 141.77 moveto
158 148 lineto
168.58 148.48 lineto
closepath stroke
0.000 0.000 0.000 edgecolor
14 /Times-Roman set_font
332.5 137.9 moveto 41 (eps:eps) alignedtext
grestore
% 10
gsave
1 setlinewidth
solid
0.000 0.000 0.000 nodecolor
460 30 21.04 21.04 ellipse_path stroke
0.000 0.000 0.000 nodecolor
14 /Times-Roman set_font
452.5 25.9 moveto 15 (10) alignedtext
grestore
% 9->10
gsave
1 setlinewidth
0.000 0.000 0.000 edgecolor
newpath 371 27 moveto
387 28 410 29 429 29 curveto
stroke
0.000 0.000 0.000 edgecolor
newpath 429 32.5 moveto
439 29 lineto
429 25.5 lineto
closepath fill
1 setlinewidth
solid
0.000 0.000 0.000 edgecolor
newpath 429 32.5 moveto
439 29 lineto
429 25.5 lineto
closepath stroke
0.000 0.000 0.000 edgecolor
14 /Times-Roman set_font
391.5 34.9 moveto 29 (a:eps) alignedtext
grestore
% 11
gsave
1 setlinewidth
solid
0.000 0.000 0.000 nodecolor
567 57 20.85 20.85 ellipse_path stroke
1 setlinewidth
solid
0.000 0.000 0.000 nodecolor
567 57 24.85 24.85 ellipse_path stroke
0.000 0.000 0.000 nodecolor
14 /Times-Roman set_font
560 52.9 moveto 14 (11) alignedtext
grestore
% 10->11
gsave
1 setlinewidth
0.000 0.000 0.000 edgecolor
newpath 480 35 moveto
495 39 515 44 532 48 curveto
stroke
0.000 0.000 0.000 edgecolor
newpath 531.42 51.48 moveto
542 51 lineto
533.43 44.77 lineto
closepath fill
1 setlinewidth
solid
0.000 0.000 0.000 edgecolor
newpath 531.42 51.48 moveto
542 51 lineto
533.43 44.77 lineto
closepath stroke
0.000 0.000 0.000 edgecolor
14 /Times-Roman set_font
497 51.9 moveto 30 (d:eps) alignedtext
grestore
% 11->0
gsave
1 setlinewidth
0.000 0.000 0.000 edgecolor
newpath 543 65 moveto
522 72 489 80 460 80 curveto
242 80 242 80 242 80 curveto
207 80 176 109 157 130 curveto
stroke
0.000 0.000 0.000 edgecolor
newpath 154.2 127.9 moveto
151 138 lineto
159.8 132.1 lineto
closepath fill
1 setlinewidth
solid
0.000 0.000 0.000 edgecolor
newpath 154.2 127.9 moveto
151 138 lineto
159.8 132.1 lineto
closepath stroke
0.000 0.000 0.000 edgecolor
14 /Times-Roman set_font
332.5 84.9 moveto 41 (eps:eps) alignedtext
grestore
% 12
gsave
2 setlinewidth
bold
0.000 0.000 0.000 nodecolor
25 153 21.12 21.12 ellipse_path stroke
2 setlinewidth
bold
0.000 0.000 0.000 nodecolor
25 153 25.04 25.04 ellipse_path stroke
0.000 0.000 0.000 nodecolor
14 /Times-Roman set_font
17.5 148.9 moveto 15 (12) alignedtext
grestore
% 12->0
gsave
1 setlinewidth
0.000 0.000 0.000 edgecolor
newpath 50 153 moveto
68 153 93 153 112 153 curveto
stroke
0.000 0.000 0.000 edgecolor
newpath 112 156.5 moveto
122 153 lineto
112 149.5 lineto
closepath fill
1 setlinewidth
solid
0.000 0.000 0.000 edgecolor
newpath 112 156.5 moveto
122 153 lineto
112 149.5 lineto
closepath stroke
0.000 0.000 0.000 edgecolor
14 /Times-Roman set_font
65.5 156.9 moveto 41 (eps:eps) alignedtext
grestore
endpage
showpage
grestore
%%PageTrailer
%%EndPage: 1
%%Trailer
%%Pages: 1
%%BoundingBox: 154 96 458 696
end
restore
%%EOF
