%!PS-Adobe-3.0 EPSF-3.0
%%Creator: Graphviz version 2.20.3 (Tue Oct 14 12:23:50 UTC 2008)
%%For: (ashishdepankaj) Ashish Depankaj
%%Title: FSM
%%Pages: (atend)
%%BoundingBox: (atend)
%%EndComments
save
%%BeginProlog
/DotDict 200 dict def
DotDict begin

/setupLatin1 {
mark
/EncodingVector 256 array def
 EncodingVector 0

ISOLatin1Encoding 0 255 getinterval putinterval
EncodingVector 45 /hyphen put

% Set up ISO Latin 1 character encoding
/starnetISO {
        dup dup findfont dup length dict begin
        { 1 index /FID ne { def }{ pop pop } ifelse
        } forall
        /Encoding EncodingVector def
        currentdict end definefont
} def
/Times-Roman starnetISO def
/Times-Italic starnetISO def
/Times-Bold starnetISO def
/Times-BoldItalic starnetISO def
/Helvetica starnetISO def
/Helvetica-Oblique starnetISO def
/Helvetica-Bold starnetISO def
/Helvetica-BoldOblique starnetISO def
/Courier starnetISO def
/Courier-Oblique starnetISO def
/Courier-Bold starnetISO def
/Courier-BoldOblique starnetISO def
cleartomark
} bind def

%%BeginResource: procset graphviz 0 0
/coord-font-family /Times-Roman def
/default-font-family /Times-Roman def
/coordfont coord-font-family findfont 8 scalefont def

/InvScaleFactor 1.0 def
/set_scale {
       dup 1 exch div /InvScaleFactor exch def
       scale
} bind def

% styles
/solid { [] 0 setdash } bind def
/dashed { [9 InvScaleFactor mul dup ] 0 setdash } bind def
/dotted { [1 InvScaleFactor mul 6 InvScaleFactor mul] 0 setdash } bind def
/invis {/fill {newpath} def /stroke {newpath} def /show {pop newpath} def} bind def
/bold { 2 setlinewidth } bind def
/filled { } bind def
/unfilled { } bind def
/rounded { } bind def
/diagonals { } bind def

% hooks for setting color 
/nodecolor { sethsbcolor } bind def
/edgecolor { sethsbcolor } bind def
/graphcolor { sethsbcolor } bind def
/nopcolor {pop pop pop} bind def

/beginpage {	% i j npages
	/npages exch def
	/j exch def
	/i exch def
	/str 10 string def
	npages 1 gt {
		gsave
			coordfont setfont
			0 0 moveto
			(\() show i str cvs show (,) show j str cvs show (\)) show
		grestore
	} if
} bind def

/set_font {
	findfont exch
	scalefont setfont
} def

% draw text fitted to its expected width
/alignedtext {			% width text
	/text exch def
	/width exch def
	gsave
		width 0 gt {
			[] 0 setdash
			text stringwidth pop width exch sub text length div 0 text ashow
		} if
	grestore
} def

/boxprim {				% xcorner ycorner xsize ysize
		4 2 roll
		moveto
		2 copy
		exch 0 rlineto
		0 exch rlineto
		pop neg 0 rlineto
		closepath
} bind def

/ellipse_path {
	/ry exch def
	/rx exch def
	/y exch def
	/x exch def
	matrix currentmatrix
	newpath
	x y translate
	rx ry scale
	0 0 1 0 360 arc
	setmatrix
} bind def

/endpage { showpage } bind def
/showpage { } def

/layercolorseq
	[	% layer color sequence - darkest to lightest
		[0 0 0]
		[.2 .8 .8]
		[.4 .8 .8]
		[.6 .8 .8]
		[.8 .8 .8]
	]
def

/layerlen layercolorseq length def

/setlayer {/maxlayer exch def /curlayer exch def
	layercolorseq curlayer 1 sub layerlen mod get
	aload pop sethsbcolor
	/nodecolor {nopcolor} def
	/edgecolor {nopcolor} def
	/graphcolor {nopcolor} def
} bind def

/onlayer { curlayer ne {invis} if } def

/onlayers {
	/myupper exch def
	/mylower exch def
	curlayer mylower lt
	curlayer myupper gt
	or
	{invis} if
} def

/curlayer 0 def

%%EndResource
%%EndProlog
%%BeginSetup
14 default-font-family set_font
1 setmiterlimit
% /arrowlength 10 def
% /arrowwidth 5 def

% make sure pdfmark is harmless for PS-interpreters other than Distiller
/pdfmark where {pop} {userdict /pdfmark /cleartomark load put} ifelse
% make '<<' and '>>' safe on PS Level 1 devices
/languagelevel where {pop languagelevel}{1} ifelse
2 lt {
    userdict (<<) cvn ([) cvn load put
    userdict (>>) cvn ([) cvn load put
} if

%%EndSetup
setupLatin1
%%Page: 1 1
%%PageBoundingBox: 245 90 367 702
%%PageOrientation: Landscape
0 0 1 beginpage
gsave
245 90 122 612 boxprim clip newpath
0.53125 0.53125 set_scale 90 rotate 173.412 -687 translate
% 0
gsave
2 setlinewidth
bold
0.000 0.000 0.000 nodecolor
28 125 23.89 23.89 ellipse_path stroke
2 setlinewidth
bold
0.000 0.000 0.000 nodecolor
28 125 27.82 27.82 ellipse_path stroke
0.000 0.000 0.000 nodecolor
14 /Times-Roman set_font
18.5 120.9 moveto 19 (0/0) alignedtext
grestore
% 1
gsave
1 setlinewidth
solid
0.000 0.000 0.000 nodecolor
158 125 18 18 ellipse_path stroke
0.000 0.000 0.000 nodecolor
14 /Times-Roman set_font
154 120.9 moveto 8 (1) alignedtext
grestore
% 0->1
gsave
1 setlinewidth
0.000 0.000 0.000 edgecolor
newpath 56 125 moveto
77 125 108 125 130 125 curveto
stroke
0.000 0.000 0.000 edgecolor
newpath 130 128.5 moveto
140 125 lineto
130 121.5 lineto
closepath fill
1 setlinewidth
solid
0.000 0.000 0.000 edgecolor
newpath 130 128.5 moveto
140 125 lineto
130 121.5 lineto
closepath stroke
0.000 0.000 0.000 edgecolor
14 /Times-Roman set_font
71.5 129.9 moveto 53 (eps:eps/0) alignedtext
grestore
% 2
gsave
1 setlinewidth
solid
0.000 0.000 0.000 nodecolor
273 183 18 18 ellipse_path stroke
0.000 0.000 0.000 nodecolor
14 /Times-Roman set_font
269 178.9 moveto 8 (2) alignedtext
grestore
% 1->2
gsave
1 setlinewidth
0.000 0.000 0.000 edgecolor
newpath 173 135 moveto
179 139 185 143 191 146 curveto
209 156 230 166 246 172 curveto
stroke
0.000 0.000 0.000 edgecolor
newpath 245.42 175.54 moveto
256 176 lineto
248.02 169.04 lineto
closepath fill
1 setlinewidth
solid
0.000 0.000 0.000 edgecolor
newpath 245.42 175.54 moveto
256 176 lineto
248.02 169.04 lineto
closepath stroke
0.000 0.000 0.000 edgecolor
14 /Times-Roman set_font
195 172.9 moveto 38 (j:jim/1) alignedtext
grestore
% 10
gsave
1 setlinewidth
solid
0.000 0.000 0.000 nodecolor
273 125 21.04 21.04 ellipse_path stroke
0.000 0.000 0.000 nodecolor
14 /Times-Roman set_font
265.5 120.9 moveto 15 (10) alignedtext
grestore
% 1->10
gsave
1 setlinewidth
0.000 0.000 0.000 edgecolor
newpath 176 125 moveto
194 125 221 125 242 125 curveto
stroke
0.000 0.000 0.000 edgecolor
newpath 242 128.5 moveto
252 125 lineto
242 121.5 lineto
closepath fill
1 setlinewidth
solid
0.000 0.000 0.000 edgecolor
newpath 242 128.5 moveto
252 125 lineto
242 121.5 lineto
closepath stroke
0.000 0.000 0.000 edgecolor
14 /Times-Roman set_font
197 129.9 moveto 34 (j:jill/1) alignedtext
grestore
% 14
gsave
1 setlinewidth
solid
0.000 0.000 0.000 nodecolor
273 64 21.04 21.04 ellipse_path stroke
0.000 0.000 0.000 nodecolor
14 /Times-Roman set_font
265.5 59.9 moveto 15 (14) alignedtext
grestore
% 1->14
gsave
1 setlinewidth
0.000 0.000 0.000 edgecolor
newpath 173 115 moveto
179 111 185 108 191 104 curveto
208 95 229 85 245 77 curveto
stroke
0.000 0.000 0.000 edgecolor
newpath 246.28 80.26 moveto
254 73 lineto
243.44 73.86 lineto
closepath fill
1 setlinewidth
solid
0.000 0.000 0.000 edgecolor
newpath 246.28 80.26 moveto
254 73 lineto
243.44 73.86 lineto
closepath stroke
0.000 0.000 0.000 edgecolor
14 /Times-Roman set_font
191 111.9 moveto 46 (r:read/1) alignedtext
grestore
% 3
gsave
1 setlinewidth
solid
0.000 0.000 0.000 nodecolor
387 186 18 18 ellipse_path stroke
0.000 0.000 0.000 nodecolor
14 /Times-Roman set_font
383 181.9 moveto 8 (3) alignedtext
grestore
% 2->3
gsave
1 setlinewidth
0.000 0.000 0.000 edgecolor
newpath 291 183 moveto
309 184 338 185 359 185 curveto
stroke
0.000 0.000 0.000 edgecolor
newpath 359 188.5 moveto
369 185 lineto
359 181.5 lineto
closepath fill
1 setlinewidth
solid
0.000 0.000 0.000 edgecolor
newpath 359 188.5 moveto
369 185 lineto
359 181.5 lineto
closepath stroke
0.000 0.000 0.000 edgecolor
14 /Times-Roman set_font
311 189.9 moveto 38 (i:eps/0) alignedtext
grestore
% 11
gsave
1 setlinewidth
solid
0.000 0.000 0.000 nodecolor
387 125 20.85 20.85 ellipse_path stroke
0.000 0.000 0.000 nodecolor
14 /Times-Roman set_font
380 120.9 moveto 14 (11) alignedtext
grestore
% 10->11
gsave
1 setlinewidth
0.000 0.000 0.000 edgecolor
newpath 294 125 moveto
311 125 336 125 356 125 curveto
stroke
0.000 0.000 0.000 edgecolor
newpath 356 128.5 moveto
366 125 lineto
356 121.5 lineto
closepath fill
1 setlinewidth
solid
0.000 0.000 0.000 edgecolor
newpath 356 128.5 moveto
366 125 lineto
356 121.5 lineto
closepath stroke
0.000 0.000 0.000 edgecolor
14 /Times-Roman set_font
311 129.9 moveto 38 (i:eps/0) alignedtext
grestore
% 15
gsave
1 setlinewidth
solid
0.000 0.000 0.000 nodecolor
387 62 20.85 20.85 ellipse_path stroke
0.000 0.000 0.000 nodecolor
14 /Times-Roman set_font
380 57.9 moveto 14 (15) alignedtext
grestore
% 14->15
gsave
1 setlinewidth
0.000 0.000 0.000 edgecolor
newpath 294 64 moveto
311 63 336 63 356 62 curveto
stroke
0.000 0.000 0.000 edgecolor
newpath 356 65.5 moveto
366 62 lineto
356 58.5 lineto
closepath fill
1 setlinewidth
solid
0.000 0.000 0.000 edgecolor
newpath 356 65.5 moveto
366 62 lineto
356 58.5 lineto
closepath stroke
0.000 0.000 0.000 edgecolor
14 /Times-Roman set_font
309.5 68.9 moveto 41 (e:eps/0) alignedtext
grestore
% 4
gsave
1 setlinewidth
solid
0.000 0.000 0.000 nodecolor
512 192 23.89 23.89 ellipse_path stroke
1 setlinewidth
solid
0.000 0.000 0.000 nodecolor
512 192 27.82 27.82 ellipse_path stroke
0.000 0.000 0.000 nodecolor
14 /Times-Roman set_font
502.5 187.9 moveto 19 (4/0) alignedtext
grestore
% 3->4
gsave
1 setlinewidth
0.000 0.000 0.000 edgecolor
newpath 405 187 moveto
423 188 451 189 474 191 curveto
stroke
0.000 0.000 0.000 edgecolor
newpath 474 194.5 moveto
484 191 lineto
474 187.5 lineto
closepath fill
1 setlinewidth
solid
0.000 0.000 0.000 edgecolor
newpath 474 194.5 moveto
484 191 lineto
474 187.5 lineto
closepath stroke
0.000 0.000 0.000 edgecolor
14 /Times-Roman set_font
423.5 194.9 moveto 45 (m:eps/0) alignedtext
grestore
% 5
gsave
1 setlinewidth
solid
0.000 0.000 0.000 nodecolor
657 194 18 18 ellipse_path stroke
0.000 0.000 0.000 nodecolor
14 /Times-Roman set_font
653.5 189.9 moveto 7 (5) alignedtext
grestore
% 4->5
gsave
1 setlinewidth
0.000 0.000 0.000 edgecolor
newpath 540 192 moveto
565 193 603 193 629 194 curveto
stroke
0.000 0.000 0.000 edgecolor
newpath 629 197.5 moveto
639 194 lineto
629 190.5 lineto
closepath fill
1 setlinewidth
solid
0.000 0.000 0.000 edgecolor
newpath 629 197.5 moveto
639 194 lineto
629 190.5 lineto
closepath stroke
0.000 0.000 0.000 edgecolor
14 /Times-Roman set_font
555.5 197.9 moveto 53 (eps:eps/0) alignedtext
grestore
% 6
gsave
1 setlinewidth
solid
0.000 0.000 0.000 nodecolor
784 194 18 18 ellipse_path stroke
0.000 0.000 0.000 nodecolor
14 /Times-Roman set_font
780 189.9 moveto 8 (6) alignedtext
grestore
% 5->6
gsave
1 setlinewidth
0.000 0.000 0.000 edgecolor
newpath 675 194 moveto
696 194 731 194 756 194 curveto
stroke
0.000 0.000 0.000 edgecolor
newpath 756 197.5 moveto
766 194 lineto
756 190.5 lineto
closepath fill
1 setlinewidth
solid
0.000 0.000 0.000 edgecolor
newpath 756 197.5 moveto
766 194 lineto
756 190.5 lineto
closepath stroke
0.000 0.000 0.000 edgecolor
14 /Times-Roman set_font
705 197.9 moveto 46 (r:read/1) alignedtext
grestore
% 7
gsave
1 setlinewidth
solid
0.000 0.000 0.000 nodecolor
892 194 18 18 ellipse_path stroke
0.000 0.000 0.000 nodecolor
14 /Times-Roman set_font
888.5 189.9 moveto 7 (7) alignedtext
grestore
% 6->7
gsave
1 setlinewidth
0.000 0.000 0.000 edgecolor
newpath 802 194 moveto
819 194 844 194 864 194 curveto
stroke
0.000 0.000 0.000 edgecolor
newpath 864 197.5 moveto
874 194 lineto
864 190.5 lineto
closepath fill
1 setlinewidth
solid
0.000 0.000 0.000 edgecolor
newpath 864 197.5 moveto
874 194 lineto
864 190.5 lineto
closepath stroke
0.000 0.000 0.000 edgecolor
14 /Times-Roman set_font
817.5 197.9 moveto 41 (e:eps/0) alignedtext
grestore
% 8
gsave
1 setlinewidth
solid
0.000 0.000 0.000 nodecolor
998 194 18 18 ellipse_path stroke
0.000 0.000 0.000 nodecolor
14 /Times-Roman set_font
994.5 189.9 moveto 7 (8) alignedtext
grestore
% 7->8
gsave
1 setlinewidth
0.000 0.000 0.000 edgecolor
newpath 910 194 moveto
927 194 951 194 970 194 curveto
stroke
0.000 0.000 0.000 edgecolor
newpath 970 197.5 moveto
980 194 lineto
970 190.5 lineto
closepath fill
1 setlinewidth
solid
0.000 0.000 0.000 edgecolor
newpath 970 197.5 moveto
980 194 lineto
970 190.5 lineto
closepath stroke
0.000 0.000 0.000 edgecolor
14 /Times-Roman set_font
925 197.9 moveto 40 (a:eps/0) alignedtext
grestore
% 9
gsave
1 setlinewidth
solid
0.000 0.000 0.000 nodecolor
1116 194 23.89 23.89 ellipse_path stroke
1 setlinewidth
solid
0.000 0.000 0.000 nodecolor
1116 194 27.82 27.82 ellipse_path stroke
0.000 0.000 0.000 nodecolor
14 /Times-Roman set_font
1106.5 189.9 moveto 19 (9/0) alignedtext
grestore
% 8->9
gsave
1 setlinewidth
0.000 0.000 0.000 edgecolor
newpath 1016 194 moveto
1032 194 1057 194 1078 194 curveto
stroke
0.000 0.000 0.000 edgecolor
newpath 1078 197.5 moveto
1088 194 lineto
1078 190.5 lineto
closepath fill
1 setlinewidth
solid
0.000 0.000 0.000 edgecolor
newpath 1078 197.5 moveto
1088 194 lineto
1078 190.5 lineto
closepath stroke
0.000 0.000 0.000 edgecolor
14 /Times-Roman set_font
1031.5 197.9 moveto 41 (d:eps/0) alignedtext
grestore
% 12
gsave
1 setlinewidth
solid
0.000 0.000 0.000 nodecolor
512 125 21.04 21.04 ellipse_path stroke
0.000 0.000 0.000 nodecolor
14 /Times-Roman set_font
504.5 120.9 moveto 15 (12) alignedtext
grestore
% 11->12
gsave
1 setlinewidth
0.000 0.000 0.000 edgecolor
newpath 408 125 moveto
428 125 458 125 481 125 curveto
stroke
0.000 0.000 0.000 edgecolor
newpath 481 128.5 moveto
491 125 lineto
481 121.5 lineto
closepath fill
1 setlinewidth
solid
0.000 0.000 0.000 edgecolor
newpath 481 128.5 moveto
491 125 lineto
481 121.5 lineto
closepath stroke
0.000 0.000 0.000 edgecolor
14 /Times-Roman set_font
427 129.9 moveto 38 (l:eps/0) alignedtext
grestore
% 13
gsave
1 setlinewidth
solid
0.000 0.000 0.000 nodecolor
657 125 29.19 29.19 ellipse_path stroke
1 setlinewidth
solid
0.000 0.000 0.000 nodecolor
657 125 33.19 33.19 ellipse_path stroke
0.000 0.000 0.000 nodecolor
14 /Times-Roman set_font
644 120.9 moveto 26 (13/0) alignedtext
grestore
% 12->13
gsave
1 setlinewidth
0.000 0.000 0.000 edgecolor
newpath 533 125 moveto
554 125 587 125 614 125 curveto
stroke
0.000 0.000 0.000 edgecolor
newpath 614 128.5 moveto
624 125 lineto
614 121.5 lineto
closepath fill
1 setlinewidth
solid
0.000 0.000 0.000 edgecolor
newpath 614 128.5 moveto
624 125 lineto
614 121.5 lineto
closepath stroke
0.000 0.000 0.000 edgecolor
14 /Times-Roman set_font
563 129.9 moveto 38 (l:eps/0) alignedtext
grestore
% 16
gsave
1 setlinewidth
solid
0.000 0.000 0.000 nodecolor
512 53 21.04 21.04 ellipse_path stroke
0.000 0.000 0.000 nodecolor
14 /Times-Roman set_font
504.5 48.9 moveto 15 (16) alignedtext
grestore
% 15->16
gsave
1 setlinewidth
0.000 0.000 0.000 edgecolor
newpath 408 60 moveto
428 59 458 57 481 56 curveto
stroke
0.000 0.000 0.000 edgecolor
newpath 481.4 59.48 moveto
491 55 lineto
480.7 52.51 lineto
closepath fill
1 setlinewidth
solid
0.000 0.000 0.000 edgecolor
newpath 481.4 59.48 moveto
491 55 lineto
480.7 52.51 lineto
closepath stroke
0.000 0.000 0.000 edgecolor
14 /Times-Roman set_font
426 64.9 moveto 40 (a:eps/0) alignedtext
grestore
% 17
gsave
1 setlinewidth
solid
0.000 0.000 0.000 nodecolor
657 41 29.19 29.19 ellipse_path stroke
1 setlinewidth
solid
0.000 0.000 0.000 nodecolor
657 41 33.19 33.19 ellipse_path stroke
0.000 0.000 0.000 nodecolor
14 /Times-Roman set_font
644 36.9 moveto 26 (17/0) alignedtext
grestore
% 16->17
gsave
1 setlinewidth
0.000 0.000 0.000 edgecolor
newpath 533 51 moveto
554 49 587 47 614 45 curveto
stroke
0.000 0.000 0.000 edgecolor
newpath 614.4 48.48 moveto
624 44 lineto
613.7 41.51 lineto
closepath fill
1 setlinewidth
solid
0.000 0.000 0.000 edgecolor
newpath 614.4 48.48 moveto
624 44 lineto
613.7 41.51 lineto
closepath stroke
0.000 0.000 0.000 edgecolor
14 /Times-Roman set_font
561.5 55.9 moveto 41 (d:eps/0) alignedtext
grestore
endpage
showpage
grestore
%%PageTrailer
%%EndPage: 1
%%Trailer
%%Pages: 1
%%BoundingBox: 245 90 367 702
end
restore
%%EOF
