%!PS-Adobe-3.0 EPSF-3.0
%%Creator: Graphviz version 2.20.3 (Tue Oct 14 12:23:50 UTC 2008)
%%For: (ashishdepankaj) Ashish Depankaj
%%Title: FSM
%%Pages: (atend)
%%BoundingBox: (atend)
%%EndComments
save
%%BeginProlog
/DotDict 200 dict def
DotDict begin

/setupLatin1 {
mark
/EncodingVector 256 array def
 EncodingVector 0

ISOLatin1Encoding 0 255 getinterval putinterval
EncodingVector 45 /hyphen put

% Set up ISO Latin 1 character encoding
/starnetISO {
        dup dup findfont dup length dict begin
        { 1 index /FID ne { def }{ pop pop } ifelse
        } forall
        /Encoding EncodingVector def
        currentdict end definefont
} def
/Times-Roman starnetISO def
/Times-Italic starnetISO def
/Times-Bold starnetISO def
/Times-BoldItalic starnetISO def
/Helvetica starnetISO def
/Helvetica-Oblique starnetISO def
/Helvetica-Bold starnetISO def
/Helvetica-BoldOblique starnetISO def
/Courier starnetISO def
/Courier-Oblique starnetISO def
/Courier-Bold starnetISO def
/Courier-BoldOblique starnetISO def
cleartomark
} bind def

%%BeginResource: procset graphviz 0 0
/coord-font-family /Times-Roman def
/default-font-family /Times-Roman def
/coordfont coord-font-family findfont 8 scalefont def

/InvScaleFactor 1.0 def
/set_scale {
       dup 1 exch div /InvScaleFactor exch def
       scale
} bind def

% styles
/solid { [] 0 setdash } bind def
/dashed { [9 InvScaleFactor mul dup ] 0 setdash } bind def
/dotted { [1 InvScaleFactor mul 6 InvScaleFactor mul] 0 setdash } bind def
/invis {/fill {newpath} def /stroke {newpath} def /show {pop newpath} def} bind def
/bold { 2 setlinewidth } bind def
/filled { } bind def
/unfilled { } bind def
/rounded { } bind def
/diagonals { } bind def

% hooks for setting color 
/nodecolor { sethsbcolor } bind def
/edgecolor { sethsbcolor } bind def
/graphcolor { sethsbcolor } bind def
/nopcolor {pop pop pop} bind def

/beginpage {	% i j npages
	/npages exch def
	/j exch def
	/i exch def
	/str 10 string def
	npages 1 gt {
		gsave
			coordfont setfont
			0 0 moveto
			(\() show i str cvs show (,) show j str cvs show (\)) show
		grestore
	} if
} bind def

/set_font {
	findfont exch
	scalefont setfont
} def

% draw text fitted to its expected width
/alignedtext {			% width text
	/text exch def
	/width exch def
	gsave
		width 0 gt {
			[] 0 setdash
			text stringwidth pop width exch sub text length div 0 text ashow
		} if
	grestore
} def

/boxprim {				% xcorner ycorner xsize ysize
		4 2 roll
		moveto
		2 copy
		exch 0 rlineto
		0 exch rlineto
		pop neg 0 rlineto
		closepath
} bind def

/ellipse_path {
	/ry exch def
	/rx exch def
	/y exch def
	/x exch def
	matrix currentmatrix
	newpath
	x y translate
	rx ry scale
	0 0 1 0 360 arc
	setmatrix
} bind def

/endpage { showpage } bind def
/showpage { } def

/layercolorseq
	[	% layer color sequence - darkest to lightest
		[0 0 0]
		[.2 .8 .8]
		[.4 .8 .8]
		[.6 .8 .8]
		[.8 .8 .8]
	]
def

/layerlen layercolorseq length def

/setlayer {/maxlayer exch def /curlayer exch def
	layercolorseq curlayer 1 sub layerlen mod get
	aload pop sethsbcolor
	/nodecolor {nopcolor} def
	/edgecolor {nopcolor} def
	/graphcolor {nopcolor} def
} bind def

/onlayer { curlayer ne {invis} if } def

/onlayers {
	/myupper exch def
	/mylower exch def
	curlayer mylower lt
	curlayer myupper gt
	or
	{invis} if
} def

/curlayer 0 def

%%EndResource
%%EndProlog
%%BeginSetup
14 default-font-family set_font
1 setmiterlimit
% /arrowlength 10 def
% /arrowwidth 5 def

% make sure pdfmark is harmless for PS-interpreters other than Distiller
/pdfmark where {pop} {userdict /pdfmark /cleartomark load put} ifelse
% make '<<' and '>>' safe on PS Level 1 devices
/languagelevel where {pop languagelevel}{1} ifelse
2 lt {
    userdict (<<) cvn ([) cvn load put
    userdict (>>) cvn ([) cvn load put
} if

%%EndSetup
setupLatin1
%%Page: 1 1
%%PageBoundingBox: 209 90 403 702
%%PageOrientation: Landscape
0 0 1 beginpage
gsave
209 90 194 612 boxprim clip newpath
0.481132 0.481132 set_scale 90 rotate 191.059 -833.5 translate
% 0
gsave
1 setlinewidth
solid
0.000 0.000 0.000 nodecolor
1016 242 18 18 ellipse_path stroke
0.000 0.000 0.000 nodecolor
14 /Times-Roman set_font
1012 237.9 moveto 8 (0) alignedtext
grestore
% 9
gsave
1 setlinewidth
solid
0.000 0.000 0.000 nodecolor
1112 242 18 18 ellipse_path stroke
0.000 0.000 0.000 nodecolor
14 /Times-Roman set_font
1108 237.9 moveto 8 (9) alignedtext
grestore
% 0->9
gsave
1 setlinewidth
0.000 0.000 0.000 edgecolor
newpath 1034 242 moveto
1048 242 1068 242 1084 242 curveto
stroke
0.000 0.000 0.000 edgecolor
newpath 1084 245.5 moveto
1094 242 lineto
1084 238.5 lineto
closepath fill
1 setlinewidth
solid
0.000 0.000 0.000 edgecolor
newpath 1084 245.5 moveto
1094 242 lineto
1084 238.5 lineto
closepath stroke
0.000 0.000 0.000 edgecolor
14 /Times-Roman set_font
1049 245.9 moveto 30 (eps/0) alignedtext
grestore
% 10
gsave
1 setlinewidth
solid
0.000 0.000 0.000 nodecolor
1231 242 29.19 29.19 ellipse_path stroke
1 setlinewidth
solid
0.000 0.000 0.000 nodecolor
1231 242 33.19 33.19 ellipse_path stroke
0.000 0.000 0.000 nodecolor
14 /Times-Roman set_font
1218 237.9 moveto 26 (10/0) alignedtext
grestore
% 9->10
gsave
1 setlinewidth
0.000 0.000 0.000 edgecolor
newpath 1130 242 moveto
1145 242 1168 242 1188 242 curveto
stroke
0.000 0.000 0.000 edgecolor
newpath 1188 245.5 moveto
1198 242 lineto
1188 238.5 lineto
closepath fill
1 setlinewidth
solid
0.000 0.000 0.000 edgecolor
newpath 1188 245.5 moveto
1198 242 lineto
1188 238.5 lineto
closepath stroke
0.000 0.000 0.000 edgecolor
14 /Times-Roman set_font
1145 245.9 moveto 38 (</s>/0) alignedtext
grestore
% 1
gsave
1 setlinewidth
solid
0.000 0.000 0.000 nodecolor
279 287 18 18 ellipse_path stroke
0.000 0.000 0.000 nodecolor
14 /Times-Roman set_font
275 282.9 moveto 8 (1) alignedtext
grestore
% 1->0
gsave
1 setlinewidth
0.000 0.000 0.000 edgecolor
newpath 295 296 moveto
320 309 371 333 418 333 curveto
418 333 418 333 872 333 curveto
927 333 941 316 983 283 curveto
989 278 995 272 1000 265 curveto
stroke
0.000 0.000 0.000 edgecolor
newpath 1002.8 267.1 moveto
1006 257 lineto
997.2 262.9 lineto
closepath fill
1 setlinewidth
solid
0.000 0.000 0.000 edgecolor
newpath 1002.8 267.1 moveto
1006 257 lineto
997.2 262.9 lineto
closepath stroke
0.000 0.000 0.000 edgecolor
14 /Times-Roman set_font
602.5 336.9 moveto 63 (</s>/8.030) alignedtext
grestore
% 4
gsave
1 setlinewidth
solid
0.000 0.000 0.000 nodecolor
418 252 18 18 ellipse_path stroke
0.000 0.000 0.000 nodecolor
14 /Times-Roman set_font
414 247.9 moveto 8 (4) alignedtext
grestore
% 1->4
gsave
1 setlinewidth
0.000 0.000 0.000 edgecolor
newpath 297 287 moveto
319 287 356 286 385 275 curveto
389 273 392 272 396 270 curveto
stroke
0.000 0.000 0.000 edgecolor
newpath 398.1 272.8 moveto
404 264 lineto
393.9 267.2 lineto
closepath fill
1 setlinewidth
solid
0.000 0.000 0.000 edgecolor
newpath 398.1 272.8 moveto
404 264 lineto
393.9 267.2 lineto
closepath stroke
0.000 0.000 0.000 edgecolor
14 /Times-Roman set_font
329.5 288.9 moveto 53 (eps/-1.37) alignedtext
grestore
% 4->0
gsave
1 setlinewidth
0.000 0.000 0.000 edgecolor
newpath 435 259 moveto
460 270 511 288 555 288 curveto
555 288 555 288 872 288 curveto
916 288 963 269 991 255 curveto
stroke
0.000 0.000 0.000 edgecolor
newpath 992.28 258.26 moveto
1000 251 lineto
989.44 251.86 lineto
closepath fill
1 setlinewidth
solid
0.000 0.000 0.000 edgecolor
newpath 992.28 258.26 moveto
1000 251 lineto
989.44 251.86 lineto
closepath stroke
0.000 0.000 0.000 edgecolor
14 /Times-Roman set_font
682 291.9 moveto 64 (</s>/0.291) alignedtext
grestore
% 4->1
gsave
1 setlinewidth
0.000 0.000 0.000 edgecolor
newpath 400 249 moveto
382 247 352 246 327 254 curveto
318 257 308 262 300 268 curveto
stroke
0.000 0.000 0.000 edgecolor
newpath 297.9 265.2 moveto
292 274 lineto
302.1 270.8 lineto
closepath fill
1 setlinewidth
solid
0.000 0.000 0.000 edgecolor
newpath 297.9 265.2 moveto
292 274 lineto
302.1 270.8 lineto
closepath stroke
0.000 0.000 0.000 edgecolor
14 /Times-Roman set_font
327 257.9 moveto 58 (bye/1.396) alignedtext
grestore
% 8
gsave
1 setlinewidth
solid
0.000 0.000 0.000 nodecolor
555 212 18 18 ellipse_path stroke
0.000 0.000 0.000 nodecolor
14 /Times-Roman set_font
551.5 207.9 moveto 7 (8) alignedtext
grestore
% 4->8
gsave
1 setlinewidth
0.000 0.000 0.000 edgecolor
newpath 436 248 moveto
454 244 484 238 509 230 curveto
516 228 523 226 529 223 curveto
stroke
0.000 0.000 0.000 edgecolor
newpath 530.28 226.26 moveto
538 219 lineto
527.44 219.86 lineto
closepath fill
1 setlinewidth
solid
0.000 0.000 0.000 edgecolor
newpath 530.28 226.26 moveto
538 219 lineto
527.44 219.86 lineto
closepath stroke
0.000 0.000 0.000 edgecolor
14 /Times-Roman set_font
452.5 246.9 moveto 55 (eps/3.686) alignedtext
grestore
% 2
gsave
1 setlinewidth
solid
0.000 0.000 0.000 nodecolor
872 138 18 18 ellipse_path stroke
0.000 0.000 0.000 nodecolor
14 /Times-Roman set_font
868 133.9 moveto 8 (2) alignedtext
grestore
% 2->0
gsave
1 setlinewidth
0.000 0.000 0.000 edgecolor
newpath 890 138 moveto
914 139 957 144 983 166 curveto
998 178 1006 197 1011 214 curveto
stroke
0.000 0.000 0.000 edgecolor
newpath 1007.61 214.88 moveto
1013 224 lineto
1014.47 213.51 lineto
closepath fill
1 setlinewidth
solid
0.000 0.000 0.000 edgecolor
newpath 1007.61 214.88 moveto
1013 224 lineto
1014.47 213.51 lineto
closepath stroke
0.000 0.000 0.000 edgecolor
14 /Times-Roman set_font
919.5 169.9 moveto 63 (</s>/8.030) alignedtext
grestore
% 2->4
gsave
1 setlinewidth
0.000 0.000 0.000 edgecolor
newpath 854 137 moveto
810 134 695 130 601 146 curveto
532 159 506 151 451 195 curveto
442 203 434 215 429 226 curveto
stroke
0.000 0.000 0.000 edgecolor
newpath 425.8 224.56 moveto
424 235 lineto
431.92 227.96 lineto
closepath fill
1 setlinewidth
solid
0.000 0.000 0.000 edgecolor
newpath 425.8 224.56 moveto
424 235 lineto
431.92 227.96 lineto
closepath stroke
0.000 0.000 0.000 edgecolor
14 /Times-Roman set_font
607.5 153.9 moveto 53 (eps/-1.37) alignedtext
grestore
% 3
gsave
1 setlinewidth
solid
0.000 0.000 0.000 nodecolor
142 255 18 18 ellipse_path stroke
0.000 0.000 0.000 nodecolor
14 /Times-Roman set_font
138 250.9 moveto 8 (3) alignedtext
grestore
% 3->0
gsave
1 setlinewidth
0.000 0.000 0.000 edgecolor
newpath 150 271 moveto
168 305 216 379 279 379 curveto
279 379 279 379 872 379 curveto
929 379 946 359 983 318 curveto
995 304 1003 285 1009 270 curveto
stroke
0.000 0.000 0.000 edgecolor
newpath 1012.48 270.58 moveto
1012 260 lineto
1005.77 268.57 lineto
closepath fill
1 setlinewidth
solid
0.000 0.000 0.000 edgecolor
newpath 1012.48 270.58 moveto
1012 260 lineto
1005.77 268.57 lineto
closepath stroke
0.000 0.000 0.000 edgecolor
14 /Times-Roman set_font
524 382.9 moveto 62 (</s>/8.723) alignedtext
grestore
% 3->1
gsave
1 setlinewidth
0.000 0.000 0.000 edgecolor
newpath 160 259 moveto
183 264 224 274 251 281 curveto
stroke
0.000 0.000 0.000 edgecolor
newpath 250.51 284.47 moveto
261 283 lineto
251.88 277.61 lineto
closepath fill
1 setlinewidth
solid
0.000 0.000 0.000 edgecolor
newpath 250.51 284.47 moveto
261 283 lineto
251.88 277.61 lineto
closepath stroke
0.000 0.000 0.000 edgecolor
14 /Times-Roman set_font
175 277.9 moveto 56 (bye/8.723) alignedtext
grestore
% 3->4
gsave
1 setlinewidth
0.000 0.000 0.000 edgecolor
newpath 160 252 moveto
200 244 302 230 385 242 curveto
387 242 389 243 391 243 curveto
stroke
0.000 0.000 0.000 edgecolor
newpath 390.42 246.48 moveto
401 246 lineto
392.43 239.77 lineto
closepath fill
1 setlinewidth
solid
0.000 0.000 0.000 edgecolor
newpath 390.42 246.48 moveto
401 246 lineto
392.43 239.77 lineto
closepath stroke
0.000 0.000 0.000 edgecolor
14 /Times-Roman set_font
252.5 242.9 moveto 53 (eps/-5.29) alignedtext
grestore
% 8->0
gsave
1 setlinewidth
0.000 0.000 0.000 edgecolor
newpath 573 217 moveto
581 219 592 222 601 223 curveto
745 243 919 243 988 242 curveto
stroke
0.000 0.000 0.000 edgecolor
newpath 988 245.5 moveto
998 242 lineto
988 238.5 lineto
closepath fill
1 setlinewidth
solid
0.000 0.000 0.000 edgecolor
newpath 988 245.5 moveto
998 242 lineto
988 238.5 lineto
closepath stroke
0.000 0.000 0.000 edgecolor
14 /Times-Roman set_font
761 242.9 moveto 64 (</s>/0.916) alignedtext
grestore
% 8->4
gsave
1 setlinewidth
0.000 0.000 0.000 edgecolor
newpath 537 207 moveto
516 201 479 195 451 209 curveto
443 213 436 220 431 227 curveto
stroke
0.000 0.000 0.000 edgecolor
newpath 427.8 225.56 moveto
426 236 lineto
433.92 228.96 lineto
closepath fill
1 setlinewidth
solid
0.000 0.000 0.000 edgecolor
newpath 427.8 225.56 moveto
426 236 lineto
433.92 228.96 lineto
closepath stroke
0.000 0.000 0.000 edgecolor
14 /Times-Roman set_font
451 212.9 moveto 58 (bye/0.916) alignedtext
grestore
% 6
gsave
1 setlinewidth
solid
0.000 0.000 0.000 nodecolor
714 178 18 18 ellipse_path stroke
0.000 0.000 0.000 nodecolor
14 /Times-Roman set_font
710 173.9 moveto 8 (6) alignedtext
grestore
% 8->6
gsave
1 setlinewidth
0.000 0.000 0.000 edgecolor
newpath 573 209 moveto
595 205 634 197 667 190 curveto
674 189 681 187 687 185 curveto
stroke
0.000 0.000 0.000 edgecolor
newpath 687.88 188.39 moveto
697 183 lineto
686.51 181.53 lineto
closepath fill
1 setlinewidth
solid
0.000 0.000 0.000 edgecolor
newpath 687.88 188.39 moveto
697 183 lineto
686.51 181.53 lineto
closepath stroke
0.000 0.000 0.000 edgecolor
14 /Times-Roman set_font
601 205.9 moveto 66 (hello/1.609) alignedtext
grestore
% 5
gsave
1 setlinewidth
solid
0.000 0.000 0.000 nodecolor
555 58 18 18 ellipse_path stroke
0.000 0.000 0.000 nodecolor
14 /Times-Roman set_font
551.5 53.9 moveto 7 (5) alignedtext
grestore
% 5->0
gsave
1 setlinewidth
0.000 0.000 0.000 edgecolor
newpath 573 55 moveto
639 45 868 20 983 138 curveto
994 149 1004 187 1010 214 curveto
stroke
0.000 0.000 0.000 edgecolor
newpath 1006.61 214.88 moveto
1012 224 lineto
1013.47 213.51 lineto
closepath fill
1 setlinewidth
solid
0.000 0.000 0.000 edgecolor
newpath 1006.61 214.88 moveto
1012 224 lineto
1013.47 213.51 lineto
closepath stroke
0.000 0.000 0.000 edgecolor
14 /Times-Roman set_font
762 64.9 moveto 62 (</s>/8.723) alignedtext
grestore
% 5->2
gsave
1 setlinewidth
0.000 0.000 0.000 edgecolor
newpath 572 50 moveto
617 31 743 -15 825 37 curveto
850 54 862 86 868 110 curveto
stroke
0.000 0.000 0.000 edgecolor
newpath 864.61 110.88 moveto
870 120 lineto
871.47 109.51 lineto
closepath fill
1 setlinewidth
solid
0.000 0.000 0.000 edgecolor
newpath 864.61 110.88 moveto
870 120 lineto
871.47 109.51 lineto
closepath stroke
0.000 0.000 0.000 edgecolor
14 /Times-Roman set_font
686 22.9 moveto 56 (bye/8.723) alignedtext
grestore
% 5->6
gsave
1 setlinewidth
0.000 0.000 0.000 edgecolor
newpath 572 63 moveto
602 71 660 87 667 93 curveto
686 108 698 133 705 152 curveto
stroke
0.000 0.000 0.000 edgecolor
newpath 701.74 153.28 moveto
709 161 lineto
708.14 150.44 lineto
closepath fill
1 setlinewidth
solid
0.000 0.000 0.000 edgecolor
newpath 701.74 153.28 moveto
709 161 lineto
708.14 150.44 lineto
closepath stroke
0.000 0.000 0.000 edgecolor
14 /Times-Roman set_font
607.5 97.9 moveto 53 (eps/-4.60) alignedtext
grestore
% 6->0
gsave
1 setlinewidth
0.000 0.000 0.000 edgecolor
newpath 732 180 moveto
776 184 892 199 983 228 curveto
986 228 988 229 991 230 curveto
stroke
0.000 0.000 0.000 edgecolor
newpath 989.44 233.14 moveto
1000 234 lineto
992.28 226.74 lineto
closepath fill
1 setlinewidth
solid
0.000 0.000 0.000 edgecolor
newpath 989.44 233.14 moveto
1000 234 lineto
992.28 226.74 lineto
closepath stroke
0.000 0.000 0.000 edgecolor
14 /Times-Roman set_font
840.5 209.9 moveto 63 (</s>/0.703) alignedtext
grestore
% 6->2
gsave
1 setlinewidth
0.000 0.000 0.000 edgecolor
newpath 732 173 moveto
741 171 752 168 761 166 curveto
789 159 822 151 844 145 curveto
stroke
0.000 0.000 0.000 edgecolor
newpath 844.88 148.39 moveto
854 143 lineto
843.51 141.53 lineto
closepath fill
1 setlinewidth
solid
0.000 0.000 0.000 edgecolor
newpath 844.88 148.39 moveto
854 143 lineto
843.51 141.53 lineto
closepath stroke
0.000 0.000 0.000 edgecolor
14 /Times-Roman set_font
764.5 171.9 moveto 57 (bye/0.703) alignedtext
grestore
% 6->8
gsave
1 setlinewidth
0.000 0.000 0.000 edgecolor
newpath 696 173 moveto
674 168 633 162 601 173 curveto
591 177 582 184 574 191 curveto
stroke
0.000 0.000 0.000 edgecolor
newpath 571.6 188.45 moveto
567 198 lineto
576.55 193.4 lineto
closepath fill
1 setlinewidth
solid
0.000 0.000 0.000 edgecolor
newpath 571.6 188.45 moveto
567 198 lineto
576.55 193.4 lineto
closepath stroke
0.000 0.000 0.000 edgecolor
14 /Times-Roman set_font
606 176.9 moveto 56 (eps/2.993) alignedtext
grestore
% 7
gsave
2 setlinewidth
bold
0.000 0.000 0.000 nodecolor
18 109 18 18 ellipse_path stroke
0.000 0.000 0.000 nodecolor
14 /Times-Roman set_font
14.5 104.9 moveto 7 (7) alignedtext
grestore
% 7->3
gsave
1 setlinewidth
0.000 0.000 0.000 edgecolor
newpath 30 123 moveto
52 149 98 203 123 233 curveto
stroke
0.000 0.000 0.000 edgecolor
newpath 120.78 235.78 moveto
130 241 lineto
126.05 231.17 lineto
closepath fill
1 setlinewidth
solid
0.000 0.000 0.000 edgecolor
newpath 120.78 235.78 moveto
130 241 lineto
126.05 231.17 lineto
closepath stroke
0.000 0.000 0.000 edgecolor
14 /Times-Roman set_font
51.5 213.9 moveto 57 (bye/0.981) alignedtext
grestore
% 7->8
gsave
1 setlinewidth
0.000 0.000 0.000 edgecolor
newpath 36 109 moveto
60 109 104 109 142 109 curveto
142 109 142 109 418 109 curveto
471 110 516 159 539 189 curveto
stroke
0.000 0.000 0.000 edgecolor
newpath 536.2 191.1 moveto
545 197 lineto
541.8 186.9 lineto
closepath fill
1 setlinewidth
solid
0.000 0.000 0.000 edgecolor
newpath 536.2 191.1 moveto
545 197 lineto
541.8 186.9 lineto
closepath stroke
0.000 0.000 0.000 edgecolor
14 /Times-Roman set_font
251.5 113.9 moveto 55 (eps/0.468) alignedtext
grestore
% 7->5
gsave
1 setlinewidth
0.000 0.000 0.000 edgecolor
newpath 33 98 moveto
55 83 100 56 142 56 curveto
142 56 142 56 418 56 curveto
456 56 499 57 527 58 curveto
stroke
0.000 0.000 0.000 edgecolor
newpath 527 61.5 moveto
537 58 lineto
527 54.5 lineto
closepath fill
1 setlinewidth
solid
0.000 0.000 0.000 edgecolor
newpath 527 61.5 moveto
537 58 lineto
527 54.5 lineto
closepath stroke
0.000 0.000 0.000 edgecolor
14 /Times-Roman set_font
246.5 60.9 moveto 65 (hello/0.981) alignedtext
grestore
endpage
showpage
grestore
%%PageTrailer
%%EndPage: 1
%%Trailer
%%Pages: 1
%%BoundingBox: 209 90 403 702
end
restore
%%EOF
