%!PS-Adobe-3.0 EPSF-3.0
%%Creator: Graphviz version 2.20.3 (Tue Oct 14 12:23:50 UTC 2008)
%%For: (ashishdepankaj) Ashish Depankaj
%%Title: FSM
%%Pages: (atend)
%%BoundingBox: (atend)
%%EndComments
save
%%BeginProlog
/DotDict 200 dict def
DotDict begin

/setupLatin1 {
mark
/EncodingVector 256 array def
 EncodingVector 0

ISOLatin1Encoding 0 255 getinterval putinterval
EncodingVector 45 /hyphen put

% Set up ISO Latin 1 character encoding
/starnetISO {
        dup dup findfont dup length dict begin
        { 1 index /FID ne { def }{ pop pop } ifelse
        } forall
        /Encoding EncodingVector def
        currentdict end definefont
} def
/Times-Roman starnetISO def
/Times-Italic starnetISO def
/Times-Bold starnetISO def
/Times-BoldItalic starnetISO def
/Helvetica starnetISO def
/Helvetica-Oblique starnetISO def
/Helvetica-Bold starnetISO def
/Helvetica-BoldOblique starnetISO def
/Courier starnetISO def
/Courier-Oblique starnetISO def
/Courier-Bold starnetISO def
/Courier-BoldOblique starnetISO def
cleartomark
} bind def

%%BeginResource: procset graphviz 0 0
/coord-font-family /Times-Roman def
/default-font-family /Times-Roman def
/coordfont coord-font-family findfont 8 scalefont def

/InvScaleFactor 1.0 def
/set_scale {
       dup 1 exch div /InvScaleFactor exch def
       scale
} bind def

% styles
/solid { [] 0 setdash } bind def
/dashed { [9 InvScaleFactor mul dup ] 0 setdash } bind def
/dotted { [1 InvScaleFactor mul 6 InvScaleFactor mul] 0 setdash } bind def
/invis {/fill {newpath} def /stroke {newpath} def /show {pop newpath} def} bind def
/bold { 2 setlinewidth } bind def
/filled { } bind def
/unfilled { } bind def
/rounded { } bind def
/diagonals { } bind def

% hooks for setting color 
/nodecolor { sethsbcolor } bind def
/edgecolor { sethsbcolor } bind def
/graphcolor { sethsbcolor } bind def
/nopcolor {pop pop pop} bind def

/beginpage {	% i j npages
	/npages exch def
	/j exch def
	/i exch def
	/str 10 string def
	npages 1 gt {
		gsave
			coordfont setfont
			0 0 moveto
			(\() show i str cvs show (,) show j str cvs show (\)) show
		grestore
	} if
} bind def

/set_font {
	findfont exch
	scalefont setfont
} def

% draw text fitted to its expected width
/alignedtext {			% width text
	/text exch def
	/width exch def
	gsave
		width 0 gt {
			[] 0 setdash
			text stringwidth pop width exch sub text length div 0 text ashow
		} if
	grestore
} def

/boxprim {				% xcorner ycorner xsize ysize
		4 2 roll
		moveto
		2 copy
		exch 0 rlineto
		0 exch rlineto
		pop neg 0 rlineto
		closepath
} bind def

/ellipse_path {
	/ry exch def
	/rx exch def
	/y exch def
	/x exch def
	matrix currentmatrix
	newpath
	x y translate
	rx ry scale
	0 0 1 0 360 arc
	setmatrix
} bind def

/endpage { showpage } bind def
/showpage { } def

/layercolorseq
	[	% layer color sequence - darkest to lightest
		[0 0 0]
		[.2 .8 .8]
		[.4 .8 .8]
		[.6 .8 .8]
		[.8 .8 .8]
	]
def

/layerlen layercolorseq length def

/setlayer {/maxlayer exch def /curlayer exch def
	layercolorseq curlayer 1 sub layerlen mod get
	aload pop sethsbcolor
	/nodecolor {nopcolor} def
	/edgecolor {nopcolor} def
	/graphcolor {nopcolor} def
} bind def

/onlayer { curlayer ne {invis} if } def

/onlayers {
	/myupper exch def
	/mylower exch def
	curlayer mylower lt
	curlayer myupper gt
	or
	{invis} if
} def

/curlayer 0 def

%%EndResource
%%EndProlog
%%BeginSetup
14 default-font-family set_font
1 setmiterlimit
% /arrowlength 10 def
% /arrowwidth 5 def

% make sure pdfmark is harmless for PS-interpreters other than Distiller
/pdfmark where {pop} {userdict /pdfmark /cleartomark load put} ifelse
% make '<<' and '>>' safe on PS Level 1 devices
/languagelevel where {pop languagelevel}{1} ifelse
2 lt {
    userdict (<<) cvn ([) cvn load put
    userdict (>>) cvn ([) cvn load put
} if

%%EndSetup
setupLatin1
%%Page: 1 1
%%PageBoundingBox: 65 99 547 693
%%PageOrientation: Landscape
0 0 1 beginpage
gsave
65 99 482 594 boxprim clip newpath
1 1 set_scale 90 rotate 103 -543 translate
0.000 0.000 0.000 graphcolor
14 /Times-Roman set_font
237 7.9 moveto 112 (sample2.counts.fsm) alignedtext
% 0
gsave
2 setlinewidth
bold
0.000 0.000 0.000 nodecolor
28 192 23.89 23.89 ellipse_path stroke
2 setlinewidth
bold
0.000 0.000 0.000 nodecolor
28 192 27.82 27.82 ellipse_path stroke
0.000 0.000 0.000 nodecolor
14 /Times-Roman set_font
18.5 187.9 moveto 19 (0/0) alignedtext
grestore
% 2
gsave
1 setlinewidth
solid
0.000 0.000 0.000 nodecolor
203 398 23.89 23.89 ellipse_path stroke
1 setlinewidth
solid
0.000 0.000 0.000 nodecolor
203 398 27.82 27.82 ellipse_path stroke
0.000 0.000 0.000 nodecolor
14 /Times-Roman set_font
193.5 393.9 moveto 19 (2/0) alignedtext
grestore
% 0->2
gsave
1 setlinewidth
0.000 0.000 0.000 edgecolor
newpath 35 219 moveto
41 243 53 276 71 300 curveto
98 334 140 362 169 380 curveto
stroke
0.000 0.000 0.000 edgecolor
newpath 167.56 383.2 moveto
178 385 lineto
170.96 377.08 lineto
closepath fill
1 setlinewidth
solid
0.000 0.000 0.000 edgecolor
newpath 167.56 383.2 moveto
178 385 lineto
170.96 377.08 lineto
closepath stroke
0.000 0.000 0.000 edgecolor
14 /Times-Roman set_font
95.5 372.9 moveto 35 (<s>/2) alignedtext
grestore
% 4
gsave
1 setlinewidth
solid
0.000 0.000 0.000 nodecolor
203 300 23.89 23.89 ellipse_path stroke
1 setlinewidth
solid
0.000 0.000 0.000 nodecolor
203 300 27.82 27.82 ellipse_path stroke
0.000 0.000 0.000 nodecolor
14 /Times-Roman set_font
193.5 295.9 moveto 19 (4/0) alignedtext
grestore
% 0->4
gsave
1 setlinewidth
0.000 0.000 0.000 edgecolor
newpath 47 213 moveto
54 221 63 229 71 235 curveto
101 256 140 275 168 286 curveto
stroke
0.000 0.000 0.000 edgecolor
newpath 166.44 289.14 moveto
177 290 lineto
169.28 282.74 lineto
closepath fill
1 setlinewidth
solid
0.000 0.000 0.000 edgecolor
newpath 166.44 289.14 moveto
177 290 lineto
169.28 282.74 lineto
closepath stroke
0.000 0.000 0.000 edgecolor
14 /Times-Roman set_font
98.5 282.9 moveto 29 (the/2) alignedtext
grestore
% 6
gsave
1 setlinewidth
solid
0.000 0.000 0.000 nodecolor
203 225 23.89 23.89 ellipse_path stroke
1 setlinewidth
solid
0.000 0.000 0.000 nodecolor
203 225 27.82 27.82 ellipse_path stroke
0.000 0.000 0.000 nodecolor
14 /Times-Roman set_font
193.5 220.9 moveto 19 (6/0) alignedtext
grestore
% 0->6
gsave
1 setlinewidth
0.000 0.000 0.000 edgecolor
newpath 56 197 moveto
86 203 133 212 165 218 curveto
stroke
0.000 0.000 0.000 edgecolor
newpath 164.51 221.47 moveto
175 220 lineto
165.88 214.61 lineto
closepath fill
1 setlinewidth
solid
0.000 0.000 0.000 edgecolor
newpath 164.51 221.47 moveto
175 220 lineto
165.88 214.61 lineto
closepath stroke
0.000 0.000 0.000 edgecolor
14 /Times-Roman set_font
88.5 217.9 moveto 49 (hunter/1) alignedtext
grestore
% 8
gsave
1 setlinewidth
solid
0.000 0.000 0.000 nodecolor
293 168 23.2 23.2 ellipse_path stroke
1 setlinewidth
solid
0.000 0.000 0.000 nodecolor
293 168 27.12 27.12 ellipse_path stroke
0.000 0.000 0.000 nodecolor
14 /Times-Roman set_font
284 163.9 moveto 18 (8/0) alignedtext
grestore
% 0->8
gsave
1 setlinewidth
0.000 0.000 0.000 edgecolor
newpath 54 182 moveto
60 180 66 179 71 178 curveto
136 166 212 166 256 167 curveto
stroke
0.000 0.000 0.000 edgecolor
newpath 256 170.5 moveto
266 167 lineto
256 163.5 lineto
closepath fill
1 setlinewidth
solid
0.000 0.000 0.000 edgecolor
newpath 256 170.5 moveto
266 167 lineto
256 163.5 lineto
closepath stroke
0.000 0.000 0.000 edgecolor
14 /Times-Roman set_font
95.5 181.9 moveto 35 (shot/2) alignedtext
grestore
% 1
gsave
1 setlinewidth
solid
0.000 0.000 0.000 nodecolor
558 258 23.89 23.89 ellipse_path stroke
1 setlinewidth
solid
0.000 0.000 0.000 nodecolor
558 258 27.82 27.82 ellipse_path stroke
0.000 0.000 0.000 nodecolor
14 /Times-Roman set_font
548.5 253.9 moveto 19 (1/0) alignedtext
grestore
% 0->1
gsave
1 setlinewidth
0.000 0.000 0.000 edgecolor
newpath 51 175 moveto
57 171 64 167 71 164 curveto
180 115 218 96 335 115 curveto
419 128 452 118 515 173 curveto
530 186 540 204 547 221 curveto
stroke
0.000 0.000 0.000 edgecolor
newpath 544.04 223.02 moveto
551 231 lineto
550.54 220.42 lineto
closepath fill
1 setlinewidth
solid
0.000 0.000 0.000 edgecolor
newpath 544.04 223.02 moveto
551 231 lineto
550.54 220.42 lineto
closepath stroke
0.000 0.000 0.000 edgecolor
14 /Times-Roman set_font
274 118.9 moveto 38 (</s>/2) alignedtext
grestore
% 10
gsave
1 setlinewidth
solid
0.000 0.000 0.000 nodecolor
203 58 29.19 29.19 ellipse_path stroke
1 setlinewidth
solid
0.000 0.000 0.000 nodecolor
203 58 33.19 33.19 ellipse_path stroke
0.000 0.000 0.000 nodecolor
14 /Times-Roman set_font
190 53.9 moveto 26 (10/0) alignedtext
grestore
% 0->10
gsave
1 setlinewidth
0.000 0.000 0.000 edgecolor
newpath 32 164 moveto
38 140 48 107 71 88 curveto
96 68 132 61 160 59 curveto
stroke
0.000 0.000 0.000 edgecolor
newpath 160.4 62.48 moveto
170 58 lineto
159.7 55.51 lineto
closepath fill
1 setlinewidth
solid
0.000 0.000 0.000 edgecolor
newpath 160.4 62.48 moveto
170 58 lineto
159.7 55.51 lineto
closepath stroke
0.000 0.000 0.000 edgecolor
14 /Times-Roman set_font
71.5 91.9 moveto 83 (<unknown>/1) alignedtext
grestore
% 3
gsave
1 setlinewidth
solid
0.000 0.000 0.000 nodecolor
383 446 23.89 23.89 ellipse_path stroke
1 setlinewidth
solid
0.000 0.000 0.000 nodecolor
383 446 27.82 27.82 ellipse_path stroke
0.000 0.000 0.000 nodecolor
14 /Times-Roman set_font
373.5 441.9 moveto 19 (3/0) alignedtext
grestore
% 2->3
gsave
1 setlinewidth
0.000 0.000 0.000 edgecolor
newpath 230 405 moveto
261 413 312 427 346 436 curveto
stroke
0.000 0.000 0.000 edgecolor
newpath 345.42 439.48 moveto
356 439 lineto
347.43 432.77 lineto
closepath fill
1 setlinewidth
solid
0.000 0.000 0.000 edgecolor
newpath 345.42 439.48 moveto
356 439 lineto
347.43 432.77 lineto
closepath stroke
0.000 0.000 0.000 edgecolor
14 /Times-Roman set_font
278.5 434.9 moveto 29 (the/2) alignedtext
grestore
% 5
gsave
1 setlinewidth
solid
0.000 0.000 0.000 nodecolor
383 373 23.2 23.2 ellipse_path stroke
1 setlinewidth
solid
0.000 0.000 0.000 nodecolor
383 373 27.12 27.12 ellipse_path stroke
0.000 0.000 0.000 nodecolor
14 /Times-Roman set_font
374 368.9 moveto 18 (5/0) alignedtext
grestore
% 4->5
gsave
1 setlinewidth
0.000 0.000 0.000 edgecolor
newpath 229 311 moveto
236 315 244 318 251 321 curveto
284 334 322 349 349 359 curveto
stroke
0.000 0.000 0.000 edgecolor
newpath 347.44 362.14 moveto
358 363 lineto
350.28 355.74 lineto
closepath fill
1 setlinewidth
solid
0.000 0.000 0.000 edgecolor
newpath 347.44 362.14 moveto
358 363 lineto
350.28 355.74 lineto
closepath stroke
0.000 0.000 0.000 edgecolor
14 /Times-Roman set_font
268.5 355.9 moveto 49 (hunter/1) alignedtext
grestore
% 9
gsave
1 setlinewidth
solid
0.000 0.000 0.000 nodecolor
383 300 23.89 23.89 ellipse_path stroke
1 setlinewidth
solid
0.000 0.000 0.000 nodecolor
383 300 27.82 27.82 ellipse_path stroke
0.000 0.000 0.000 nodecolor
14 /Times-Roman set_font
373.5 295.9 moveto 19 (9/0) alignedtext
grestore
% 4->9
gsave
1 setlinewidth
0.000 0.000 0.000 edgecolor
newpath 231 300 moveto
262 300 311 300 345 300 curveto
stroke
0.000 0.000 0.000 edgecolor
newpath 345 303.5 moveto
355 300 lineto
345 296.5 lineto
closepath fill
1 setlinewidth
solid
0.000 0.000 0.000 edgecolor
newpath 345 303.5 moveto
355 300 lineto
345 296.5 lineto
closepath stroke
0.000 0.000 0.000 edgecolor
14 /Times-Roman set_font
251.5 303.9 moveto 83 (<unknown>/1) alignedtext
grestore
% 7
gsave
1 setlinewidth
solid
0.000 0.000 0.000 nodecolor
383 227 23.2 23.2 ellipse_path stroke
1 setlinewidth
solid
0.000 0.000 0.000 nodecolor
383 227 27.12 27.12 ellipse_path stroke
0.000 0.000 0.000 nodecolor
14 /Times-Roman set_font
374 222.9 moveto 18 (7/0) alignedtext
grestore
% 6->7
gsave
1 setlinewidth
0.000 0.000 0.000 edgecolor
newpath 231 225 moveto
262 226 312 226 346 227 curveto
stroke
0.000 0.000 0.000 edgecolor
newpath 346 230.5 moveto
356 227 lineto
346 223.5 lineto
closepath fill
1 setlinewidth
solid
0.000 0.000 0.000 edgecolor
newpath 346 230.5 moveto
356 227 lineto
346 223.5 lineto
closepath stroke
0.000 0.000 0.000 edgecolor
14 /Times-Roman set_font
275.5 228.9 moveto 35 (shot/1) alignedtext
grestore
% 8->1
gsave
1 setlinewidth
0.000 0.000 0.000 edgecolor
newpath 320 166 moveto
346 165 384 165 416 174 curveto
458 186 501 213 528 234 curveto
stroke
0.000 0.000 0.000 edgecolor
newpath 525.9 236.8 moveto
536 240 lineto
530.1 231.2 lineto
closepath fill
1 setlinewidth
solid
0.000 0.000 0.000 edgecolor
newpath 525.9 236.8 moveto
536 240 lineto
530.1 231.2 lineto
closepath stroke
0.000 0.000 0.000 edgecolor
14 /Times-Roman set_font
364 177.9 moveto 38 (</s>/2) alignedtext
grestore
% 11
gsave
1 setlinewidth
solid
0.000 0.000 0.000 nodecolor
383 58 29.19 29.19 ellipse_path stroke
1 setlinewidth
solid
0.000 0.000 0.000 nodecolor
383 58 33.19 33.19 ellipse_path stroke
0.000 0.000 0.000 nodecolor
14 /Times-Roman set_font
370 53.9 moveto 26 (11/0) alignedtext
grestore
% 10->11
gsave
1 setlinewidth
0.000 0.000 0.000 edgecolor
newpath 236 58 moveto
265 58 308 58 340 58 curveto
stroke
0.000 0.000 0.000 edgecolor
newpath 340 61.5 moveto
350 58 lineto
340 54.5 lineto
closepath fill
1 setlinewidth
solid
0.000 0.000 0.000 edgecolor
newpath 340 61.5 moveto
350 58 lineto
340 54.5 lineto
closepath stroke
0.000 0.000 0.000 edgecolor
14 /Times-Roman set_font
275.5 61.9 moveto 35 (shot/1) alignedtext
grestore
% 3->1
gsave
1 setlinewidth
0.000 0.000 0.000 edgecolor
newpath 411 448 moveto
441 449 487 445 515 419 curveto
533 402 546 338 552 296 curveto
stroke
0.000 0.000 0.000 edgecolor
newpath 555.47 296.49 moveto
554 286 lineto
548.61 295.12 lineto
closepath fill
1 setlinewidth
solid
0.000 0.000 0.000 edgecolor
newpath 555.47 296.49 moveto
554 286 lineto
548.61 295.12 lineto
closepath stroke
0.000 0.000 0.000 edgecolor
14 /Times-Roman set_font
448.5 450.9 moveto 49 (hunter/1) alignedtext
grestore
% 3->1
gsave
1 setlinewidth
0.000 0.000 0.000 edgecolor
newpath 402 425 moveto
412 414 424 402 431 398 curveto
465 378 487 401 515 376 curveto
538 355 548 322 553 296 curveto
stroke
0.000 0.000 0.000 edgecolor
newpath 556.47 296.49 moveto
555 286 lineto
549.61 295.12 lineto
closepath fill
1 setlinewidth
solid
0.000 0.000 0.000 edgecolor
newpath 556.47 296.49 moveto
555 286 lineto
549.61 295.12 lineto
closepath stroke
0.000 0.000 0.000 edgecolor
14 /Times-Roman set_font
431.5 401.9 moveto 83 (<unknown>/1) alignedtext
grestore
% 5->1
gsave
1 setlinewidth
0.000 0.000 0.000 edgecolor
newpath 409 364 moveto
437 353 482 334 515 308 curveto
522 302 529 295 535 289 curveto
stroke
0.000 0.000 0.000 edgecolor
newpath 538.05 290.83 moveto
542 281 lineto
532.78 286.22 lineto
closepath fill
1 setlinewidth
solid
0.000 0.000 0.000 edgecolor
newpath 538.05 290.83 moveto
542 281 lineto
532.78 286.22 lineto
closepath stroke
0.000 0.000 0.000 edgecolor
14 /Times-Roman set_font
455.5 358.9 moveto 35 (shot/1) alignedtext
grestore
% 9->1
gsave
1 setlinewidth
0.000 0.000 0.000 edgecolor
newpath 410 293 moveto
440 287 488 275 521 267 curveto
stroke
0.000 0.000 0.000 edgecolor
newpath 521.88 270.39 moveto
531 265 lineto
520.51 263.53 lineto
closepath fill
1 setlinewidth
solid
0.000 0.000 0.000 edgecolor
newpath 521.88 270.39 moveto
531 265 lineto
520.51 263.53 lineto
closepath stroke
0.000 0.000 0.000 edgecolor
14 /Times-Roman set_font
455.5 290.9 moveto 35 (shot/1) alignedtext
grestore
% 7->1
gsave
1 setlinewidth
0.000 0.000 0.000 edgecolor
newpath 410 230 moveto
437 234 479 240 515 247 curveto
517 247 519 248 521 248 curveto
stroke
0.000 0.000 0.000 edgecolor
newpath 520.51 251.47 moveto
531 250 lineto
521.88 244.61 lineto
closepath fill
1 setlinewidth
solid
0.000 0.000 0.000 edgecolor
newpath 520.51 251.47 moveto
531 250 lineto
521.88 244.61 lineto
closepath stroke
0.000 0.000 0.000 edgecolor
14 /Times-Roman set_font
454 250.9 moveto 38 (</s>/1) alignedtext
grestore
% 11->1
gsave
1 setlinewidth
0.000 0.000 0.000 edgecolor
newpath 416 56 moveto
446 57 489 62 515 88 curveto
534 106 547 175 554 220 curveto
stroke
0.000 0.000 0.000 edgecolor
newpath 550.52 220.4 moveto
555 230 lineto
557.49 219.7 lineto
closepath fill
1 setlinewidth
solid
0.000 0.000 0.000 edgecolor
newpath 550.52 220.4 moveto
555 230 lineto
557.49 219.7 lineto
closepath stroke
0.000 0.000 0.000 edgecolor
14 /Times-Roman set_font
454 91.9 moveto 38 (</s>/1) alignedtext
grestore
endpage
showpage
grestore
%%PageTrailer
%%EndPage: 1
%%Trailer
%%Pages: 1
%%BoundingBox: 65 99 547 693
end
restore
%%EOF
