%!PS-Adobe-3.0 EPSF-3.0
%%Creator: Graphviz version 2.20.3 (Tue Oct 14 12:23:50 UTC 2008)
%%For: (ashishdepankaj) Ashish Depankaj
%%Title: FSM
%%Pages: (atend)
%%BoundingBox: (atend)
%%EndComments
save
%%BeginProlog
/DotDict 200 dict def
DotDict begin

/setupLatin1 {
mark
/EncodingVector 256 array def
 EncodingVector 0

ISOLatin1Encoding 0 255 getinterval putinterval
EncodingVector 45 /hyphen put

% Set up ISO Latin 1 character encoding
/starnetISO {
        dup dup findfont dup length dict begin
        { 1 index /FID ne { def }{ pop pop } ifelse
        } forall
        /Encoding EncodingVector def
        currentdict end definefont
} def
/Times-Roman starnetISO def
/Times-Italic starnetISO def
/Times-Bold starnetISO def
/Times-BoldItalic starnetISO def
/Helvetica starnetISO def
/Helvetica-Oblique starnetISO def
/Helvetica-Bold starnetISO def
/Helvetica-BoldOblique starnetISO def
/Courier starnetISO def
/Courier-Oblique starnetISO def
/Courier-Bold starnetISO def
/Courier-BoldOblique starnetISO def
cleartomark
} bind def

%%BeginResource: procset graphviz 0 0
/coord-font-family /Times-Roman def
/default-font-family /Times-Roman def
/coordfont coord-font-family findfont 8 scalefont def

/InvScaleFactor 1.0 def
/set_scale {
       dup 1 exch div /InvScaleFactor exch def
       scale
} bind def

% styles
/solid { [] 0 setdash } bind def
/dashed { [9 InvScaleFactor mul dup ] 0 setdash } bind def
/dotted { [1 InvScaleFactor mul 6 InvScaleFactor mul] 0 setdash } bind def
/invis {/fill {newpath} def /stroke {newpath} def /show {pop newpath} def} bind def
/bold { 2 setlinewidth } bind def
/filled { } bind def
/unfilled { } bind def
/rounded { } bind def
/diagonals { } bind def

% hooks for setting color 
/nodecolor { sethsbcolor } bind def
/edgecolor { sethsbcolor } bind def
/graphcolor { sethsbcolor } bind def
/nopcolor {pop pop pop} bind def

/beginpage {	% i j npages
	/npages exch def
	/j exch def
	/i exch def
	/str 10 string def
	npages 1 gt {
		gsave
			coordfont setfont
			0 0 moveto
			(\() show i str cvs show (,) show j str cvs show (\)) show
		grestore
	} if
} bind def

/set_font {
	findfont exch
	scalefont setfont
} def

% draw text fitted to its expected width
/alignedtext {			% width text
	/text exch def
	/width exch def
	gsave
		width 0 gt {
			[] 0 setdash
			text stringwidth pop width exch sub text length div 0 text ashow
		} if
	grestore
} def

/boxprim {				% xcorner ycorner xsize ysize
		4 2 roll
		moveto
		2 copy
		exch 0 rlineto
		0 exch rlineto
		pop neg 0 rlineto
		closepath
} bind def

/ellipse_path {
	/ry exch def
	/rx exch def
	/y exch def
	/x exch def
	matrix currentmatrix
	newpath
	x y translate
	rx ry scale
	0 0 1 0 360 arc
	setmatrix
} bind def

/endpage { showpage } bind def
/showpage { } def

/layercolorseq
	[	% layer color sequence - darkest to lightest
		[0 0 0]
		[.2 .8 .8]
		[.4 .8 .8]
		[.6 .8 .8]
		[.8 .8 .8]
	]
def

/layerlen layercolorseq length def

/setlayer {/maxlayer exch def /curlayer exch def
	layercolorseq curlayer 1 sub layerlen mod get
	aload pop sethsbcolor
	/nodecolor {nopcolor} def
	/edgecolor {nopcolor} def
	/graphcolor {nopcolor} def
} bind def

/onlayer { curlayer ne {invis} if } def

/onlayers {
	/myupper exch def
	/mylower exch def
	curlayer mylower lt
	curlayer myupper gt
	or
	{invis} if
} def

/curlayer 0 def

%%EndResource
%%EndProlog
%%BeginSetup
14 default-font-family set_font
1 setmiterlimit
% /arrowlength 10 def
% /arrowwidth 5 def

% make sure pdfmark is harmless for PS-interpreters other than Distiller
/pdfmark where {pop} {userdict /pdfmark /cleartomark load put} ifelse
% make '<<' and '>>' safe on PS Level 1 devices
/languagelevel where {pop languagelevel}{1} ifelse
2 lt {
    userdict (<<) cvn ([) cvn load put
    userdict (>>) cvn ([) cvn load put
} if

%%EndSetup
setupLatin1
%%Page: 1 1
%%PageBoundingBox: 149 90 463 702
%%PageOrientation: Landscape
0 0 1 beginpage
gsave
149 90 314 612 boxprim clip newpath
0.530329 0.530329 set_scale 90 rotate 173.706 -869.5 translate
0.000 0.000 0.000 graphcolor
14 /Times-Roman set_font
570.5 7.9 moveto 5 (-) alignedtext
% 0
gsave
1 setlinewidth
solid
0.000 0.000 0.000 nodecolor
1118 500 23.89 23.89 ellipse_path stroke
1 setlinewidth
solid
0.000 0.000 0.000 nodecolor
1118 500 27.82 27.82 ellipse_path stroke
0.000 0.000 0.000 nodecolor
14 /Times-Roman set_font
1108.5 495.9 moveto 19 (0/0) alignedtext
grestore
% 1
gsave
1 setlinewidth
solid
0.000 0.000 0.000 nodecolor
18 158 18 18 ellipse_path stroke
0.000 0.000 0.000 nodecolor
14 /Times-Roman set_font
14 153.9 moveto 8 (1) alignedtext
grestore
% 1->0
gsave
1 setlinewidth
0.000 0.000 0.000 edgecolor
newpath 19 176 moveto
26 256 58 569 141 569 curveto
141 569 141 569 978 569 curveto
1020 569 1061 545 1088 524 curveto
stroke
0.000 0.000 0.000 edgecolor
newpath 1090.1 526.8 moveto
1096 518 lineto
1085.9 521.2 lineto
closepath fill
1 setlinewidth
solid
0.000 0.000 0.000 edgecolor
newpath 1090.1 526.8 moveto
1096 518 lineto
1085.9 521.2 lineto
closepath stroke
0.000 0.000 0.000 edgecolor
14 /Times-Roman set_font
549.5 572.9 moveto 63 (</s>/8.030) alignedtext
grestore
% 5
gsave
1 setlinewidth
solid
0.000 0.000 0.000 nodecolor
141 385 18 18 ellipse_path stroke
0.000 0.000 0.000 nodecolor
14 /Times-Roman set_font
137.5 380.9 moveto 7 (5) alignedtext
grestore
% 1->5
gsave
1 setlinewidth
0.000 0.000 0.000 edgecolor
newpath 27 174 moveto
48 213 102 313 127 360 curveto
stroke
0.000 0.000 0.000 edgecolor
newpath 124.08 361.96 moveto
132 369 lineto
130.2 358.56 lineto
closepath fill
1 setlinewidth
solid
0.000 0.000 0.000 edgecolor
newpath 124.08 361.96 moveto
132 369 lineto
130.2 358.56 lineto
closepath stroke
0.000 0.000 0.000 edgecolor
14 /Times-Roman set_font
51.5 313.9 moveto 53 (eps/-5.29) alignedtext
grestore
% 5->0
gsave
1 setlinewidth
0.000 0.000 0.000 edgecolor
newpath 146 402 moveto
152 418 162 442 177 459 curveto
214 499 228 524 282 524 curveto
282 524 282 524 978 524 curveto
1014 524 1053 517 1081 510 curveto
stroke
0.000 0.000 0.000 edgecolor
newpath 1081.88 513.39 moveto
1091 508 lineto
1080.51 506.53 lineto
closepath fill
1 setlinewidth
solid
0.000 0.000 0.000 edgecolor
newpath 1081.88 513.39 moveto
1091 508 lineto
1080.51 506.53 lineto
closepath stroke
0.000 0.000 0.000 edgecolor
14 /Times-Roman set_font
650.5 527.9 moveto 63 (</s>/0.005) alignedtext
grestore
% 11
gsave
1 setlinewidth
solid
0.000 0.000 0.000 nodecolor
282 345 20.85 20.85 ellipse_path stroke
0.000 0.000 0.000 nodecolor
14 /Times-Roman set_font
275 340.9 moveto 14 (11) alignedtext
grestore
% 5->11
gsave
1 setlinewidth
0.000 0.000 0.000 edgecolor
newpath 151 370 moveto
157 361 166 351 177 346 curveto
200 336 229 336 251 339 curveto
stroke
0.000 0.000 0.000 edgecolor
newpath 250.51 342.47 moveto
261 341 lineto
251.88 335.61 lineto
closepath fill
1 setlinewidth
solid
0.000 0.000 0.000 edgecolor
newpath 250.51 342.47 moveto
261 341 lineto
251.88 335.61 lineto
closepath stroke
0.000 0.000 0.000 edgecolor
14 /Times-Roman set_font
179.5 349.9 moveto 55 (eps/5.009) alignedtext
grestore
% 2
gsave
1 setlinewidth
solid
0.000 0.000 0.000 nodecolor
682 109 18 18 ellipse_path stroke
0.000 0.000 0.000 nodecolor
14 /Times-Roman set_font
678 104.9 moveto 8 (2) alignedtext
grestore
% 2->1
gsave
1 setlinewidth
0.000 0.000 0.000 edgecolor
newpath 665 102 moveto
656 99 645 95 635 92 curveto
558 74 538 71 458 71 curveto
141 71 141 71 141 71 curveto
97 71 57 109 35 135 curveto
stroke
0.000 0.000 0.000 edgecolor
newpath 32.2 132.9 moveto
29 143 lineto
37.8 137.1 lineto
closepath fill
1 setlinewidth
solid
0.000 0.000 0.000 edgecolor
newpath 32.2 132.9 moveto
29 143 lineto
37.8 137.1 lineto
closepath stroke
0.000 0.000 0.000 edgecolor
14 /Times-Roman set_font
252 75.9 moveto 60 (shot/8.030) alignedtext
grestore
% 3
gsave
1 setlinewidth
solid
0.000 0.000 0.000 nodecolor
838 146 18 18 ellipse_path stroke
0.000 0.000 0.000 nodecolor
14 /Times-Roman set_font
834 141.9 moveto 8 (3) alignedtext
grestore
% 2->3
gsave
1 setlinewidth
0.000 0.000 0.000 edgecolor
newpath 700 113 moveto
726 119 778 132 810 140 curveto
stroke
0.000 0.000 0.000 edgecolor
newpath 809.51 143.47 moveto
820 142 lineto
810.88 136.61 lineto
closepath fill
1 setlinewidth
solid
0.000 0.000 0.000 edgecolor
newpath 809.51 143.47 moveto
820 142 lineto
810.88 136.61 lineto
closepath stroke
0.000 0.000 0.000 edgecolor
14 /Times-Roman set_font
734.5 140.9 moveto 53 (eps/-4.60) alignedtext
grestore
% 3->1
gsave
1 setlinewidth
0.000 0.000 0.000 edgecolor
newpath 828 131 moveto
807 98 750 25 682 25 curveto
141 25 141 25 141 25 curveto
95 25 82 43 51 77 curveto
38 93 29 114 25 130 curveto
stroke
0.000 0.000 0.000 edgecolor
newpath 21.52 129.42 moveto
22 140 lineto
28.23 131.43 lineto
closepath fill
1 setlinewidth
solid
0.000 0.000 0.000 edgecolor
newpath 21.52 129.42 moveto
22 140 lineto
28.23 131.43 lineto
closepath stroke
0.000 0.000 0.000 edgecolor
14 /Times-Roman set_font
327.5 29.9 moveto 61 (shot/0.010) alignedtext
grestore
% 3->11
gsave
1 setlinewidth
0.000 0.000 0.000 edgecolor
newpath 826 160 moveto
817 168 806 178 793 183 curveto
601 264 492 110 327 237 curveto
326 238 306 285 294 317 curveto
stroke
0.000 0.000 0.000 edgecolor
newpath 290.86 315.44 moveto
290 326 lineto
297.26 318.28 lineto
closepath fill
1 setlinewidth
solid
0.000 0.000 0.000 edgecolor
newpath 290.86 315.44 moveto
290 326 lineto
297.26 318.28 lineto
closepath stroke
0.000 0.000 0.000 edgecolor
14 /Times-Roman set_font
553 211.9 moveto 56 (eps/4.316) alignedtext
grestore
% 11->0
gsave
1 setlinewidth
0.000 0.000 0.000 edgecolor
newpath 292 364 moveto
299 377 312 393 327 402 curveto
394 439 931 485 1080 497 curveto
stroke
0.000 0.000 0.000 edgecolor
newpath 1079.7 500.49 moveto
1090 498 lineto
1080.4 493.52 lineto
closepath fill
1 setlinewidth
solid
0.000 0.000 0.000 edgecolor
newpath 1079.7 500.49 moveto
1090 498 lineto
1080.4 493.52 lineto
closepath stroke
0.000 0.000 0.000 edgecolor
14 /Times-Roman set_font
729.5 472.9 moveto 63 (</s>/1.386) alignedtext
grestore
% 11->5
gsave
1 setlinewidth
0.000 0.000 0.000 edgecolor
newpath 263 353 moveto
255 357 246 360 237 363 curveto
215 370 188 376 169 380 curveto
stroke
0.000 0.000 0.000 edgecolor
newpath 168.12 376.61 moveto
159 382 lineto
169.49 383.47 lineto
closepath fill
1 setlinewidth
solid
0.000 0.000 0.000 edgecolor
newpath 168.12 376.61 moveto
159 382 lineto
169.49 383.47 lineto
closepath stroke
0.000 0.000 0.000 edgecolor
14 /Times-Roman set_font
177 380.9 moveto 60 (shot/1.386) alignedtext
grestore
% 11->3
gsave
1 setlinewidth
0.000 0.000 0.000 edgecolor
newpath 291 326 moveto
297 311 306 290 312 271 curveto
322 240 304 223 327 199 curveto
401 126 690 168 793 155 curveto
798 154 804 153 810 152 curveto
stroke
0.000 0.000 0.000 edgecolor
newpath 810.88 155.39 moveto
820 150 lineto
809.51 148.53 lineto
closepath fill
1 setlinewidth
solid
0.000 0.000 0.000 edgecolor
newpath 810.88 155.39 moveto
820 150 lineto
809.51 148.53 lineto
closepath stroke
0.000 0.000 0.000 edgecolor
14 /Times-Roman set_font
527 161.9 moveto 108 (<unknown>/2.079) alignedtext
grestore
% 7
gsave
1 setlinewidth
solid
0.000 0.000 0.000 nodecolor
838 372 18 18 ellipse_path stroke
0.000 0.000 0.000 nodecolor
14 /Times-Roman set_font
834.5 367.9 moveto 7 (7) alignedtext
grestore
% 11->7
gsave
1 setlinewidth
0.000 0.000 0.000 edgecolor
newpath 301 354 moveto
309 357 318 361 327 363 curveto
355 368 362 363 389 363 curveto
499 362 526 358 635 361 curveto
698 363 771 367 810 370 curveto
stroke
0.000 0.000 0.000 edgecolor
newpath 809.7 373.49 moveto
820 371 lineto
810.4 366.52 lineto
closepath fill
1 setlinewidth
solid
0.000 0.000 0.000 edgecolor
newpath 809.7 373.49 moveto
820 371 lineto
810.4 366.52 lineto
closepath stroke
0.000 0.000 0.000 edgecolor
14 /Times-Roman set_font
544 364.9 moveto 74 (hunter/2.079) alignedtext
grestore
% 9
gsave
1 setlinewidth
solid
0.000 0.000 0.000 nodecolor
458 253 18 18 ellipse_path stroke
0.000 0.000 0.000 nodecolor
14 /Times-Roman set_font
454 248.9 moveto 8 (9) alignedtext
grestore
% 11->9
gsave
1 setlinewidth
0.000 0.000 0.000 edgecolor
newpath 303 346 moveto
327 346 365 343 389 323 curveto
403 311 393 298 404 285 curveto
412 276 422 269 432 264 curveto
stroke
0.000 0.000 0.000 edgecolor
newpath 433.96 266.92 moveto
441 259 lineto
430.56 260.8 lineto
closepath fill
1 setlinewidth
solid
0.000 0.000 0.000 edgecolor
newpath 433.96 266.92 moveto
441 259 lineto
430.56 260.8 lineto
closepath stroke
0.000 0.000 0.000 edgecolor
14 /Times-Roman set_font
331 347.9 moveto 54 (the/1.386) alignedtext
grestore
% 4
gsave
1 setlinewidth
solid
0.000 0.000 0.000 nodecolor
978 403 18 18 ellipse_path stroke
0.000 0.000 0.000 nodecolor
14 /Times-Roman set_font
974 398.9 moveto 8 (4) alignedtext
grestore
% 4->0
gsave
1 setlinewidth
0.000 0.000 0.000 edgecolor
newpath 996 408 moveto
1016 414 1051 426 1075 445 curveto
1083 451 1091 459 1097 468 curveto
stroke
0.000 0.000 0.000 edgecolor
newpath 1094.2 470.1 moveto
1103 476 lineto
1099.8 465.9 lineto
closepath fill
1 setlinewidth
solid
0.000 0.000 0.000 edgecolor
newpath 1094.2 470.1 moveto
1103 476 lineto
1099.8 465.9 lineto
closepath stroke
0.000 0.000 0.000 edgecolor
14 /Times-Roman set_font
1011.5 448.9 moveto 63 (</s>/8.030) alignedtext
grestore
% 4->5
gsave
1 setlinewidth
0.000 0.000 0.000 edgecolor
newpath 961 410 moveto
929 422 857 448 793 461 curveto
701 478 676 478 581 478 curveto
282 478 282 478 282 478 curveto
231 478 184 435 159 408 curveto
stroke
0.000 0.000 0.000 edgecolor
newpath 161.22 405.22 moveto
152 400 lineto
155.95 409.83 lineto
closepath fill
1 setlinewidth
solid
0.000 0.000 0.000 edgecolor
newpath 161.22 405.22 moveto
152 400 lineto
155.95 409.83 lineto
closepath stroke
0.000 0.000 0.000 edgecolor
14 /Times-Roman set_font
554.5 481.9 moveto 53 (eps/-5.29) alignedtext
grestore
% 6
gsave
1 setlinewidth
solid
0.000 0.000 0.000 nodecolor
682 302 18 18 ellipse_path stroke
0.000 0.000 0.000 nodecolor
14 /Times-Roman set_font
678 297.9 moveto 8 (6) alignedtext
grestore
% 6->4
gsave
1 setlinewidth
0.000 0.000 0.000 edgecolor
newpath 700 301 moveto
734 301 810 303 868 328 curveto
902 341 936 367 957 384 curveto
stroke
0.000 0.000 0.000 edgecolor
newpath 955.17 387.05 moveto
965 391 lineto
959.78 381.78 lineto
closepath fill
1 setlinewidth
solid
0.000 0.000 0.000 edgecolor
newpath 955.17 387.05 moveto
965 391 lineto
959.78 381.78 lineto
closepath stroke
0.000 0.000 0.000 edgecolor
14 /Times-Roman set_font
808 331.9 moveto 60 (shot/8.030) alignedtext
grestore
% 6->7
gsave
1 setlinewidth
0.000 0.000 0.000 edgecolor
newpath 700 304 moveto
723 307 763 314 793 331 curveto
803 335 812 343 819 350 curveto
stroke
0.000 0.000 0.000 edgecolor
newpath 816.78 352.78 moveto
826 358 lineto
822.05 348.17 lineto
closepath fill
1 setlinewidth
solid
0.000 0.000 0.000 edgecolor
newpath 816.78 352.78 moveto
826 358 lineto
822.05 348.17 lineto
closepath stroke
0.000 0.000 0.000 edgecolor
14 /Times-Roman set_font
734.5 334.9 moveto 53 (eps/-4.60) alignedtext
grestore
% 7->11
gsave
1 setlinewidth
0.000 0.000 0.000 edgecolor
newpath 820 374 moveto
812 374 802 375 793 376 curveto
614 386 569 385 389 388 curveto
362 388 353 398 327 388 curveto
317 384 309 376 302 369 curveto
stroke
0.000 0.000 0.000 edgecolor
newpath 304.55 366.6 moveto
295 362 lineto
299.6 371.55 lineto
closepath fill
1 setlinewidth
solid
0.000 0.000 0.000 edgecolor
newpath 304.55 366.6 moveto
295 362 lineto
299.6 371.55 lineto
closepath stroke
0.000 0.000 0.000 edgecolor
14 /Times-Roman set_font
553 388.9 moveto 56 (eps/4.316) alignedtext
grestore
% 7->4
gsave
1 setlinewidth
0.000 0.000 0.000 edgecolor
newpath 856 376 moveto
879 381 922 391 950 397 curveto
stroke
0.000 0.000 0.000 edgecolor
newpath 949.51 400.47 moveto
960 399 lineto
950.88 393.61 lineto
closepath fill
1 setlinewidth
solid
0.000 0.000 0.000 edgecolor
newpath 949.51 400.47 moveto
960 399 lineto
950.88 393.61 lineto
closepath stroke
0.000 0.000 0.000 edgecolor
14 /Times-Roman set_font
883.5 397.9 moveto 61 (shot/0.010) alignedtext
grestore
% 8
gsave
1 setlinewidth
solid
0.000 0.000 0.000 nodecolor
282 244 18 18 ellipse_path stroke
0.000 0.000 0.000 nodecolor
14 /Times-Roman set_font
278.5 239.9 moveto 7 (8) alignedtext
grestore
% 8->2
gsave
1 setlinewidth
0.000 0.000 0.000 edgecolor
newpath 286 226 moveto
292 206 305 173 327 155 curveto
426 78 589 94 654 104 curveto
stroke
0.000 0.000 0.000 edgecolor
newpath 653.51 107.47 moveto
664 106 lineto
654.88 100.61 lineto
closepath fill
1 setlinewidth
solid
0.000 0.000 0.000 edgecolor
newpath 653.51 107.47 moveto
664 106 lineto
654.88 100.61 lineto
closepath stroke
0.000 0.000 0.000 edgecolor
14 /Times-Roman set_font
404.5 122.9 moveto 107 (<unknown>/8.723) alignedtext
grestore
% 8->6
gsave
1 setlinewidth
0.000 0.000 0.000 edgecolor
newpath 299 250 moveto
323 258 366 272 404 280 curveto
494 297 603 301 654 302 curveto
stroke
0.000 0.000 0.000 edgecolor
newpath 654 305.5 moveto
664 302 lineto
654 298.5 lineto
closepath fill
1 setlinewidth
solid
0.000 0.000 0.000 edgecolor
newpath 654 305.5 moveto
664 302 lineto
654 298.5 lineto
closepath stroke
0.000 0.000 0.000 edgecolor
14 /Times-Roman set_font
421.5 296.9 moveto 73 (hunter/8.723) alignedtext
grestore
% 8->9
gsave
1 setlinewidth
0.000 0.000 0.000 edgecolor
newpath 300 243 moveto
308 242 318 241 327 241 curveto
355 241 362 239 389 241 curveto
403 242 418 244 430 247 curveto
stroke
0.000 0.000 0.000 edgecolor
newpath 429.51 250.47 moveto
440 249 lineto
430.88 243.61 lineto
closepath fill
1 setlinewidth
solid
0.000 0.000 0.000 edgecolor
newpath 429.51 250.47 moveto
440 249 lineto
430.88 243.61 lineto
closepath stroke
0.000 0.000 0.000 edgecolor
14 /Times-Roman set_font
331.5 246.9 moveto 53 (eps/-4.60) alignedtext
grestore
% 9->2
gsave
1 setlinewidth
0.000 0.000 0.000 edgecolor
newpath 463 235 moveto
471 208 490 156 527 130 curveto
547 116 615 112 654 110 curveto
stroke
0.000 0.000 0.000 edgecolor
newpath 654 113.5 moveto
664 110 lineto
654 106.5 lineto
closepath fill
1 setlinewidth
solid
0.000 0.000 0.000 edgecolor
newpath 654 113.5 moveto
664 110 lineto
654 106.5 lineto
closepath stroke
0.000 0.000 0.000 edgecolor
14 /Times-Roman set_font
527 134.9 moveto 108 (<unknown>/0.703) alignedtext
grestore
% 9->11
gsave
1 setlinewidth
0.000 0.000 0.000 edgecolor
newpath 441 258 moveto
415 266 365 283 327 306 curveto
319 310 311 317 304 323 curveto
stroke
0.000 0.000 0.000 edgecolor
newpath 301.6 320.45 moveto
297 330 lineto
306.55 325.4 lineto
closepath fill
1 setlinewidth
solid
0.000 0.000 0.000 edgecolor
newpath 301.6 320.45 moveto
297 330 lineto
306.55 325.4 lineto
closepath stroke
0.000 0.000 0.000 edgecolor
14 /Times-Roman set_font
330 309.9 moveto 56 (eps/4.316) alignedtext
grestore
% 9->6
gsave
1 setlinewidth
0.000 0.000 0.000 edgecolor
newpath 476 253 moveto
509 254 579 257 635 276 curveto
643 279 651 283 658 287 curveto
stroke
0.000 0.000 0.000 edgecolor
newpath 656.56 290.2 moveto
667 292 lineto
659.96 284.08 lineto
closepath fill
1 setlinewidth
solid
0.000 0.000 0.000 edgecolor
newpath 656.56 290.2 moveto
667 292 lineto
659.96 284.08 lineto
closepath stroke
0.000 0.000 0.000 edgecolor
14 /Times-Roman set_font
544 279.9 moveto 74 (hunter/0.703) alignedtext
grestore
% 10
gsave
2 setlinewidth
bold
0.000 0.000 0.000 nodecolor
141 279 21.04 21.04 ellipse_path stroke
0.000 0.000 0.000 nodecolor
14 /Times-Roman set_font
133.5 274.9 moveto 15 (10) alignedtext
grestore
% 10->11
gsave
1 setlinewidth
0.000 0.000 0.000 edgecolor
newpath 161 285 moveto
181 291 212 302 237 315 curveto
244 318 250 322 257 326 curveto
stroke
0.000 0.000 0.000 edgecolor
newpath 254.9 328.8 moveto
265 332 lineto
259.1 323.2 lineto
closepath fill
1 setlinewidth
solid
0.000 0.000 0.000 edgecolor
newpath 254.9 328.8 moveto
265 332 lineto
259.1 323.2 lineto
closepath stroke
0.000 0.000 0.000 edgecolor
14 /Times-Roman set_font
179.5 318.9 moveto 55 (eps/5.009) alignedtext
grestore
% 10->8
gsave
1 setlinewidth
0.000 0.000 0.000 edgecolor
newpath 159 268 moveto
165 265 171 262 177 260 curveto
203 251 233 247 254 246 curveto
stroke
0.000 0.000 0.000 edgecolor
newpath 254.4 249.48 moveto
264 245 lineto
253.7 242.51 lineto
closepath fill
1 setlinewidth
solid
0.000 0.000 0.000 edgecolor
newpath 254.4 249.48 moveto
264 245 lineto
253.7 242.51 lineto
closepath stroke
0.000 0.000 0.000 edgecolor
14 /Times-Roman set_font
180 263.9 moveto 54 (the/0.005) alignedtext
grestore
endpage
showpage
grestore
%%PageTrailer
%%EndPage: 1
%%Trailer
%%Pages: 1
%%BoundingBox: 149 90 463 702
end
restore
%%EOF
