%!PS-Adobe-3.0 EPSF-3.0
%%Creator: Graphviz version 2.20.3 (Tue Oct 14 12:23:50 UTC 2008)
%%For: (ashishdepankaj) Ashish Depankaj
%%Title: FSM
%%Pages: (atend)
%%BoundingBox: (atend)
%%EndComments
save
%%BeginProlog
/DotDict 200 dict def
DotDict begin

/setupLatin1 {
mark
/EncodingVector 256 array def
 EncodingVector 0

ISOLatin1Encoding 0 255 getinterval putinterval
EncodingVector 45 /hyphen put

% Set up ISO Latin 1 character encoding
/starnetISO {
        dup dup findfont dup length dict begin
        { 1 index /FID ne { def }{ pop pop } ifelse
        } forall
        /Encoding EncodingVector def
        currentdict end definefont
} def
/Times-Roman starnetISO def
/Times-Italic starnetISO def
/Times-Bold starnetISO def
/Times-BoldItalic starnetISO def
/Helvetica starnetISO def
/Helvetica-Oblique starnetISO def
/Helvetica-Bold starnetISO def
/Helvetica-BoldOblique starnetISO def
/Courier starnetISO def
/Courier-Oblique starnetISO def
/Courier-Bold starnetISO def
/Courier-BoldOblique starnetISO def
cleartomark
} bind def

%%BeginResource: procset graphviz 0 0
/coord-font-family /Times-Roman def
/default-font-family /Times-Roman def
/coordfont coord-font-family findfont 8 scalefont def

/InvScaleFactor 1.0 def
/set_scale {
       dup 1 exch div /InvScaleFactor exch def
       scale
} bind def

% styles
/solid { [] 0 setdash } bind def
/dashed { [9 InvScaleFactor mul dup ] 0 setdash } bind def
/dotted { [1 InvScaleFactor mul 6 InvScaleFactor mul] 0 setdash } bind def
/invis {/fill {newpath} def /stroke {newpath} def /show {pop newpath} def} bind def
/bold { 2 setlinewidth } bind def
/filled { } bind def
/unfilled { } bind def
/rounded { } bind def
/diagonals { } bind def

% hooks for setting color 
/nodecolor { sethsbcolor } bind def
/edgecolor { sethsbcolor } bind def
/graphcolor { sethsbcolor } bind def
/nopcolor {pop pop pop} bind def

/beginpage {	% i j npages
	/npages exch def
	/j exch def
	/i exch def
	/str 10 string def
	npages 1 gt {
		gsave
			coordfont setfont
			0 0 moveto
			(\() show i str cvs show (,) show j str cvs show (\)) show
		grestore
	} if
} bind def

/set_font {
	findfont exch
	scalefont setfont
} def

% draw text fitted to its expected width
/alignedtext {			% width text
	/text exch def
	/width exch def
	gsave
		width 0 gt {
			[] 0 setdash
			text stringwidth pop width exch sub text length div 0 text ashow
		} if
	grestore
} def

/boxprim {				% xcorner ycorner xsize ysize
		4 2 roll
		moveto
		2 copy
		exch 0 rlineto
		0 exch rlineto
		pop neg 0 rlineto
		closepath
} bind def

/ellipse_path {
	/ry exch def
	/rx exch def
	/y exch def
	/x exch def
	matrix currentmatrix
	newpath
	x y translate
	rx ry scale
	0 0 1 0 360 arc
	setmatrix
} bind def

/endpage { showpage } bind def
/showpage { } def

/layercolorseq
	[	% layer color sequence - darkest to lightest
		[0 0 0]
		[.2 .8 .8]
		[.4 .8 .8]
		[.6 .8 .8]
		[.8 .8 .8]
	]
def

/layerlen layercolorseq length def

/setlayer {/maxlayer exch def /curlayer exch def
	layercolorseq curlayer 1 sub layerlen mod get
	aload pop sethsbcolor
	/nodecolor {nopcolor} def
	/edgecolor {nopcolor} def
	/graphcolor {nopcolor} def
} bind def

/onlayer { curlayer ne {invis} if } def

/onlayers {
	/myupper exch def
	/mylower exch def
	curlayer mylower lt
	curlayer myupper gt
	or
	{invis} if
} def

/curlayer 0 def

%%EndResource
%%EndProlog
%%BeginSetup
14 default-font-family set_font
1 setmiterlimit
% /arrowlength 10 def
% /arrowwidth 5 def

% make sure pdfmark is harmless for PS-interpreters other than Distiller
/pdfmark where {pop} {userdict /pdfmark /cleartomark load put} ifelse
% make '<<' and '>>' safe on PS Level 1 devices
/languagelevel where {pop languagelevel}{1} ifelse
2 lt {
    userdict (<<) cvn ([) cvn load put
    userdict (>>) cvn ([) cvn load put
} if

%%EndSetup
setupLatin1
%%Page: 1 1
%%PageBoundingBox: 230 98 383 694
%%PageOrientation: Landscape
0 0 1 beginpage
gsave
230 98 153 596 boxprim clip newpath
1 1 set_scale 90 rotate 102 -378.5 translate
% 0
gsave
1 setlinewidth
solid
0.000 0.000 0.000 nodecolor
560 110 23.89 23.89 ellipse_path stroke
1 setlinewidth
solid
0.000 0.000 0.000 nodecolor
560 110 27.82 27.82 ellipse_path stroke
0.000 0.000 0.000 nodecolor
14 /Times-Roman set_font
550.5 105.9 moveto 19 (0/0) alignedtext
grestore
% 1
gsave
1 setlinewidth
solid
0.000 0.000 0.000 nodecolor
140 78 18 18 ellipse_path stroke
0.000 0.000 0.000 nodecolor
14 /Times-Roman set_font
136 73.9 moveto 8 (1) alignedtext
grestore
% 1->0
gsave
1 setlinewidth
0.000 0.000 0.000 edgecolor
newpath 155 89 moveto
160 92 167 96 173 99 curveto
285 139 320 130 438 127 curveto
474 125 483 127 517 122 curveto
519 122 521 121 523 121 curveto
stroke
0.000 0.000 0.000 edgecolor
newpath 524.43 124.23 moveto
533 118 lineto
522.42 117.52 lineto
closepath fill
1 setlinewidth
solid
0.000 0.000 0.000 edgecolor
newpath 524.43 124.23 moveto
533 118 lineto
522.42 117.52 lineto
closepath stroke
0.000 0.000 0.000 edgecolor
14 /Times-Roman set_font
295.5 132.9 moveto 63 (</s>/6.238) alignedtext
grestore
% 2
gsave
1 setlinewidth
solid
0.000 0.000 0.000 nodecolor
262 78 18 18 ellipse_path stroke
0.000 0.000 0.000 nodecolor
14 /Times-Roman set_font
258 73.9 moveto 8 (2) alignedtext
grestore
% 1->2
gsave
1 setlinewidth
0.000 0.000 0.000 edgecolor
newpath 158 78 moveto
178 78 210 78 234 78 curveto
stroke
0.000 0.000 0.000 edgecolor
newpath 234 81.5 moveto
244 78 lineto
234 74.5 lineto
closepath fill
1 setlinewidth
solid
0.000 0.000 0.000 edgecolor
newpath 234 81.5 moveto
244 78 lineto
234 74.5 lineto
closepath stroke
0.000 0.000 0.000 edgecolor
14 /Times-Roman set_font
173 81.9 moveto 56 (eps/0.000) alignedtext
grestore
% 2->0
gsave
1 setlinewidth
0.000 0.000 0.000 edgecolor
newpath 279 85 moveto
284 87 290 89 295 90 curveto
375 107 470 110 522 110 curveto
stroke
0.000 0.000 0.000 edgecolor
newpath 522 113.5 moveto
532 110 lineto
522 106.5 lineto
closepath fill
1 setlinewidth
solid
0.000 0.000 0.000 edgecolor
newpath 522 113.5 moveto
532 110 lineto
522 106.5 lineto
closepath stroke
0.000 0.000 0.000 edgecolor
14 /Times-Roman set_font
374 109.9 moveto 64 (</s>/6.931) alignedtext
grestore
% 4
gsave
1 setlinewidth
solid
0.000 0.000 0.000 nodecolor
406 47 18 18 ellipse_path stroke
0.000 0.000 0.000 nodecolor
14 /Times-Roman set_font
402 42.9 moveto 8 (4) alignedtext
grestore
% 2->4
gsave
1 setlinewidth
0.000 0.000 0.000 edgecolor
newpath 280 74 moveto
304 69 349 59 378 53 curveto
stroke
0.000 0.000 0.000 edgecolor
newpath 378.88 56.39 moveto
388 51 lineto
377.51 49.53 lineto
closepath fill
1 setlinewidth
solid
0.000 0.000 0.000 edgecolor
newpath 378.88 56.39 moveto
388 51 lineto
377.51 49.53 lineto
closepath stroke
0.000 0.000 0.000 edgecolor
14 /Times-Roman set_font
300.5 72.9 moveto 53 (eps/-0.69) alignedtext
grestore
% 4->0
gsave
1 setlinewidth
0.000 0.000 0.000 edgecolor
newpath 424 50 moveto
447 54 486 64 517 79 curveto
522 81 526 83 531 86 curveto
stroke
0.000 0.000 0.000 edgecolor
newpath 528.9 88.8 moveto
539 92 lineto
533.1 83.2 lineto
closepath fill
1 setlinewidth
solid
0.000 0.000 0.000 edgecolor
newpath 528.9 88.8 moveto
539 92 lineto
533.1 83.2 lineto
closepath stroke
0.000 0.000 0.000 edgecolor
14 /Times-Roman set_font
453 82.9 moveto 64 (</s>/0.693) alignedtext
grestore
% 4->2
gsave
1 setlinewidth
0.000 0.000 0.000 edgecolor
newpath 389 40 moveto
367 32 326 22 295 36 curveto
287 40 281 46 276 53 curveto
stroke
0.000 0.000 0.000 edgecolor
newpath 272.63 51.74 moveto
270 62 lineto
278.46 55.62 lineto
closepath fill
1 setlinewidth
solid
0.000 0.000 0.000 edgecolor
newpath 272.63 51.74 moveto
270 62 lineto
278.46 55.62 lineto
closepath stroke
0.000 0.000 0.000 edgecolor
14 /Times-Roman set_font
299.5 39.9 moveto 55 (the/0.693) alignedtext
grestore
% 3
gsave
2 setlinewidth
bold
0.000 0.000 0.000 nodecolor
18 31 18 18 ellipse_path stroke
0.000 0.000 0.000 nodecolor
14 /Times-Roman set_font
14 26.9 moveto 8 (3) alignedtext
grestore
% 3->1
gsave
1 setlinewidth
0.000 0.000 0.000 edgecolor
newpath 35 38 moveto
55 45 90 58 114 67 curveto
stroke
0.000 0.000 0.000 edgecolor
newpath 112.44 70.14 moveto
123 71 lineto
115.28 63.74 lineto
closepath fill
1 setlinewidth
solid
0.000 0.000 0.000 edgecolor
newpath 112.44 70.14 moveto
123 71 lineto
115.28 63.74 lineto
closepath stroke
0.000 0.000 0.000 edgecolor
14 /Times-Roman set_font
51.5 66.9 moveto 55 (the/6.931) alignedtext
grestore
% 3->4
gsave
1 setlinewidth
0.000 0.000 0.000 edgecolor
newpath 36 28 moveto
87 19 239 -4 359 24 curveto
367 25 375 29 382 32 curveto
stroke
0.000 0.000 0.000 edgecolor
newpath 380.56 35.2 moveto
391 37 lineto
383.96 29.08 lineto
closepath fill
1 setlinewidth
solid
0.000 0.000 0.000 edgecolor
newpath 380.56 35.2 moveto
391 37 lineto
383.96 29.08 lineto
closepath stroke
0.000 0.000 0.000 edgecolor
14 /Times-Roman set_font
174.5 17.9 moveto 53 (eps/-0.69) alignedtext
grestore
endpage
showpage
grestore
%%PageTrailer
%%EndPage: 1
%%Trailer
%%Pages: 1
%%BoundingBox: 230 98 383 694
end
restore
%%EOF
