%!PS-Adobe-3.0 EPSF-3.0
%%Creator: Graphviz version 2.20.3 (Tue Oct 14 12:23:50 UTC 2008)
%%For: (ashishdepankaj) Ashish Depankaj
%%Title: FSM
%%Pages: (atend)
%%BoundingBox: (atend)
%%EndComments
save
%%BeginProlog
/DotDict 200 dict def
DotDict begin

/setupLatin1 {
mark
/EncodingVector 256 array def
 EncodingVector 0

ISOLatin1Encoding 0 255 getinterval putinterval
EncodingVector 45 /hyphen put

% Set up ISO Latin 1 character encoding
/starnetISO {
        dup dup findfont dup length dict begin
        { 1 index /FID ne { def }{ pop pop } ifelse
        } forall
        /Encoding EncodingVector def
        currentdict end definefont
} def
/Times-Roman starnetISO def
/Times-Italic starnetISO def
/Times-Bold starnetISO def
/Times-BoldItalic starnetISO def
/Helvetica starnetISO def
/Helvetica-Oblique starnetISO def
/Helvetica-Bold starnetISO def
/Helvetica-BoldOblique starnetISO def
/Courier starnetISO def
/Courier-Oblique starnetISO def
/Courier-Bold starnetISO def
/Courier-BoldOblique starnetISO def
cleartomark
} bind def

%%BeginResource: procset graphviz 0 0
/coord-font-family /Times-Roman def
/default-font-family /Times-Roman def
/coordfont coord-font-family findfont 8 scalefont def

/InvScaleFactor 1.0 def
/set_scale {
       dup 1 exch div /InvScaleFactor exch def
       scale
} bind def

% styles
/solid { [] 0 setdash } bind def
/dashed { [9 InvScaleFactor mul dup ] 0 setdash } bind def
/dotted { [1 InvScaleFactor mul 6 InvScaleFactor mul] 0 setdash } bind def
/invis {/fill {newpath} def /stroke {newpath} def /show {pop newpath} def} bind def
/bold { 2 setlinewidth } bind def
/filled { } bind def
/unfilled { } bind def
/rounded { } bind def
/diagonals { } bind def

% hooks for setting color 
/nodecolor { sethsbcolor } bind def
/edgecolor { sethsbcolor } bind def
/graphcolor { sethsbcolor } bind def
/nopcolor {pop pop pop} bind def

/beginpage {	% i j npages
	/npages exch def
	/j exch def
	/i exch def
	/str 10 string def
	npages 1 gt {
		gsave
			coordfont setfont
			0 0 moveto
			(\() show i str cvs show (,) show j str cvs show (\)) show
		grestore
	} if
} bind def

/set_font {
	findfont exch
	scalefont setfont
} def

% draw text fitted to its expected width
/alignedtext {			% width text
	/text exch def
	/width exch def
	gsave
		width 0 gt {
			[] 0 setdash
			text stringwidth pop width exch sub text length div 0 text ashow
		} if
	grestore
} def

/boxprim {				% xcorner ycorner xsize ysize
		4 2 roll
		moveto
		2 copy
		exch 0 rlineto
		0 exch rlineto
		pop neg 0 rlineto
		closepath
} bind def

/ellipse_path {
	/ry exch def
	/rx exch def
	/y exch def
	/x exch def
	matrix currentmatrix
	newpath
	x y translate
	rx ry scale
	0 0 1 0 360 arc
	setmatrix
} bind def

/endpage { showpage } bind def
/showpage { } def

/layercolorseq
	[	% layer color sequence - darkest to lightest
		[0 0 0]
		[.2 .8 .8]
		[.4 .8 .8]
		[.6 .8 .8]
		[.8 .8 .8]
	]
def

/layerlen layercolorseq length def

/setlayer {/maxlayer exch def /curlayer exch def
	layercolorseq curlayer 1 sub layerlen mod get
	aload pop sethsbcolor
	/nodecolor {nopcolor} def
	/edgecolor {nopcolor} def
	/graphcolor {nopcolor} def
} bind def

/onlayer { curlayer ne {invis} if } def

/onlayers {
	/myupper exch def
	/mylower exch def
	curlayer mylower lt
	curlayer myupper gt
	or
	{invis} if
} def

/curlayer 0 def

%%EndResource
%%EndProlog
%%BeginSetup
14 default-font-family set_font
1 setmiterlimit
% /arrowlength 10 def
% /arrowwidth 5 def

% make sure pdfmark is harmless for PS-interpreters other than Distiller
/pdfmark where {pop} {userdict /pdfmark /cleartomark load put} ifelse
% make '<<' and '>>' safe on PS Level 1 devices
/languagelevel where {pop languagelevel}{1} ifelse
2 lt {
    userdict (<<) cvn ([) cvn load put
    userdict (>>) cvn ([) cvn load put
} if

%%EndSetup
setupLatin1
%%Page: 1 1
%%PageBoundingBox: 134 90 478 702
%%PageOrientation: Landscape
0 0 1 beginpage
gsave
134 90 344 612 boxprim clip newpath
0.596491 0.596491 set_scale 90 rotate 154.882 -797 translate
% 0
gsave
1 setlinewidth
solid
0.000 0.000 0.000 nodecolor
990 483 23.89 23.89 ellipse_path stroke
1 setlinewidth
solid
0.000 0.000 0.000 nodecolor
990 483 27.82 27.82 ellipse_path stroke
0.000 0.000 0.000 nodecolor
14 /Times-Roman set_font
980.5 478.9 moveto 19 (0/0) alignedtext
grestore
% 1
gsave
1 setlinewidth
solid
0.000 0.000 0.000 nodecolor
18 141 18 18 ellipse_path stroke
0.000 0.000 0.000 nodecolor
14 /Times-Roman set_font
14 136.9 moveto 8 (1) alignedtext
grestore
% 1->0
gsave
1 setlinewidth
0.000 0.000 0.000 edgecolor
newpath 19 159 moveto
25 239 54 552 137 552 curveto
137 552 137 552 876 552 curveto
910 552 942 530 964 511 curveto
stroke
0.000 0.000 0.000 edgecolor
newpath 966.4 513.55 moveto
971 504 lineto
961.45 508.6 lineto
closepath fill
1 setlinewidth
solid
0.000 0.000 0.000 edgecolor
newpath 966.4 513.55 moveto
971 504 lineto
961.45 508.6 lineto
closepath stroke
0.000 0.000 0.000 edgecolor
14 /Times-Roman set_font
535 555.9 moveto 38 (</s>/0) alignedtext
grestore
% 5
gsave
1 setlinewidth
solid
0.000 0.000 0.000 nodecolor
137 368 18 18 ellipse_path stroke
0.000 0.000 0.000 nodecolor
14 /Times-Roman set_font
133.5 363.9 moveto 7 (5) alignedtext
grestore
% 1->5
gsave
1 setlinewidth
0.000 0.000 0.000 edgecolor
newpath 26 157 moveto
47 196 99 296 123 343 curveto
stroke
0.000 0.000 0.000 edgecolor
newpath 120.08 344.96 moveto
128 352 lineto
126.2 341.56 lineto
closepath fill
1 setlinewidth
solid
0.000 0.000 0.000 edgecolor
newpath 120.08 344.96 moveto
128 352 lineto
126.2 341.56 lineto
closepath stroke
0.000 0.000 0.000 edgecolor
14 /Times-Roman set_font
51 296.9 moveto 50 (eps/Infin) alignedtext
grestore
% 5->0
gsave
1 setlinewidth
0.000 0.000 0.000 edgecolor
newpath 142 385 moveto
148 402 158 427 173 445 curveto
207 483 219 507 269 507 curveto
269 507 269 507 876 507 curveto
902 507 931 501 953 495 curveto
stroke
0.000 0.000 0.000 edgecolor
newpath 954.43 498.23 moveto
963 492 lineto
952.42 491.52 lineto
closepath fill
1 setlinewidth
solid
0.000 0.000 0.000 edgecolor
newpath 954.43 498.23 moveto
963 492 lineto
952.42 491.52 lineto
closepath stroke
0.000 0.000 0.000 edgecolor
14 /Times-Roman set_font
624 510.9 moveto 38 (</s>/0) alignedtext
grestore
% 11
gsave
1 setlinewidth
solid
0.000 0.000 0.000 nodecolor
269 328 20.85 20.85 ellipse_path stroke
0.000 0.000 0.000 nodecolor
14 /Times-Roman set_font
262 323.9 moveto 14 (11) alignedtext
grestore
% 5->11
gsave
1 setlinewidth
0.000 0.000 0.000 edgecolor
newpath 147 353 moveto
153 344 162 334 173 329 curveto
193 320 218 320 238 322 curveto
stroke
0.000 0.000 0.000 edgecolor
newpath 237.7 325.49 moveto
248 323 lineto
238.4 318.52 lineto
closepath fill
1 setlinewidth
solid
0.000 0.000 0.000 edgecolor
newpath 237.7 325.49 moveto
248 323 lineto
238.4 318.52 lineto
closepath stroke
0.000 0.000 0.000 edgecolor
14 /Times-Roman set_font
178 332.9 moveto 50 (eps/Infin) alignedtext
grestore
% 2
gsave
1 setlinewidth
solid
0.000 0.000 0.000 nodecolor
643 92 18 18 ellipse_path stroke
0.000 0.000 0.000 nodecolor
14 /Times-Roman set_font
639 87.9 moveto 8 (2) alignedtext
grestore
% 2->1
gsave
1 setlinewidth
0.000 0.000 0.000 edgecolor
newpath 627 83 moveto
622 80 615 77 609 75 curveto
532 52 510 54 429 54 curveto
137 54 137 54 137 54 curveto
94 54 55 92 34 118 curveto
stroke
0.000 0.000 0.000 edgecolor
newpath 31.2 115.9 moveto
28 126 lineto
36.8 120.1 lineto
closepath fill
1 setlinewidth
solid
0.000 0.000 0.000 edgecolor
newpath 31.2 115.9 moveto
28 126 lineto
36.8 120.1 lineto
closepath stroke
0.000 0.000 0.000 edgecolor
14 /Times-Roman set_font
251.5 58.9 moveto 35 (shot/0) alignedtext
grestore
% 3
gsave
1 setlinewidth
solid
0.000 0.000 0.000 nodecolor
774 129 18 18 ellipse_path stroke
0.000 0.000 0.000 nodecolor
14 /Times-Roman set_font
770 124.9 moveto 8 (3) alignedtext
grestore
% 2->3
gsave
1 setlinewidth
0.000 0.000 0.000 edgecolor
newpath 660 97 moveto
682 103 721 114 747 121 curveto
stroke
0.000 0.000 0.000 edgecolor
newpath 746.42 124.48 moveto
757 124 lineto
748.43 117.77 lineto
closepath fill
1 setlinewidth
solid
0.000 0.000 0.000 edgecolor
newpath 746.42 124.48 moveto
757 124 lineto
748.43 117.77 lineto
closepath stroke
0.000 0.000 0.000 edgecolor
14 /Times-Roman set_font
684 124.9 moveto 50 (eps/Infin) alignedtext
grestore
% 3->1
gsave
1 setlinewidth
0.000 0.000 0.000 edgecolor
newpath 766 113 moveto
749 80 705 8 643 8 curveto
137 8 137 8 137 8 curveto
93 8 81 27 51 60 curveto
38 76 29 97 25 113 curveto
stroke
0.000 0.000 0.000 edgecolor
newpath 21.52 112.42 moveto
22 123 lineto
28.23 114.43 lineto
closepath fill
1 setlinewidth
solid
0.000 0.000 0.000 edgecolor
newpath 21.52 112.42 moveto
22 123 lineto
28.23 114.43 lineto
closepath stroke
0.000 0.000 0.000 edgecolor
14 /Times-Roman set_font
314.5 12.9 moveto 35 (shot/0) alignedtext
grestore
% 3->11
gsave
1 setlinewidth
0.000 0.000 0.000 edgecolor
newpath 764 145 moveto
759 152 751 161 741 166 curveto
568 256 454 94 305 220 curveto
300 225 286 268 278 298 curveto
stroke
0.000 0.000 0.000 edgecolor
newpath 274.52 297.42 moveto
275 308 lineto
281.23 299.43 lineto
closepath fill
1 setlinewidth
solid
0.000 0.000 0.000 edgecolor
newpath 274.52 297.42 moveto
275 308 lineto
281.23 299.43 lineto
closepath stroke
0.000 0.000 0.000 edgecolor
14 /Times-Roman set_font
529 200.9 moveto 50 (eps/Infin) alignedtext
grestore
% 11->0
gsave
1 setlinewidth
0.000 0.000 0.000 edgecolor
newpath 277 348 moveto
282 360 292 376 305 385 curveto
333 403 812 461 952 479 curveto
stroke
0.000 0.000 0.000 edgecolor
newpath 951.7 482.49 moveto
962 480 lineto
952.4 475.52 lineto
closepath fill
1 setlinewidth
solid
0.000 0.000 0.000 edgecolor
newpath 951.7 482.49 moveto
962 480 lineto
952.4 475.52 lineto
closepath stroke
0.000 0.000 0.000 edgecolor
14 /Times-Roman set_font
677.5 454.9 moveto 63 (</s>/1.386) alignedtext
grestore
% 11->5
gsave
1 setlinewidth
0.000 0.000 0.000 edgecolor
newpath 250 338 moveto
245 341 239 344 233 346 curveto
211 354 185 359 165 363 curveto
stroke
0.000 0.000 0.000 edgecolor
newpath 164.12 359.61 moveto
155 365 lineto
165.49 366.47 lineto
closepath fill
1 setlinewidth
solid
0.000 0.000 0.000 edgecolor
newpath 164.12 359.61 moveto
155 365 lineto
165.49 366.47 lineto
closepath stroke
0.000 0.000 0.000 edgecolor
14 /Times-Roman set_font
173 363.9 moveto 60 (shot/1.386) alignedtext
grestore
% 11->3
gsave
1 setlinewidth
0.000 0.000 0.000 edgecolor
newpath 275 308 moveto
280 293 286 272 290 254 curveto
298 224 284 208 305 185 curveto
327 163 343 173 374 167 curveto
536 140 580 167 741 138 curveto
743 138 745 137 747 137 curveto
stroke
0.000 0.000 0.000 edgecolor
newpath 747.88 140.39 moveto
757 135 lineto
746.51 133.53 lineto
closepath fill
1 setlinewidth
solid
0.000 0.000 0.000 edgecolor
newpath 747.88 140.39 moveto
757 135 lineto
746.51 133.53 lineto
closepath stroke
0.000 0.000 0.000 edgecolor
14 /Times-Roman set_font
500 159.9 moveto 108 (<unknown>/2.079) alignedtext
grestore
% 7
gsave
1 setlinewidth
solid
0.000 0.000 0.000 nodecolor
774 355 18 18 ellipse_path stroke
0.000 0.000 0.000 nodecolor
14 /Times-Roman set_font
770.5 350.9 moveto 7 (7) alignedtext
grestore
% 11->7
gsave
1 setlinewidth
0.000 0.000 0.000 edgecolor
newpath 287 339 moveto
293 341 299 344 305 346 curveto
329 351 336 346 359 346 curveto
471 345 498 340 609 344 curveto
658 345 713 350 746 352 curveto
stroke
0.000 0.000 0.000 edgecolor
newpath 745.7 355.49 moveto
756 353 lineto
746.4 348.52 lineto
closepath fill
1 setlinewidth
solid
0.000 0.000 0.000 edgecolor
newpath 745.7 355.49 moveto
756 353 lineto
746.4 348.52 lineto
closepath stroke
0.000 0.000 0.000 edgecolor
14 /Times-Roman set_font
517 347.9 moveto 74 (hunter/2.079) alignedtext
grestore
% 9
gsave
1 setlinewidth
solid
0.000 0.000 0.000 nodecolor
429 236 18 18 ellipse_path stroke
0.000 0.000 0.000 nodecolor
14 /Times-Roman set_font
425 231.9 moveto 8 (9) alignedtext
grestore
% 11->9
gsave
1 setlinewidth
0.000 0.000 0.000 edgecolor
newpath 290 328 moveto
310 327 340 323 359 306 curveto
373 294 363 281 374 268 curveto
382 259 393 252 403 246 curveto
stroke
0.000 0.000 0.000 edgecolor
newpath 404.28 249.26 moveto
412 242 lineto
401.44 242.86 lineto
closepath fill
1 setlinewidth
solid
0.000 0.000 0.000 edgecolor
newpath 404.28 249.26 moveto
412 242 lineto
401.44 242.86 lineto
closepath stroke
0.000 0.000 0.000 edgecolor
14 /Times-Roman set_font
305 328.9 moveto 54 (the/1.386) alignedtext
grestore
% 4
gsave
1 setlinewidth
solid
0.000 0.000 0.000 nodecolor
876 386 18 18 ellipse_path stroke
0.000 0.000 0.000 nodecolor
14 /Times-Roman set_font
872 381.9 moveto 8 (4) alignedtext
grestore
% 4->0
gsave
1 setlinewidth
0.000 0.000 0.000 edgecolor
newpath 893 393 moveto
908 401 931 413 947 428 curveto
955 435 962 443 969 451 curveto
stroke
0.000 0.000 0.000 edgecolor
newpath 966.2 453.1 moveto
975 459 lineto
971.8 448.9 lineto
closepath fill
1 setlinewidth
solid
0.000 0.000 0.000 edgecolor
newpath 966.2 453.1 moveto
975 459 lineto
971.8 448.9 lineto
closepath stroke
0.000 0.000 0.000 edgecolor
14 /Times-Roman set_font
909 431.9 moveto 38 (</s>/0) alignedtext
grestore
% 4->5
gsave
1 setlinewidth
0.000 0.000 0.000 edgecolor
newpath 860 395 moveto
836 408 786 432 741 444 curveto
661 464 638 461 554 461 curveto
269 461 269 461 269 461 curveto
221 461 177 418 154 391 curveto
stroke
0.000 0.000 0.000 edgecolor
newpath 156.8 388.9 moveto
148 383 lineto
151.2 393.1 lineto
closepath fill
1 setlinewidth
solid
0.000 0.000 0.000 edgecolor
newpath 156.8 388.9 moveto
148 383 lineto
151.2 393.1 lineto
closepath stroke
0.000 0.000 0.000 edgecolor
14 /Times-Roman set_font
529 464.9 moveto 50 (eps/Infin) alignedtext
grestore
% 6
gsave
1 setlinewidth
solid
0.000 0.000 0.000 nodecolor
643 285 18 18 ellipse_path stroke
0.000 0.000 0.000 nodecolor
14 /Times-Roman set_font
639 280.9 moveto 8 (6) alignedtext
grestore
% 6->4
gsave
1 setlinewidth
0.000 0.000 0.000 edgecolor
newpath 661 284 moveto
691 284 750 286 792 311 curveto
817 326 841 348 857 365 curveto
stroke
0.000 0.000 0.000 edgecolor
newpath 854.45 367.4 moveto
864 372 lineto
859.4 362.45 lineto
closepath fill
1 setlinewidth
solid
0.000 0.000 0.000 edgecolor
newpath 854.45 367.4 moveto
864 372 lineto
859.4 362.45 lineto
closepath stroke
0.000 0.000 0.000 edgecolor
14 /Times-Roman set_font
756.5 314.9 moveto 35 (shot/0) alignedtext
grestore
% 6->7
gsave
1 setlinewidth
0.000 0.000 0.000 edgecolor
newpath 661 289 moveto
686 294 728 305 741 314 curveto
748 319 754 325 759 331 curveto
stroke
0.000 0.000 0.000 edgecolor
newpath 756.2 333.1 moveto
765 339 lineto
761.8 328.9 lineto
closepath fill
1 setlinewidth
solid
0.000 0.000 0.000 edgecolor
newpath 756.2 333.1 moveto
765 339 lineto
761.8 328.9 lineto
closepath stroke
0.000 0.000 0.000 edgecolor
14 /Times-Roman set_font
684 317.9 moveto 50 (eps/Infin) alignedtext
grestore
% 7->11
gsave
1 setlinewidth
0.000 0.000 0.000 edgecolor
newpath 756 357 moveto
751 358 746 358 741 359 curveto
572 371 529 368 359 371 curveto
336 371 327 381 305 371 curveto
298 367 291 361 286 355 curveto
stroke
0.000 0.000 0.000 edgecolor
newpath 288.8 352.9 moveto
280 347 lineto
283.2 357.1 lineto
closepath fill
1 setlinewidth
solid
0.000 0.000 0.000 edgecolor
newpath 288.8 352.9 moveto
280 347 lineto
283.2 357.1 lineto
closepath stroke
0.000 0.000 0.000 edgecolor
14 /Times-Roman set_font
529 371.9 moveto 50 (eps/Infin) alignedtext
grestore
% 7->4
gsave
1 setlinewidth
0.000 0.000 0.000 edgecolor
newpath 791 360 moveto
807 365 830 372 848 378 curveto
stroke
0.000 0.000 0.000 edgecolor
newpath 847.42 381.48 moveto
858 381 lineto
849.43 374.77 lineto
closepath fill
1 setlinewidth
solid
0.000 0.000 0.000 edgecolor
newpath 847.42 381.48 moveto
858 381 lineto
849.43 374.77 lineto
closepath stroke
0.000 0.000 0.000 edgecolor
14 /Times-Roman set_font
807.5 377.9 moveto 35 (shot/0) alignedtext
grestore
% 8
gsave
1 setlinewidth
solid
0.000 0.000 0.000 nodecolor
269 227 18 18 ellipse_path stroke
0.000 0.000 0.000 nodecolor
14 /Times-Roman set_font
265.5 222.9 moveto 7 (8) alignedtext
grestore
% 8->2
gsave
1 setlinewidth
0.000 0.000 0.000 edgecolor
newpath 271 209 moveto
275 189 284 156 305 138 curveto
395 60 552 76 615 86 curveto
stroke
0.000 0.000 0.000 edgecolor
newpath 614.51 89.47 moveto
625 88 lineto
615.88 82.61 lineto
closepath fill
1 setlinewidth
solid
0.000 0.000 0.000 edgecolor
newpath 614.51 89.47 moveto
625 88 lineto
615.88 82.61 lineto
closepath stroke
0.000 0.000 0.000 edgecolor
14 /Times-Roman set_font
374.5 104.9 moveto 109 (<unknown>/0.693) alignedtext
grestore
% 8->6
gsave
1 setlinewidth
0.000 0.000 0.000 edgecolor
newpath 286 234 moveto
306 242 342 256 374 263 curveto
460 281 565 284 615 285 curveto
stroke
0.000 0.000 0.000 edgecolor
newpath 615 288.5 moveto
625 285 lineto
615 281.5 lineto
closepath fill
1 setlinewidth
solid
0.000 0.000 0.000 edgecolor
newpath 615 288.5 moveto
625 285 lineto
615 281.5 lineto
closepath stroke
0.000 0.000 0.000 edgecolor
14 /Times-Roman set_font
392 279.9 moveto 74 (hunter/0.693) alignedtext
grestore
% 8->9
gsave
1 setlinewidth
0.000 0.000 0.000 edgecolor
newpath 287 225 moveto
293 225 299 224 305 224 curveto
329 224 336 222 359 224 curveto
373 225 388 227 401 230 curveto
stroke
0.000 0.000 0.000 edgecolor
newpath 400.51 233.47 moveto
411 232 lineto
401.88 226.61 lineto
closepath fill
1 setlinewidth
solid
0.000 0.000 0.000 edgecolor
newpath 400.51 233.47 moveto
411 232 lineto
401.88 226.61 lineto
closepath stroke
0.000 0.000 0.000 edgecolor
14 /Times-Roman set_font
307 229.9 moveto 50 (eps/Infin) alignedtext
grestore
% 9->2
gsave
1 setlinewidth
0.000 0.000 0.000 edgecolor
newpath 434 218 moveto
442 191 462 139 499 113 curveto
517 100 578 95 615 93 curveto
stroke
0.000 0.000 0.000 edgecolor
newpath 615 96.5 moveto
625 93 lineto
615 89.5 lineto
closepath fill
1 setlinewidth
solid
0.000 0.000 0.000 edgecolor
newpath 615 96.5 moveto
625 93 lineto
615 89.5 lineto
closepath stroke
0.000 0.000 0.000 edgecolor
14 /Times-Roman set_font
499.5 117.9 moveto 109 (<unknown>/0.693) alignedtext
grestore
% 9->11
gsave
1 setlinewidth
0.000 0.000 0.000 edgecolor
newpath 411 241 moveto
386 248 339 265 305 289 curveto
299 293 293 298 289 303 curveto
stroke
0.000 0.000 0.000 edgecolor
newpath 285.95 301.17 moveto
282 311 lineto
291.22 305.78 lineto
closepath fill
1 setlinewidth
solid
0.000 0.000 0.000 edgecolor
newpath 285.95 301.17 moveto
282 311 lineto
291.22 305.78 lineto
closepath stroke
0.000 0.000 0.000 edgecolor
14 /Times-Roman set_font
307 292.9 moveto 50 (eps/Infin) alignedtext
grestore
% 9->6
gsave
1 setlinewidth
0.000 0.000 0.000 edgecolor
newpath 447 235 moveto
481 234 554 236 609 259 curveto
614 261 618 263 622 266 curveto
stroke
0.000 0.000 0.000 edgecolor
newpath 619.9 268.8 moveto
630 272 lineto
624.1 263.2 lineto
closepath fill
1 setlinewidth
solid
0.000 0.000 0.000 edgecolor
newpath 619.9 268.8 moveto
630 272 lineto
624.1 263.2 lineto
closepath stroke
0.000 0.000 0.000 edgecolor
14 /Times-Roman set_font
517 262.9 moveto 74 (hunter/0.693) alignedtext
grestore
% 10
gsave
2 setlinewidth
bold
0.000 0.000 0.000 nodecolor
137 262 21.04 21.04 ellipse_path stroke
0.000 0.000 0.000 nodecolor
14 /Times-Roman set_font
129.5 257.9 moveto 15 (10) alignedtext
grestore
% 10->11
gsave
1 setlinewidth
0.000 0.000 0.000 edgecolor
newpath 157 267 moveto
178 273 209 284 233 298 curveto
238 300 242 303 246 307 curveto
stroke
0.000 0.000 0.000 edgecolor
newpath 243.9 309.8 moveto
254 313 lineto
248.1 304.2 lineto
closepath fill
1 setlinewidth
solid
0.000 0.000 0.000 edgecolor
newpath 243.9 309.8 moveto
254 313 lineto
248.1 304.2 lineto
closepath stroke
0.000 0.000 0.000 edgecolor
14 /Times-Roman set_font
178 301.9 moveto 50 (eps/Infin) alignedtext
grestore
% 10->8
gsave
1 setlinewidth
0.000 0.000 0.000 edgecolor
newpath 155 251 moveto
161 248 167 245 173 243 curveto
195 235 221 231 241 229 curveto
stroke
0.000 0.000 0.000 edgecolor
newpath 241.4 232.48 moveto
251 228 lineto
240.7 225.51 lineto
closepath fill
1 setlinewidth
solid
0.000 0.000 0.000 edgecolor
newpath 241.4 232.48 moveto
251 228 lineto
240.7 225.51 lineto
closepath stroke
0.000 0.000 0.000 edgecolor
14 /Times-Roman set_font
188.5 246.9 moveto 29 (the/0) alignedtext
grestore
endpage
showpage
grestore
%%PageTrailer
%%EndPage: 1
%%Trailer
%%Pages: 1
%%BoundingBox: 134 90 478 702
end
restore
%%EOF
