%!PS-Adobe-3.0 EPSF-3.0
%%Creator: Graphviz version 2.20.3 (Tue Oct 14 12:23:50 UTC 2008)
%%For: (ashishdepankaj) Ashish Depankaj
%%Title: FSM
%%Pages: (atend)
%%BoundingBox: (atend)
%%EndComments
save
%%BeginProlog
/DotDict 200 dict def
DotDict begin

/setupLatin1 {
mark
/EncodingVector 256 array def
 EncodingVector 0

ISOLatin1Encoding 0 255 getinterval putinterval
EncodingVector 45 /hyphen put

% Set up ISO Latin 1 character encoding
/starnetISO {
        dup dup findfont dup length dict begin
        { 1 index /FID ne { def }{ pop pop } ifelse
        } forall
        /Encoding EncodingVector def
        currentdict end definefont
} def
/Times-Roman starnetISO def
/Times-Italic starnetISO def
/Times-Bold starnetISO def
/Times-BoldItalic starnetISO def
/Helvetica starnetISO def
/Helvetica-Oblique starnetISO def
/Helvetica-Bold starnetISO def
/Helvetica-BoldOblique starnetISO def
/Courier starnetISO def
/Courier-Oblique starnetISO def
/Courier-Bold starnetISO def
/Courier-BoldOblique starnetISO def
cleartomark
} bind def

%%BeginResource: procset graphviz 0 0
/coord-font-family /Times-Roman def
/default-font-family /Times-Roman def
/coordfont coord-font-family findfont 8 scalefont def

/InvScaleFactor 1.0 def
/set_scale {
       dup 1 exch div /InvScaleFactor exch def
       scale
} bind def

% styles
/solid { [] 0 setdash } bind def
/dashed { [9 InvScaleFactor mul dup ] 0 setdash } bind def
/dotted { [1 InvScaleFactor mul 6 InvScaleFactor mul] 0 setdash } bind def
/invis {/fill {newpath} def /stroke {newpath} def /show {pop newpath} def} bind def
/bold { 2 setlinewidth } bind def
/filled { } bind def
/unfilled { } bind def
/rounded { } bind def
/diagonals { } bind def

% hooks for setting color 
/nodecolor { sethsbcolor } bind def
/edgecolor { sethsbcolor } bind def
/graphcolor { sethsbcolor } bind def
/nopcolor {pop pop pop} bind def

/beginpage {	% i j npages
	/npages exch def
	/j exch def
	/i exch def
	/str 10 string def
	npages 1 gt {
		gsave
			coordfont setfont
			0 0 moveto
			(\() show i str cvs show (,) show j str cvs show (\)) show
		grestore
	} if
} bind def

/set_font {
	findfont exch
	scalefont setfont
} def

% draw text fitted to its expected width
/alignedtext {			% width text
	/text exch def
	/width exch def
	gsave
		width 0 gt {
			[] 0 setdash
			text stringwidth pop width exch sub text length div 0 text ashow
		} if
	grestore
} def

/boxprim {				% xcorner ycorner xsize ysize
		4 2 roll
		moveto
		2 copy
		exch 0 rlineto
		0 exch rlineto
		pop neg 0 rlineto
		closepath
} bind def

/ellipse_path {
	/ry exch def
	/rx exch def
	/y exch def
	/x exch def
	matrix currentmatrix
	newpath
	x y translate
	rx ry scale
	0 0 1 0 360 arc
	setmatrix
} bind def

/endpage { showpage } bind def
/showpage { } def

/layercolorseq
	[	% layer color sequence - darkest to lightest
		[0 0 0]
		[.2 .8 .8]
		[.4 .8 .8]
		[.6 .8 .8]
		[.8 .8 .8]
	]
def

/layerlen layercolorseq length def

/setlayer {/maxlayer exch def /curlayer exch def
	layercolorseq curlayer 1 sub layerlen mod get
	aload pop sethsbcolor
	/nodecolor {nopcolor} def
	/edgecolor {nopcolor} def
	/graphcolor {nopcolor} def
} bind def

/onlayer { curlayer ne {invis} if } def

/onlayers {
	/myupper exch def
	/mylower exch def
	curlayer mylower lt
	curlayer myupper gt
	or
	{invis} if
} def

/curlayer 0 def

%%EndResource
%%EndProlog
%%BeginSetup
14 default-font-family set_font
1 setmiterlimit
% /arrowlength 10 def
% /arrowwidth 5 def

% make sure pdfmark is harmless for PS-interpreters other than Distiller
/pdfmark where {pop} {userdict /pdfmark /cleartomark load put} ifelse
% make '<<' and '>>' safe on PS Level 1 devices
/languagelevel where {pop languagelevel}{1} ifelse
2 lt {
    userdict (<<) cvn ([) cvn load put
    userdict (>>) cvn ([) cvn load put
} if

%%EndSetup
setupLatin1
%%Page: 1 1
%%PageBoundingBox: 173 90 439 702
%%PageOrientation: Landscape
0 0 1 beginpage
gsave
173 90 266 612 boxprim clip newpath
0.546429 0.546429 set_scale 90 rotate 168.706 -799.5 translate
0.000 0.000 0.000 graphcolor
14 /Times-Roman set_font
553.5 7.9 moveto 5 (-) alignedtext
% 0
gsave
2 setlinewidth
bold
0.000 0.000 0.000 nodecolor
18 229 18 18 ellipse_path stroke
0.000 0.000 0.000 nodecolor
14 /Times-Roman set_font
14 224.9 moveto 8 (0) alignedtext
grestore
% 1
gsave
1 setlinewidth
solid
0.000 0.000 0.000 nodecolor
140 273 18 18 ellipse_path stroke
0.000 0.000 0.000 nodecolor
14 /Times-Roman set_font
136 268.9 moveto 8 (1) alignedtext
grestore
% 0->1
gsave
1 setlinewidth
0.000 0.000 0.000 edgecolor
newpath 35 235 moveto
55 242 89 254 114 263 curveto
stroke
0.000 0.000 0.000 edgecolor
newpath 112.44 266.14 moveto
123 267 lineto
115.28 259.74 lineto
closepath fill
1 setlinewidth
solid
0.000 0.000 0.000 edgecolor
newpath 112.44 266.14 moveto
123 267 lineto
115.28 259.74 lineto
closepath stroke
0.000 0.000 0.000 edgecolor
14 /Times-Roman set_font
51.5 262.9 moveto 55 (eps/5.009) alignedtext
grestore
% 2
gsave
1 setlinewidth
solid
0.000 0.000 0.000 nodecolor
140 184 18 18 ellipse_path stroke
0.000 0.000 0.000 nodecolor
14 /Times-Roman set_font
136 179.9 moveto 8 (2) alignedtext
grestore
% 0->2
gsave
1 setlinewidth
0.000 0.000 0.000 edgecolor
newpath 35 223 moveto
55 215 89 203 114 194 curveto
stroke
0.000 0.000 0.000 edgecolor
newpath 115.28 197.26 moveto
123 190 lineto
112.44 190.86 lineto
closepath fill
1 setlinewidth
solid
0.000 0.000 0.000 edgecolor
newpath 115.28 197.26 moveto
123 190 lineto
112.44 190.86 lineto
closepath stroke
0.000 0.000 0.000 edgecolor
14 /Times-Roman set_font
52 219.9 moveto 54 (the/0.005) alignedtext
grestore
% 3
gsave
1 setlinewidth
solid
0.000 0.000 0.000 nodecolor
1084 298 23.89 23.89 ellipse_path stroke
1 setlinewidth
solid
0.000 0.000 0.000 nodecolor
1084 298 27.82 27.82 ellipse_path stroke
0.000 0.000 0.000 nodecolor
14 /Times-Roman set_font
1074.5 293.9 moveto 19 (3/0) alignedtext
grestore
% 1->3
gsave
1 setlinewidth
0.000 0.000 0.000 edgecolor
newpath 142 291 moveto
146 325 157 398 173 417 curveto
213 461 239 463 298 463 curveto
298 463 298 463 930 463 curveto
1000 463 1048 382 1070 334 curveto
stroke
0.000 0.000 0.000 edgecolor
newpath 1073.14 335.56 moveto
1074 325 lineto
1066.74 332.72 lineto
closepath fill
1 setlinewidth
solid
0.000 0.000 0.000 edgecolor
newpath 1073.14 335.56 moveto
1074 325 lineto
1066.74 332.72 lineto
closepath stroke
0.000 0.000 0.000 edgecolor
14 /Times-Roman set_font
616.5 466.9 moveto 63 (</s>/1.386) alignedtext
grestore
% 4
gsave
1 setlinewidth
solid
0.000 0.000 0.000 nodecolor
648 294 18 18 ellipse_path stroke
0.000 0.000 0.000 nodecolor
14 /Times-Roman set_font
644 289.9 moveto 8 (4) alignedtext
grestore
% 1->4
gsave
1 setlinewidth
0.000 0.000 0.000 edgecolor
newpath 148 290 moveto
154 299 162 310 173 316 curveto
294 375 341 320 475 318 curveto
532 317 547 326 601 314 curveto
608 313 616 310 623 307 curveto
stroke
0.000 0.000 0.000 edgecolor
newpath 624.28 310.26 moveto
632 303 lineto
621.44 303.86 lineto
closepath fill
1 setlinewidth
solid
0.000 0.000 0.000 edgecolor
newpath 624.28 310.26 moveto
632 303 lineto
621.44 303.86 lineto
closepath stroke
0.000 0.000 0.000 edgecolor
14 /Times-Roman set_font
367 332.9 moveto 108 (<unknown>/2.079) alignedtext
grestore
% 5
gsave
1 setlinewidth
solid
0.000 0.000 0.000 nodecolor
648 127 18 18 ellipse_path stroke
0.000 0.000 0.000 nodecolor
14 /Times-Roman set_font
644.5 122.9 moveto 7 (5) alignedtext
grestore
% 1->5
gsave
1 setlinewidth
0.000 0.000 0.000 edgecolor
newpath 145 256 moveto
149 243 154 226 158 211 curveto
165 187 154 174 173 158 curveto
209 130 522 127 620 127 curveto
stroke
0.000 0.000 0.000 edgecolor
newpath 620 130.5 moveto
630 127 lineto
620 123.5 lineto
closepath fill
1 setlinewidth
solid
0.000 0.000 0.000 edgecolor
newpath 620 130.5 moveto
630 127 lineto
620 123.5 lineto
closepath stroke
0.000 0.000 0.000 edgecolor
14 /Times-Roman set_font
384 138.9 moveto 74 (hunter/2.079) alignedtext
grestore
% 6
gsave
1 setlinewidth
solid
0.000 0.000 0.000 nodecolor
930 345 18 18 ellipse_path stroke
0.000 0.000 0.000 nodecolor
14 /Times-Roman set_font
926 340.9 moveto 8 (6) alignedtext
grestore
% 1->6
gsave
1 setlinewidth
0.000 0.000 0.000 edgecolor
newpath 143 291 moveto
148 321 158 378 173 392 curveto
215 430 242 417 298 417 curveto
298 417 298 417 793 417 curveto
835 417 848 411 883 391 curveto
894 385 904 375 912 367 curveto
stroke
0.000 0.000 0.000 edgecolor
newpath 915.05 368.83 moveto
919 359 lineto
909.78 364.22 lineto
closepath fill
1 setlinewidth
solid
0.000 0.000 0.000 edgecolor
newpath 915.05 368.83 moveto
919 359 lineto
909.78 364.22 lineto
closepath stroke
0.000 0.000 0.000 edgecolor
14 /Times-Roman set_font
541 420.9 moveto 60 (shot/1.386) alignedtext
grestore
% 7
gsave
1 setlinewidth
solid
0.000 0.000 0.000 nodecolor
298 203 18 18 ellipse_path stroke
0.000 0.000 0.000 nodecolor
14 /Times-Roman set_font
294.5 198.9 moveto 7 (7) alignedtext
grestore
% 1->7
gsave
1 setlinewidth
0.000 0.000 0.000 edgecolor
newpath 157 266 moveto
184 254 239 229 272 215 curveto
stroke
0.000 0.000 0.000 edgecolor
newpath 273.28 218.26 moveto
281 211 lineto
270.44 211.86 lineto
closepath fill
1 setlinewidth
solid
0.000 0.000 0.000 edgecolor
newpath 273.28 218.26 moveto
281 211 lineto
270.44 211.86 lineto
closepath stroke
0.000 0.000 0.000 edgecolor
14 /Times-Roman set_font
174 260.9 moveto 54 (the/1.386) alignedtext
grestore
% 2->7
gsave
1 setlinewidth
0.000 0.000 0.000 edgecolor
newpath 155 174 moveto
161 171 167 168 173 166 curveto
198 160 205 160 229 166 curveto
245 170 262 179 274 187 curveto
stroke
0.000 0.000 0.000 edgecolor
newpath 272.56 190.2 moveto
283 192 lineto
275.96 184.08 lineto
closepath fill
1 setlinewidth
solid
0.000 0.000 0.000 edgecolor
newpath 272.56 190.2 moveto
283 192 lineto
275.96 184.08 lineto
closepath stroke
0.000 0.000 0.000 edgecolor
14 /Times-Roman set_font
174.5 173.9 moveto 53 (eps/-4.60) alignedtext
grestore
% 8
gsave
1 setlinewidth
solid
0.000 0.000 0.000 nodecolor
508 245 18 18 ellipse_path stroke
0.000 0.000 0.000 nodecolor
14 /Times-Roman set_font
504.5 240.9 moveto 7 (8) alignedtext
grestore
% 2->8
gsave
1 setlinewidth
0.000 0.000 0.000 edgecolor
newpath 145 202 moveto
151 222 163 256 173 263 curveto
199 279 403 257 480 248 curveto
stroke
0.000 0.000 0.000 edgecolor
newpath 480.4 251.48 moveto
490 247 lineto
479.7 244.51 lineto
closepath fill
1 setlinewidth
solid
0.000 0.000 0.000 edgecolor
newpath 480.4 251.48 moveto
490 247 lineto
479.7 244.51 lineto
closepath stroke
0.000 0.000 0.000 edgecolor
14 /Times-Roman set_font
244.5 270.9 moveto 107 (<unknown>/8.723) alignedtext
grestore
% 9
gsave
1 setlinewidth
solid
0.000 0.000 0.000 nodecolor
508 51 18 18 ellipse_path stroke
0.000 0.000 0.000 nodecolor
14 /Times-Roman set_font
504 46.9 moveto 8 (9) alignedtext
grestore
% 2->9
gsave
1 setlinewidth
0.000 0.000 0.000 edgecolor
newpath 142 166 moveto
144 145 152 112 173 93 curveto
261 15 417 34 480 45 curveto
stroke
0.000 0.000 0.000 edgecolor
newpath 479.51 48.47 moveto
490 47 lineto
480.88 41.61 lineto
closepath fill
1 setlinewidth
solid
0.000 0.000 0.000 edgecolor
newpath 479.51 48.47 moveto
490 47 lineto
480.88 41.61 lineto
closepath stroke
0.000 0.000 0.000 edgecolor
14 /Times-Roman set_font
261.5 57.9 moveto 73 (hunter/8.723) alignedtext
grestore
% 4->1
gsave
1 setlinewidth
0.000 0.000 0.000 edgecolor
newpath 630 294 moveto
573 296 393 299 244 288 curveto
218 285 189 281 168 278 curveto
stroke
0.000 0.000 0.000 edgecolor
newpath 168.49 274.53 moveto
158 276 lineto
167.12 281.39 lineto
closepath fill
1 setlinewidth
solid
0.000 0.000 0.000 edgecolor
newpath 168.49 274.53 moveto
158 276 lineto
167.12 281.39 lineto
closepath stroke
0.000 0.000 0.000 edgecolor
14 /Times-Roman set_font
393 298.9 moveto 56 (eps/4.316) alignedtext
grestore
% 10
gsave
1 setlinewidth
solid
0.000 0.000 0.000 nodecolor
793 276 21.04 21.04 ellipse_path stroke
0.000 0.000 0.000 nodecolor
14 /Times-Roman set_font
785.5 271.9 moveto 15 (10) alignedtext
grestore
% 4->10
gsave
1 setlinewidth
0.000 0.000 0.000 edgecolor
newpath 666 292 moveto
690 289 732 283 762 280 curveto
stroke
0.000 0.000 0.000 edgecolor
newpath 762.4 283.48 moveto
772 279 lineto
761.7 276.51 lineto
closepath fill
1 setlinewidth
solid
0.000 0.000 0.000 edgecolor
newpath 762.4 283.48 moveto
772 279 lineto
761.7 276.51 lineto
closepath stroke
0.000 0.000 0.000 edgecolor
14 /Times-Roman set_font
695.5 290.9 moveto 61 (shot/0.010) alignedtext
grestore
% 5->1
gsave
1 setlinewidth
0.000 0.000 0.000 edgecolor
newpath 630 125 moveto
599 121 532 113 475 109 curveto
341 103 271 49 173 142 curveto
151 164 166 181 158 211 curveto
155 222 151 235 148 246 curveto
stroke
0.000 0.000 0.000 edgecolor
newpath 144.52 245.42 moveto
145 256 lineto
151.23 247.43 lineto
closepath fill
1 setlinewidth
solid
0.000 0.000 0.000 edgecolor
newpath 144.52 245.42 moveto
145 256 lineto
151.23 247.43 lineto
closepath stroke
0.000 0.000 0.000 edgecolor
14 /Times-Roman set_font
393 113.9 moveto 56 (eps/4.316) alignedtext
grestore
% 11
gsave
1 setlinewidth
solid
0.000 0.000 0.000 nodecolor
793 209 20.85 20.85 ellipse_path stroke
0.000 0.000 0.000 nodecolor
14 /Times-Roman set_font
786 204.9 moveto 14 (11) alignedtext
grestore
% 5->11
gsave
1 setlinewidth
0.000 0.000 0.000 edgecolor
newpath 664 136 moveto
688 150 736 176 765 194 curveto
stroke
0.000 0.000 0.000 edgecolor
newpath 763.56 197.2 moveto
774 199 lineto
766.96 191.08 lineto
closepath fill
1 setlinewidth
solid
0.000 0.000 0.000 edgecolor
newpath 763.56 197.2 moveto
774 199 lineto
766.96 191.08 lineto
closepath stroke
0.000 0.000 0.000 edgecolor
14 /Times-Roman set_font
695.5 190.9 moveto 61 (shot/0.010) alignedtext
grestore
% 6->1
gsave
1 setlinewidth
0.000 0.000 0.000 edgecolor
newpath 913 352 moveto
904 355 893 359 883 361 curveto
860 364 853 361 829 361 curveto
569 358 503 376 244 351 curveto
213 347 199 357 173 338 curveto
161 329 153 313 148 301 curveto
stroke
0.000 0.000 0.000 edgecolor
newpath 151.23 299.57 moveto
145 291 lineto
144.52 301.58 lineto
closepath fill
1 setlinewidth
solid
0.000 0.000 0.000 edgecolor
newpath 151.23 299.57 moveto
145 291 lineto
144.52 301.58 lineto
closepath stroke
0.000 0.000 0.000 edgecolor
14 /Times-Roman set_font
543.5 366.9 moveto 55 (eps/5.009) alignedtext
grestore
% 6->3
gsave
1 setlinewidth
0.000 0.000 0.000 edgecolor
newpath 947 340 moveto
971 332 1015 319 1047 309 curveto
stroke
0.000 0.000 0.000 edgecolor
newpath 1048.43 312.23 moveto
1057 306 lineto
1046.42 305.52 lineto
closepath fill
1 setlinewidth
solid
0.000 0.000 0.000 edgecolor
newpath 1048.43 312.23 moveto
1057 306 lineto
1046.42 305.52 lineto
closepath stroke
0.000 0.000 0.000 edgecolor
14 /Times-Roman set_font
977.5 333.9 moveto 63 (</s>/0.005) alignedtext
grestore
% 7->1
gsave
1 setlinewidth
0.000 0.000 0.000 edgecolor
newpath 280 200 moveto
254 196 206 192 173 213 curveto
161 220 154 233 149 246 curveto
stroke
0.000 0.000 0.000 edgecolor
newpath 145.86 244.44 moveto
145 255 lineto
152.26 247.28 lineto
closepath fill
1 setlinewidth
solid
0.000 0.000 0.000 edgecolor
newpath 145.86 244.44 moveto
145 255 lineto
152.26 247.28 lineto
closepath stroke
0.000 0.000 0.000 edgecolor
14 /Times-Roman set_font
173 216.9 moveto 56 (eps/4.316) alignedtext
grestore
% 7->8
gsave
1 setlinewidth
0.000 0.000 0.000 edgecolor
newpath 316 203 moveto
349 203 419 207 475 226 curveto
478 227 481 228 484 229 curveto
stroke
0.000 0.000 0.000 edgecolor
newpath 482.56 232.2 moveto
493 234 lineto
485.96 226.08 lineto
closepath fill
1 setlinewidth
solid
0.000 0.000 0.000 edgecolor
newpath 482.56 232.2 moveto
493 234 lineto
485.96 226.08 lineto
closepath stroke
0.000 0.000 0.000 edgecolor
14 /Times-Roman set_font
367 229.9 moveto 108 (<unknown>/0.703) alignedtext
grestore
% 7->9
gsave
1 setlinewidth
0.000 0.000 0.000 edgecolor
newpath 302 185 moveto
309 155 327 96 367 68 curveto
401 45 449 45 480 47 curveto
stroke
0.000 0.000 0.000 edgecolor
newpath 479.7 50.49 moveto
490 48 lineto
480.4 43.52 lineto
closepath fill
1 setlinewidth
solid
0.000 0.000 0.000 edgecolor
newpath 479.7 50.49 moveto
490 48 lineto
480.4 43.52 lineto
closepath stroke
0.000 0.000 0.000 edgecolor
14 /Times-Roman set_font
384 72.9 moveto 74 (hunter/0.703) alignedtext
grestore
% 8->4
gsave
1 setlinewidth
0.000 0.000 0.000 edgecolor
newpath 526 248 moveto
545 252 576 259 601 269 curveto
609 272 617 275 624 279 curveto
stroke
0.000 0.000 0.000 edgecolor
newpath 622.56 282.2 moveto
633 284 lineto
625.96 276.08 lineto
closepath fill
1 setlinewidth
solid
0.000 0.000 0.000 edgecolor
newpath 622.56 282.2 moveto
633 284 lineto
625.96 276.08 lineto
closepath stroke
0.000 0.000 0.000 edgecolor
14 /Times-Roman set_font
544.5 272.9 moveto 53 (eps/-4.60) alignedtext
grestore
% 8->10
gsave
1 setlinewidth
0.000 0.000 0.000 edgecolor
newpath 526 244 moveto
558 243 625 243 680 250 curveto
709 253 740 261 763 267 curveto
stroke
0.000 0.000 0.000 edgecolor
newpath 762.42 270.48 moveto
773 270 lineto
764.43 263.77 lineto
closepath fill
1 setlinewidth
solid
0.000 0.000 0.000 edgecolor
newpath 762.42 270.48 moveto
773 270 lineto
764.43 263.77 lineto
closepath stroke
0.000 0.000 0.000 edgecolor
14 /Times-Roman set_font
618 253.9 moveto 60 (shot/8.030) alignedtext
grestore
% 9->5
gsave
1 setlinewidth
0.000 0.000 0.000 edgecolor
newpath 526 53 moveto
546 56 578 62 601 76 curveto
613 83 624 94 632 104 curveto
stroke
0.000 0.000 0.000 edgecolor
newpath 629.2 106.1 moveto
638 112 lineto
634.8 101.9 lineto
closepath fill
1 setlinewidth
solid
0.000 0.000 0.000 edgecolor
newpath 629.2 106.1 moveto
638 112 lineto
634.8 101.9 lineto
closepath stroke
0.000 0.000 0.000 edgecolor
14 /Times-Roman set_font
544.5 80.9 moveto 53 (eps/-4.60) alignedtext
grestore
% 9->11
gsave
1 setlinewidth
0.000 0.000 0.000 edgecolor
newpath 526 51 moveto
545 51 576 52 601 56 curveto
638 64 648 65 680 83 curveto
720 106 728 117 757 151 curveto
765 160 772 171 778 181 curveto
stroke
0.000 0.000 0.000 edgecolor
newpath 775.08 182.96 moveto
783 190 lineto
781.2 179.56 lineto
closepath fill
1 setlinewidth
solid
0.000 0.000 0.000 edgecolor
newpath 775.08 182.96 moveto
783 190 lineto
781.2 179.56 lineto
closepath stroke
0.000 0.000 0.000 edgecolor
14 /Times-Roman set_font
618 87.9 moveto 60 (shot/8.030) alignedtext
grestore
% 10->3
gsave
1 setlinewidth
0.000 0.000 0.000 edgecolor
newpath 814 278 moveto
863 282 984 291 1046 295 curveto
stroke
0.000 0.000 0.000 edgecolor
newpath 1045.7 298.49 moveto
1056 296 lineto
1046.4 291.52 lineto
closepath fill
1 setlinewidth
solid
0.000 0.000 0.000 edgecolor
newpath 1045.7 298.49 moveto
1056 296 lineto
1046.4 291.52 lineto
closepath stroke
0.000 0.000 0.000 edgecolor
14 /Times-Roman set_font
898.5 289.9 moveto 63 (</s>/8.030) alignedtext
grestore
% 10->6
gsave
1 setlinewidth
0.000 0.000 0.000 edgecolor
newpath 803 295 moveto
810 304 818 316 829 323 curveto
851 337 881 342 902 344 curveto
stroke
0.000 0.000 0.000 edgecolor
newpath 901.7 347.49 moveto
912 345 lineto
902.4 340.52 lineto
closepath fill
1 setlinewidth
solid
0.000 0.000 0.000 edgecolor
newpath 901.7 347.49 moveto
912 345 lineto
902.4 340.52 lineto
closepath stroke
0.000 0.000 0.000 edgecolor
14 /Times-Roman set_font
829.5 343.9 moveto 53 (eps/-5.29) alignedtext
grestore
% 11->3
gsave
1 setlinewidth
0.000 0.000 0.000 edgecolor
newpath 813 215 moveto
856 227 957 257 1041 284 curveto
1043 285 1045 285 1047 286 curveto
stroke
0.000 0.000 0.000 edgecolor
newpath 1046.42 289.48 moveto
1057 289 lineto
1048.43 282.77 lineto
closepath fill
1 setlinewidth
solid
0.000 0.000 0.000 edgecolor
newpath 1046.42 289.48 moveto
1057 289 lineto
1048.43 282.77 lineto
closepath stroke
0.000 0.000 0.000 edgecolor
14 /Times-Roman set_font
898.5 260.9 moveto 63 (</s>/8.030) alignedtext
grestore
% 11->6
gsave
1 setlinewidth
0.000 0.000 0.000 edgecolor
newpath 808 224 moveto
833 249 882 298 910 325 curveto
stroke
0.000 0.000 0.000 edgecolor
newpath 907.45 327.4 moveto
917 332 lineto
912.4 322.45 lineto
closepath fill
1 setlinewidth
solid
0.000 0.000 0.000 edgecolor
newpath 907.45 327.4 moveto
917 332 lineto
912.4 322.45 lineto
closepath stroke
0.000 0.000 0.000 edgecolor
14 /Times-Roman set_font
829.5 299.9 moveto 53 (eps/-5.29) alignedtext
grestore
endpage
showpage
grestore
%%PageTrailer
%%EndPage: 1
%%Trailer
%%Pages: 1
%%BoundingBox: 173 90 439 702
end
restore
%%EOF
