%!PS-Adobe-3.0 EPSF-3.0
%%Creator: Graphviz version 2.20.3 (Tue Oct 14 12:23:50 UTC 2008)
%%For: (ashishdepankaj) Ashish Depankaj
%%Title: FSM
%%Pages: (atend)
%%BoundingBox: (atend)
%%EndComments
save
%%BeginProlog
/DotDict 200 dict def
DotDict begin

/setupLatin1 {
mark
/EncodingVector 256 array def
 EncodingVector 0

ISOLatin1Encoding 0 255 getinterval putinterval
EncodingVector 45 /hyphen put

% Set up ISO Latin 1 character encoding
/starnetISO {
        dup dup findfont dup length dict begin
        { 1 index /FID ne { def }{ pop pop } ifelse
        } forall
        /Encoding EncodingVector def
        currentdict end definefont
} def
/Times-Roman starnetISO def
/Times-Italic starnetISO def
/Times-Bold starnetISO def
/Times-BoldItalic starnetISO def
/Helvetica starnetISO def
/Helvetica-Oblique starnetISO def
/Helvetica-Bold starnetISO def
/Helvetica-BoldOblique starnetISO def
/Courier starnetISO def
/Courier-Oblique starnetISO def
/Courier-Bold starnetISO def
/Courier-BoldOblique starnetISO def
cleartomark
} bind def

%%BeginResource: procset graphviz 0 0
/coord-font-family /Times-Roman def
/default-font-family /Times-Roman def
/coordfont coord-font-family findfont 8 scalefont def

/InvScaleFactor 1.0 def
/set_scale {
       dup 1 exch div /InvScaleFactor exch def
       scale
} bind def

% styles
/solid { [] 0 setdash } bind def
/dashed { [9 InvScaleFactor mul dup ] 0 setdash } bind def
/dotted { [1 InvScaleFactor mul 6 InvScaleFactor mul] 0 setdash } bind def
/invis {/fill {newpath} def /stroke {newpath} def /show {pop newpath} def} bind def
/bold { 2 setlinewidth } bind def
/filled { } bind def
/unfilled { } bind def
/rounded { } bind def
/diagonals { } bind def

% hooks for setting color 
/nodecolor { sethsbcolor } bind def
/edgecolor { sethsbcolor } bind def
/graphcolor { sethsbcolor } bind def
/nopcolor {pop pop pop} bind def

/beginpage {	% i j npages
	/npages exch def
	/j exch def
	/i exch def
	/str 10 string def
	npages 1 gt {
		gsave
			coordfont setfont
			0 0 moveto
			(\() show i str cvs show (,) show j str cvs show (\)) show
		grestore
	} if
} bind def

/set_font {
	findfont exch
	scalefont setfont
} def

% draw text fitted to its expected width
/alignedtext {			% width text
	/text exch def
	/width exch def
	gsave
		width 0 gt {
			[] 0 setdash
			text stringwidth pop width exch sub text length div 0 text ashow
		} if
	grestore
} def

/boxprim {				% xcorner ycorner xsize ysize
		4 2 roll
		moveto
		2 copy
		exch 0 rlineto
		0 exch rlineto
		pop neg 0 rlineto
		closepath
} bind def

/ellipse_path {
	/ry exch def
	/rx exch def
	/y exch def
	/x exch def
	matrix currentmatrix
	newpath
	x y translate
	rx ry scale
	0 0 1 0 360 arc
	setmatrix
} bind def

/endpage { showpage } bind def
/showpage { } def

/layercolorseq
	[	% layer color sequence - darkest to lightest
		[0 0 0]
		[.2 .8 .8]
		[.4 .8 .8]
		[.6 .8 .8]
		[.8 .8 .8]
	]
def

/layerlen layercolorseq length def

/setlayer {/maxlayer exch def /curlayer exch def
	layercolorseq curlayer 1 sub layerlen mod get
	aload pop sethsbcolor
	/nodecolor {nopcolor} def
	/edgecolor {nopcolor} def
	/graphcolor {nopcolor} def
} bind def

/onlayer { curlayer ne {invis} if } def

/onlayers {
	/myupper exch def
	/mylower exch def
	curlayer mylower lt
	curlayer myupper gt
	or
	{invis} if
} def

/curlayer 0 def

%%EndResource
%%EndProlog
%%BeginSetup
14 default-font-family set_font
1 setmiterlimit
% /arrowlength 10 def
% /arrowwidth 5 def

% make sure pdfmark is harmless for PS-interpreters other than Distiller
/pdfmark where {pop} {userdict /pdfmark /cleartomark load put} ifelse
% make '<<' and '>>' safe on PS Level 1 devices
/languagelevel where {pop languagelevel}{1} ifelse
2 lt {
    userdict (<<) cvn ([) cvn load put
    userdict (>>) cvn ([) cvn load put
} if

%%EndSetup
setupLatin1
%%Page: 1 1
%%PageBoundingBox: 193 90 419 702
%%PageOrientation: Landscape
0 0 1 beginpage
gsave
193 90 226 612 boxprim clip newpath
0.559415 0.559415 set_scale 90 rotate 164.882 -744.5 translate
% 0
gsave
1 setlinewidth
solid
0.000 0.000 0.000 nodecolor
1043 242 39.15 39.15 ellipse_path stroke
1 setlinewidth
solid
0.000 0.000 0.000 nodecolor
1043 242 43.11 43.11 ellipse_path stroke
0.000 0.000 0.000 nodecolor
14 /Times-Roman set_font
1022.5 237.9 moveto 41 (0/-8.90) alignedtext
grestore
% 1
gsave
1 setlinewidth
solid
0.000 0.000 0.000 nodecolor
281 287 18 18 ellipse_path stroke
0.000 0.000 0.000 nodecolor
14 /Times-Roman set_font
277 282.9 moveto 8 (1) alignedtext
grestore
% 1->0
gsave
1 setlinewidth
0.000 0.000 0.000 edgecolor
newpath 297 296 moveto
322 309 373 333 420 333 curveto
420 333 420 333 875 333 curveto
924 333 971 303 1003 278 curveto
stroke
0.000 0.000 0.000 edgecolor
newpath 1005.1 280.8 moveto
1011 272 lineto
1000.9 275.2 lineto
closepath fill
1 setlinewidth
solid
0.000 0.000 0.000 edgecolor
newpath 1005.1 280.8 moveto
1011 272 lineto
1000.9 275.2 lineto
closepath stroke
0.000 0.000 0.000 edgecolor
14 /Times-Roman set_font
606 336.9 moveto 64 (</s>/13.30) alignedtext
grestore
% 4
gsave
1 setlinewidth
solid
0.000 0.000 0.000 nodecolor
420 252 18 18 ellipse_path stroke
0.000 0.000 0.000 nodecolor
14 /Times-Roman set_font
416 247.9 moveto 8 (4) alignedtext
grestore
% 1->4
gsave
1 setlinewidth
0.000 0.000 0.000 edgecolor
newpath 299 287 moveto
321 287 358 286 387 275 curveto
391 273 394 272 398 270 curveto
stroke
0.000 0.000 0.000 edgecolor
newpath 400.1 272.8 moveto
406 264 lineto
395.9 267.2 lineto
closepath fill
1 setlinewidth
solid
0.000 0.000 0.000 edgecolor
newpath 400.1 272.8 moveto
406 264 lineto
395.9 267.2 lineto
closepath stroke
0.000 0.000 0.000 edgecolor
14 /Times-Roman set_font
331.5 288.9 moveto 53 (eps/-0.00) alignedtext
grestore
% 4->0
gsave
1 setlinewidth
0.000 0.000 0.000 edgecolor
newpath 437 259 moveto
462 270 513 288 558 288 curveto
558 288 558 288 875 288 curveto
917 288 961 275 994 263 curveto
stroke
0.000 0.000 0.000 edgecolor
newpath 996.02 265.96 moveto
1004 259 lineto
993.42 259.46 lineto
closepath fill
1 setlinewidth
solid
0.000 0.000 0.000 edgecolor
newpath 996.02 265.96 moveto
1004 259 lineto
993.42 259.46 lineto
closepath stroke
0.000 0.000 0.000 edgecolor
14 /Times-Roman set_font
686.5 291.9 moveto 63 (</s>/4.186) alignedtext
grestore
% 4->1
gsave
1 setlinewidth
0.000 0.000 0.000 edgecolor
newpath 402 249 moveto
384 247 354 246 329 254 curveto
320 257 310 262 302 268 curveto
stroke
0.000 0.000 0.000 edgecolor
newpath 299.9 265.2 moveto
294 274 lineto
304.1 270.8 lineto
closepath fill
1 setlinewidth
solid
0.000 0.000 0.000 edgecolor
newpath 299.9 265.2 moveto
294 274 lineto
304.1 270.8 lineto
closepath stroke
0.000 0.000 0.000 edgecolor
14 /Times-Roman set_font
329 257.9 moveto 58 (bye/0.021) alignedtext
grestore
% 8
gsave
1 setlinewidth
solid
0.000 0.000 0.000 nodecolor
558 212 18 18 ellipse_path stroke
0.000 0.000 0.000 nodecolor
14 /Times-Roman set_font
554.5 207.9 moveto 7 (8) alignedtext
grestore
% 4->8
gsave
1 setlinewidth
0.000 0.000 0.000 edgecolor
newpath 438 248 moveto
456 244 486 238 511 230 curveto
518 228 525 226 532 223 curveto
stroke
0.000 0.000 0.000 edgecolor
newpath 533.28 226.26 moveto
541 219 lineto
530.44 219.86 lineto
closepath fill
1 setlinewidth
solid
0.000 0.000 0.000 edgecolor
newpath 533.28 226.26 moveto
541 219 lineto
530.44 219.86 lineto
closepath stroke
0.000 0.000 0.000 edgecolor
14 /Times-Roman set_font
454.5 246.9 moveto 55 (eps/3.951) alignedtext
grestore
% 2
gsave
1 setlinewidth
solid
0.000 0.000 0.000 nodecolor
875 138 18 18 ellipse_path stroke
0.000 0.000 0.000 nodecolor
14 /Times-Roman set_font
871 133.9 moveto 8 (2) alignedtext
grestore
% 2->0
gsave
1 setlinewidth
0.000 0.000 0.000 edgecolor
newpath 893 139 moveto
916 141 957 148 985 166 curveto
997 174 1007 185 1016 196 curveto
stroke
0.000 0.000 0.000 edgecolor
newpath 1013.2 198.1 moveto
1022 204 lineto
1018.8 193.9 lineto
closepath fill
1 setlinewidth
solid
0.000 0.000 0.000 edgecolor
newpath 1013.2 198.1 moveto
1022 204 lineto
1018.8 193.9 lineto
closepath stroke
0.000 0.000 0.000 edgecolor
14 /Times-Roman set_font
921 169.9 moveto 64 (</s>/13.30) alignedtext
grestore
% 2->4
gsave
1 setlinewidth
0.000 0.000 0.000 edgecolor
newpath 857 137 moveto
813 134 699 130 605 146 curveto
536 159 509 151 453 195 curveto
444 203 436 215 431 226 curveto
stroke
0.000 0.000 0.000 edgecolor
newpath 427.8 224.56 moveto
426 235 lineto
433.92 227.96 lineto
closepath fill
1 setlinewidth
solid
0.000 0.000 0.000 edgecolor
newpath 427.8 224.56 moveto
426 235 lineto
433.92 227.96 lineto
closepath stroke
0.000 0.000 0.000 edgecolor
14 /Times-Roman set_font
611.5 153.9 moveto 53 (eps/-0.00) alignedtext
grestore
% 3
gsave
1 setlinewidth
solid
0.000 0.000 0.000 nodecolor
142 255 18 18 ellipse_path stroke
0.000 0.000 0.000 nodecolor
14 /Times-Roman set_font
138 250.9 moveto 8 (3) alignedtext
grestore
% 3->0
gsave
1 setlinewidth
0.000 0.000 0.000 edgecolor
newpath 150 271 moveto
169 305 218 379 281 379 curveto
281 379 281 379 875 379 curveto
931 379 944 357 985 322 curveto
996 312 1007 300 1016 288 curveto
stroke
0.000 0.000 0.000 edgecolor
newpath 1019.2 289.44 moveto
1021 279 lineto
1013.08 286.04 lineto
closepath fill
1 setlinewidth
solid
0.000 0.000 0.000 edgecolor
newpath 1019.2 289.44 moveto
1021 279 lineto
1013.08 286.04 lineto
closepath stroke
0.000 0.000 0.000 edgecolor
14 /Times-Roman set_font
526.5 382.9 moveto 63 (</s>/17.91) alignedtext
grestore
% 3->1
gsave
1 setlinewidth
0.000 0.000 0.000 edgecolor
newpath 160 259 moveto
183 264 225 274 253 281 curveto
stroke
0.000 0.000 0.000 edgecolor
newpath 252.51 284.47 moveto
263 283 lineto
253.88 277.61 lineto
closepath fill
1 setlinewidth
solid
0.000 0.000 0.000 edgecolor
newpath 252.51 284.47 moveto
263 283 lineto
253.88 277.61 lineto
closepath stroke
0.000 0.000 0.000 edgecolor
14 /Times-Roman set_font
175 278.9 moveto 58 (bye/12.64) alignedtext
grestore
% 3->4
gsave
1 setlinewidth
0.000 0.000 0.000 edgecolor
newpath 160 252 moveto
200 245 303 229 387 242 curveto
389 242 391 243 393 243 curveto
stroke
0.000 0.000 0.000 edgecolor
newpath 392.42 246.48 moveto
403 246 lineto
394.43 239.77 lineto
closepath fill
1 setlinewidth
solid
0.000 0.000 0.000 edgecolor
newpath 392.42 246.48 moveto
403 246 lineto
394.43 239.77 lineto
closepath stroke
0.000 0.000 0.000 edgecolor
14 /Times-Roman set_font
254.5 242.9 moveto 53 (eps/-0.00) alignedtext
grestore
% 8->0
gsave
1 setlinewidth
0.000 0.000 0.000 edgecolor
newpath 575 217 moveto
584 219 595 222 605 223 curveto
743 241 907 243 990 243 curveto
stroke
0.000 0.000 0.000 edgecolor
newpath 990 246.5 moveto
1000 243 lineto
990 239.5 lineto
closepath fill
1 setlinewidth
solid
0.000 0.000 0.000 edgecolor
newpath 990 246.5 moveto
1000 243 lineto
990 239.5 lineto
closepath stroke
0.000 0.000 0.000 edgecolor
14 /Times-Roman set_font
766 242.9 moveto 62 (</s>/4.547) alignedtext
grestore
% 8->4
gsave
1 setlinewidth
0.000 0.000 0.000 edgecolor
newpath 541 207 moveto
519 201 481 195 453 209 curveto
445 213 438 220 433 227 curveto
stroke
0.000 0.000 0.000 edgecolor
newpath 429.8 225.56 moveto
428 236 lineto
435.92 228.96 lineto
closepath fill
1 setlinewidth
solid
0.000 0.000 0.000 edgecolor
newpath 429.8 225.56 moveto
428 236 lineto
435.92 228.96 lineto
closepath stroke
0.000 0.000 0.000 edgecolor
14 /Times-Roman set_font
453.5 212.9 moveto 57 (bye/0.652) alignedtext
grestore
% 6
gsave
1 setlinewidth
solid
0.000 0.000 0.000 nodecolor
718 178 18 18 ellipse_path stroke
0.000 0.000 0.000 nodecolor
14 /Times-Roman set_font
714 173.9 moveto 8 (6) alignedtext
grestore
% 8->6
gsave
1 setlinewidth
0.000 0.000 0.000 edgecolor
newpath 576 209 moveto
598 205 638 197 671 190 curveto
678 189 685 187 691 185 curveto
stroke
0.000 0.000 0.000 edgecolor
newpath 691.88 188.39 moveto
701 183 lineto
690.51 181.53 lineto
closepath fill
1 setlinewidth
solid
0.000 0.000 0.000 edgecolor
newpath 691.88 188.39 moveto
701 183 lineto
690.51 181.53 lineto
closepath stroke
0.000 0.000 0.000 edgecolor
14 /Times-Roman set_font
605 205.9 moveto 66 (hello/0.661) alignedtext
grestore
% 5
gsave
1 setlinewidth
solid
0.000 0.000 0.000 nodecolor
558 58 18 18 ellipse_path stroke
0.000 0.000 0.000 nodecolor
14 /Times-Roman set_font
554.5 53.9 moveto 7 (5) alignedtext
grestore
% 5->0
gsave
1 setlinewidth
0.000 0.000 0.000 edgecolor
newpath 576 56 moveto
640 49 860 35 985 140 curveto
1001 154 1015 174 1024 193 curveto
stroke
0.000 0.000 0.000 edgecolor
newpath 1020.74 194.28 moveto
1028 202 lineto
1027.14 191.44 lineto
closepath fill
1 setlinewidth
solid
0.000 0.000 0.000 edgecolor
newpath 1020.74 194.28 moveto
1028 202 lineto
1027.14 191.44 lineto
closepath stroke
0.000 0.000 0.000 edgecolor
14 /Times-Roman set_font
765.5 73.9 moveto 63 (</s>/17.90) alignedtext
grestore
% 5->2
gsave
1 setlinewidth
0.000 0.000 0.000 edgecolor
newpath 575 50 moveto
620 31 747 -16 829 37 curveto
854 54 866 86 871 110 curveto
stroke
0.000 0.000 0.000 edgecolor
newpath 867.61 110.88 moveto
873 120 lineto
874.47 109.51 lineto
closepath fill
1 setlinewidth
solid
0.000 0.000 0.000 edgecolor
newpath 867.61 110.88 moveto
873 120 lineto
874.47 109.51 lineto
closepath stroke
0.000 0.000 0.000 edgecolor
14 /Times-Roman set_font
689 22.9 moveto 58 (bye/12.63) alignedtext
grestore
% 5->6
gsave
1 setlinewidth
0.000 0.000 0.000 edgecolor
newpath 576 63 moveto
606 71 664 87 671 93 curveto
690 108 702 133 709 152 curveto
stroke
0.000 0.000 0.000 edgecolor
newpath 705.74 153.28 moveto
713 161 lineto
712.14 150.44 lineto
closepath fill
1 setlinewidth
solid
0.000 0.000 0.000 edgecolor
newpath 705.74 153.28 moveto
713 161 lineto
712.14 150.44 lineto
closepath stroke
0.000 0.000 0.000 edgecolor
14 /Times-Roman set_font
623 97.9 moveto 30 (eps/0) alignedtext
grestore
% 6->0
gsave
1 setlinewidth
0.000 0.000 0.000 edgecolor
newpath 736 181 moveto
770 186 844 198 906 211 curveto
942 217 950 220 985 228 curveto
987 228 989 229 991 229 curveto
stroke
0.000 0.000 0.000 edgecolor
newpath 990.51 232.47 moveto
1001 231 lineto
991.88 225.61 lineto
closepath fill
1 setlinewidth
solid
0.000 0.000 0.000 edgecolor
newpath 990.51 232.47 moveto
1001 231 lineto
991.88 225.61 lineto
closepath stroke
0.000 0.000 0.000 edgecolor
14 /Times-Roman set_font
844 214.9 moveto 62 (</s>/5.282) alignedtext
grestore
% 6->2
gsave
1 setlinewidth
0.000 0.000 0.000 edgecolor
newpath 736 173 moveto
745 171 756 168 765 166 curveto
793 159 825 151 847 145 curveto
stroke
0.000 0.000 0.000 edgecolor
newpath 847.88 148.39 moveto
857 143 lineto
846.51 141.53 lineto
closepath fill
1 setlinewidth
solid
0.000 0.000 0.000 edgecolor
newpath 847.88 148.39 moveto
857 143 lineto
846.51 141.53 lineto
closepath stroke
0.000 0.000 0.000 edgecolor
14 /Times-Roman set_font
768.5 171.9 moveto 57 (bye/0.011) alignedtext
grestore
% 6->8
gsave
1 setlinewidth
0.000 0.000 0.000 edgecolor
newpath 700 173 moveto
678 168 637 162 605 173 curveto
594 177 585 184 577 191 curveto
stroke
0.000 0.000 0.000 edgecolor
newpath 574.6 188.45 moveto
570 198 lineto
579.55 193.4 lineto
closepath fill
1 setlinewidth
solid
0.000 0.000 0.000 edgecolor
newpath 574.6 188.45 moveto
570 198 lineto
579.55 193.4 lineto
closepath stroke
0.000 0.000 0.000 edgecolor
14 /Times-Roman set_font
610 176.9 moveto 56 (eps/3.941) alignedtext
grestore
% 7
gsave
2 setlinewidth
bold
0.000 0.000 0.000 nodecolor
18 109 18 18 ellipse_path stroke
0.000 0.000 0.000 nodecolor
14 /Times-Roman set_font
14.5 104.9 moveto 7 (7) alignedtext
grestore
% 7->3
gsave
1 setlinewidth
0.000 0.000 0.000 edgecolor
newpath 30 123 moveto
52 149 98 203 123 233 curveto
stroke
0.000 0.000 0.000 edgecolor
newpath 120.78 235.78 moveto
130 241 lineto
126.05 231.17 lineto
closepath fill
1 setlinewidth
solid
0.000 0.000 0.000 edgecolor
newpath 120.78 235.78 moveto
130 241 lineto
126.05 231.17 lineto
closepath stroke
0.000 0.000 0.000 edgecolor
14 /Times-Roman set_font
51 213.9 moveto 58 (bye/0.691) alignedtext
grestore
% 7->8
gsave
1 setlinewidth
0.000 0.000 0.000 edgecolor
newpath 36 109 moveto
60 109 104 109 142 109 curveto
142 109 142 109 420 109 curveto
473 110 519 159 542 189 curveto
stroke
0.000 0.000 0.000 edgecolor
newpath 539.2 191.1 moveto
548 197 lineto
544.8 186.9 lineto
closepath fill
1 setlinewidth
solid
0.000 0.000 0.000 edgecolor
newpath 539.2 191.1 moveto
548 197 lineto
544.8 186.9 lineto
closepath stroke
0.000 0.000 0.000 edgecolor
14 /Times-Roman set_font
254.5 113.9 moveto 53 (eps/5.737) alignedtext
grestore
% 7->5
gsave
1 setlinewidth
0.000 0.000 0.000 edgecolor
newpath 33 98 moveto
55 83 100 56 142 56 curveto
142 56 142 56 420 56 curveto
458 56 502 57 530 58 curveto
stroke
0.000 0.000 0.000 edgecolor
newpath 530 61.5 moveto
540 58 lineto
530 54.5 lineto
closepath fill
1 setlinewidth
solid
0.000 0.000 0.000 edgecolor
newpath 530 61.5 moveto
540 58 lineto
530 54.5 lineto
closepath stroke
0.000 0.000 0.000 edgecolor
14 /Times-Roman set_font
248.5 60.9 moveto 65 (hello/0.700) alignedtext
grestore
endpage
showpage
grestore
%%PageTrailer
%%EndPage: 1
%%Trailer
%%Pages: 1
%%BoundingBox: 193 90 419 702
end
restore
%%EOF
