%!PS-Adobe-3.0 EPSF-3.0
%%Creator: Graphviz version 2.20.3 (Tue Oct 14 12:23:50 UTC 2008)
%%For: (ashishdepankaj) Ashish Depankaj
%%Title: FSM
%%Pages: (atend)
%%BoundingBox: (atend)
%%EndComments
save
%%BeginProlog
/DotDict 200 dict def
DotDict begin

/setupLatin1 {
mark
/EncodingVector 256 array def
 EncodingVector 0

ISOLatin1Encoding 0 255 getinterval putinterval
EncodingVector 45 /hyphen put

% Set up ISO Latin 1 character encoding
/starnetISO {
        dup dup findfont dup length dict begin
        { 1 index /FID ne { def }{ pop pop } ifelse
        } forall
        /Encoding EncodingVector def
        currentdict end definefont
} def
/Times-Roman starnetISO def
/Times-Italic starnetISO def
/Times-Bold starnetISO def
/Times-BoldItalic starnetISO def
/Helvetica starnetISO def
/Helvetica-Oblique starnetISO def
/Helvetica-Bold starnetISO def
/Helvetica-BoldOblique starnetISO def
/Courier starnetISO def
/Courier-Oblique starnetISO def
/Courier-Bold starnetISO def
/Courier-BoldOblique starnetISO def
cleartomark
} bind def

%%BeginResource: procset graphviz 0 0
/coord-font-family /Times-Roman def
/default-font-family /Times-Roman def
/coordfont coord-font-family findfont 8 scalefont def

/InvScaleFactor 1.0 def
/set_scale {
       dup 1 exch div /InvScaleFactor exch def
       scale
} bind def

% styles
/solid { [] 0 setdash } bind def
/dashed { [9 InvScaleFactor mul dup ] 0 setdash } bind def
/dotted { [1 InvScaleFactor mul 6 InvScaleFactor mul] 0 setdash } bind def
/invis {/fill {newpath} def /stroke {newpath} def /show {pop newpath} def} bind def
/bold { 2 setlinewidth } bind def
/filled { } bind def
/unfilled { } bind def
/rounded { } bind def
/diagonals { } bind def

% hooks for setting color 
/nodecolor { sethsbcolor } bind def
/edgecolor { sethsbcolor } bind def
/graphcolor { sethsbcolor } bind def
/nopcolor {pop pop pop} bind def

/beginpage {	% i j npages
	/npages exch def
	/j exch def
	/i exch def
	/str 10 string def
	npages 1 gt {
		gsave
			coordfont setfont
			0 0 moveto
			(\() show i str cvs show (,) show j str cvs show (\)) show
		grestore
	} if
} bind def

/set_font {
	findfont exch
	scalefont setfont
} def

% draw text fitted to its expected width
/alignedtext {			% width text
	/text exch def
	/width exch def
	gsave
		width 0 gt {
			[] 0 setdash
			text stringwidth pop width exch sub text length div 0 text ashow
		} if
	grestore
} def

/boxprim {				% xcorner ycorner xsize ysize
		4 2 roll
		moveto
		2 copy
		exch 0 rlineto
		0 exch rlineto
		pop neg 0 rlineto
		closepath
} bind def

/ellipse_path {
	/ry exch def
	/rx exch def
	/y exch def
	/x exch def
	matrix currentmatrix
	newpath
	x y translate
	rx ry scale
	0 0 1 0 360 arc
	setmatrix
} bind def

/endpage { showpage } bind def
/showpage { } def

/layercolorseq
	[	% layer color sequence - darkest to lightest
		[0 0 0]
		[.2 .8 .8]
		[.4 .8 .8]
		[.6 .8 .8]
		[.8 .8 .8]
	]
def

/layerlen layercolorseq length def

/setlayer {/maxlayer exch def /curlayer exch def
	layercolorseq curlayer 1 sub layerlen mod get
	aload pop sethsbcolor
	/nodecolor {nopcolor} def
	/edgecolor {nopcolor} def
	/graphcolor {nopcolor} def
} bind def

/onlayer { curlayer ne {invis} if } def

/onlayers {
	/myupper exch def
	/mylower exch def
	curlayer mylower lt
	curlayer myupper gt
	or
	{invis} if
} def

/curlayer 0 def

%%EndResource
%%EndProlog
%%BeginSetup
14 default-font-family set_font
1 setmiterlimit
% /arrowlength 10 def
% /arrowwidth 5 def

% make sure pdfmark is harmless for PS-interpreters other than Distiller
/pdfmark where {pop} {userdict /pdfmark /cleartomark load put} ifelse
% make '<<' and '>>' safe on PS Level 1 devices
/languagelevel where {pop languagelevel}{1} ifelse
2 lt {
    userdict (<<) cvn ([) cvn load put
    userdict (>>) cvn ([) cvn load put
} if

%%EndSetup
setupLatin1
%%Page: 1 1
%%PageBoundingBox: 153 90 459 702
%%PageOrientation: Landscape
0 0 1 beginpage
gsave
153 90 306 612 boxprim clip newpath
0.530329 0.530329 set_scale 90 rotate 173.706 -861 translate
% 0
gsave
1 setlinewidth
solid
0.000 0.000 0.000 nodecolor
1118 483 23.89 23.89 ellipse_path stroke
1 setlinewidth
solid
0.000 0.000 0.000 nodecolor
1118 483 27.82 27.82 ellipse_path stroke
0.000 0.000 0.000 nodecolor
14 /Times-Roman set_font
1108.5 478.9 moveto 19 (0/0) alignedtext
grestore
% 1
gsave
1 setlinewidth
solid
0.000 0.000 0.000 nodecolor
18 141 18 18 ellipse_path stroke
0.000 0.000 0.000 nodecolor
14 /Times-Roman set_font
14 136.9 moveto 8 (1) alignedtext
grestore
% 1->0
gsave
1 setlinewidth
0.000 0.000 0.000 edgecolor
newpath 19 159 moveto
26 239 58 552 141 552 curveto
141 552 141 552 978 552 curveto
1020 552 1061 528 1088 507 curveto
stroke
0.000 0.000 0.000 edgecolor
newpath 1090.1 509.8 moveto
1096 501 lineto
1085.9 504.2 lineto
closepath fill
1 setlinewidth
solid
0.000 0.000 0.000 edgecolor
newpath 1090.1 509.8 moveto
1096 501 lineto
1085.9 504.2 lineto
closepath stroke
0.000 0.000 0.000 edgecolor
14 /Times-Roman set_font
549.5 555.9 moveto 63 (</s>/8.030) alignedtext
grestore
% 5
gsave
1 setlinewidth
solid
0.000 0.000 0.000 nodecolor
141 368 18 18 ellipse_path stroke
0.000 0.000 0.000 nodecolor
14 /Times-Roman set_font
137.5 363.9 moveto 7 (5) alignedtext
grestore
% 1->5
gsave
1 setlinewidth
0.000 0.000 0.000 edgecolor
newpath 27 157 moveto
48 196 102 296 127 343 curveto
stroke
0.000 0.000 0.000 edgecolor
newpath 124.08 344.96 moveto
132 352 lineto
130.2 341.56 lineto
closepath fill
1 setlinewidth
solid
0.000 0.000 0.000 edgecolor
newpath 124.08 344.96 moveto
132 352 lineto
130.2 341.56 lineto
closepath stroke
0.000 0.000 0.000 edgecolor
14 /Times-Roman set_font
51.5 296.9 moveto 53 (eps/-5.29) alignedtext
grestore
% 5->0
gsave
1 setlinewidth
0.000 0.000 0.000 edgecolor
newpath 146 385 moveto
152 401 162 425 177 442 curveto
214 482 228 507 282 507 curveto
282 507 282 507 978 507 curveto
1014 507 1053 500 1081 493 curveto
stroke
0.000 0.000 0.000 edgecolor
newpath 1081.88 496.39 moveto
1091 491 lineto
1080.51 489.53 lineto
closepath fill
1 setlinewidth
solid
0.000 0.000 0.000 edgecolor
newpath 1081.88 496.39 moveto
1091 491 lineto
1080.51 489.53 lineto
closepath stroke
0.000 0.000 0.000 edgecolor
14 /Times-Roman set_font
650.5 510.9 moveto 63 (</s>/0.005) alignedtext
grestore
% 11
gsave
1 setlinewidth
solid
0.000 0.000 0.000 nodecolor
282 328 20.85 20.85 ellipse_path stroke
0.000 0.000 0.000 nodecolor
14 /Times-Roman set_font
275 323.9 moveto 14 (11) alignedtext
grestore
% 5->11
gsave
1 setlinewidth
0.000 0.000 0.000 edgecolor
newpath 151 353 moveto
157 344 166 334 177 329 curveto
200 319 229 319 251 322 curveto
stroke
0.000 0.000 0.000 edgecolor
newpath 250.51 325.47 moveto
261 324 lineto
251.88 318.61 lineto
closepath fill
1 setlinewidth
solid
0.000 0.000 0.000 edgecolor
newpath 250.51 325.47 moveto
261 324 lineto
251.88 318.61 lineto
closepath stroke
0.000 0.000 0.000 edgecolor
14 /Times-Roman set_font
179.5 332.9 moveto 55 (eps/5.009) alignedtext
grestore
% 2
gsave
1 setlinewidth
solid
0.000 0.000 0.000 nodecolor
682 92 18 18 ellipse_path stroke
0.000 0.000 0.000 nodecolor
14 /Times-Roman set_font
678 87.9 moveto 8 (2) alignedtext
grestore
% 2->1
gsave
1 setlinewidth
0.000 0.000 0.000 edgecolor
newpath 665 85 moveto
656 82 645 78 635 75 curveto
558 57 538 54 458 54 curveto
141 54 141 54 141 54 curveto
97 54 57 92 35 118 curveto
stroke
0.000 0.000 0.000 edgecolor
newpath 32.2 115.9 moveto
29 126 lineto
37.8 120.1 lineto
closepath fill
1 setlinewidth
solid
0.000 0.000 0.000 edgecolor
newpath 32.2 115.9 moveto
29 126 lineto
37.8 120.1 lineto
closepath stroke
0.000 0.000 0.000 edgecolor
14 /Times-Roman set_font
252 58.9 moveto 60 (shot/8.030) alignedtext
grestore
% 3
gsave
1 setlinewidth
solid
0.000 0.000 0.000 nodecolor
838 129 18 18 ellipse_path stroke
0.000 0.000 0.000 nodecolor
14 /Times-Roman set_font
834 124.9 moveto 8 (3) alignedtext
grestore
% 2->3
gsave
1 setlinewidth
0.000 0.000 0.000 edgecolor
newpath 700 96 moveto
726 102 778 115 810 123 curveto
stroke
0.000 0.000 0.000 edgecolor
newpath 809.51 126.47 moveto
820 125 lineto
810.88 119.61 lineto
closepath fill
1 setlinewidth
solid
0.000 0.000 0.000 edgecolor
newpath 809.51 126.47 moveto
820 125 lineto
810.88 119.61 lineto
closepath stroke
0.000 0.000 0.000 edgecolor
14 /Times-Roman set_font
734.5 123.9 moveto 53 (eps/-4.60) alignedtext
grestore
% 3->1
gsave
1 setlinewidth
0.000 0.000 0.000 edgecolor
newpath 828 114 moveto
807 81 750 8 682 8 curveto
141 8 141 8 141 8 curveto
95 8 82 26 51 60 curveto
38 76 29 97 25 113 curveto
stroke
0.000 0.000 0.000 edgecolor
newpath 21.52 112.42 moveto
22 123 lineto
28.23 114.43 lineto
closepath fill
1 setlinewidth
solid
0.000 0.000 0.000 edgecolor
newpath 21.52 112.42 moveto
22 123 lineto
28.23 114.43 lineto
closepath stroke
0.000 0.000 0.000 edgecolor
14 /Times-Roman set_font
327.5 12.9 moveto 61 (shot/0.010) alignedtext
grestore
% 3->11
gsave
1 setlinewidth
0.000 0.000 0.000 edgecolor
newpath 826 143 moveto
817 151 806 161 793 166 curveto
601 247 492 93 327 220 curveto
326 221 306 268 294 300 curveto
stroke
0.000 0.000 0.000 edgecolor
newpath 290.86 298.44 moveto
290 309 lineto
297.26 301.28 lineto
closepath fill
1 setlinewidth
solid
0.000 0.000 0.000 edgecolor
newpath 290.86 298.44 moveto
290 309 lineto
297.26 301.28 lineto
closepath stroke
0.000 0.000 0.000 edgecolor
14 /Times-Roman set_font
553 194.9 moveto 56 (eps/4.316) alignedtext
grestore
% 11->0
gsave
1 setlinewidth
0.000 0.000 0.000 edgecolor
newpath 292 347 moveto
299 360 312 376 327 385 curveto
394 422 931 468 1080 480 curveto
stroke
0.000 0.000 0.000 edgecolor
newpath 1079.7 483.49 moveto
1090 481 lineto
1080.4 476.52 lineto
closepath fill
1 setlinewidth
solid
0.000 0.000 0.000 edgecolor
newpath 1079.7 483.49 moveto
1090 481 lineto
1080.4 476.52 lineto
closepath stroke
0.000 0.000 0.000 edgecolor
14 /Times-Roman set_font
729.5 455.9 moveto 63 (</s>/1.386) alignedtext
grestore
% 11->5
gsave
1 setlinewidth
0.000 0.000 0.000 edgecolor
newpath 263 336 moveto
255 340 246 343 237 346 curveto
215 353 188 359 169 363 curveto
stroke
0.000 0.000 0.000 edgecolor
newpath 168.12 359.61 moveto
159 365 lineto
169.49 366.47 lineto
closepath fill
1 setlinewidth
solid
0.000 0.000 0.000 edgecolor
newpath 168.12 359.61 moveto
159 365 lineto
169.49 366.47 lineto
closepath stroke
0.000 0.000 0.000 edgecolor
14 /Times-Roman set_font
177 363.9 moveto 60 (shot/1.386) alignedtext
grestore
% 11->3
gsave
1 setlinewidth
0.000 0.000 0.000 edgecolor
newpath 291 309 moveto
297 294 306 273 312 254 curveto
322 223 304 206 327 182 curveto
401 109 690 151 793 138 curveto
798 137 804 136 810 135 curveto
stroke
0.000 0.000 0.000 edgecolor
newpath 810.88 138.39 moveto
820 133 lineto
809.51 131.53 lineto
closepath fill
1 setlinewidth
solid
0.000 0.000 0.000 edgecolor
newpath 810.88 138.39 moveto
820 133 lineto
809.51 131.53 lineto
closepath stroke
0.000 0.000 0.000 edgecolor
14 /Times-Roman set_font
527 144.9 moveto 108 (<unknown>/2.079) alignedtext
grestore
% 7
gsave
1 setlinewidth
solid
0.000 0.000 0.000 nodecolor
838 355 18 18 ellipse_path stroke
0.000 0.000 0.000 nodecolor
14 /Times-Roman set_font
834.5 350.9 moveto 7 (7) alignedtext
grestore
% 11->7
gsave
1 setlinewidth
0.000 0.000 0.000 edgecolor
newpath 301 337 moveto
309 340 318 344 327 346 curveto
355 351 362 346 389 346 curveto
499 345 526 341 635 344 curveto
698 346 771 350 810 353 curveto
stroke
0.000 0.000 0.000 edgecolor
newpath 809.7 356.49 moveto
820 354 lineto
810.4 349.52 lineto
closepath fill
1 setlinewidth
solid
0.000 0.000 0.000 edgecolor
newpath 809.7 356.49 moveto
820 354 lineto
810.4 349.52 lineto
closepath stroke
0.000 0.000 0.000 edgecolor
14 /Times-Roman set_font
544 347.9 moveto 74 (hunter/2.079) alignedtext
grestore
% 9
gsave
1 setlinewidth
solid
0.000 0.000 0.000 nodecolor
458 236 18 18 ellipse_path stroke
0.000 0.000 0.000 nodecolor
14 /Times-Roman set_font
454 231.9 moveto 8 (9) alignedtext
grestore
% 11->9
gsave
1 setlinewidth
0.000 0.000 0.000 edgecolor
newpath 303 329 moveto
327 329 365 326 389 306 curveto
403 294 393 281 404 268 curveto
412 259 422 252 432 247 curveto
stroke
0.000 0.000 0.000 edgecolor
newpath 433.96 249.92 moveto
441 242 lineto
430.56 243.8 lineto
closepath fill
1 setlinewidth
solid
0.000 0.000 0.000 edgecolor
newpath 433.96 249.92 moveto
441 242 lineto
430.56 243.8 lineto
closepath stroke
0.000 0.000 0.000 edgecolor
14 /Times-Roman set_font
331 330.9 moveto 54 (the/1.386) alignedtext
grestore
% 4
gsave
1 setlinewidth
solid
0.000 0.000 0.000 nodecolor
978 386 18 18 ellipse_path stroke
0.000 0.000 0.000 nodecolor
14 /Times-Roman set_font
974 381.9 moveto 8 (4) alignedtext
grestore
% 4->0
gsave
1 setlinewidth
0.000 0.000 0.000 edgecolor
newpath 996 391 moveto
1016 397 1051 409 1075 428 curveto
1083 434 1091 442 1097 451 curveto
stroke
0.000 0.000 0.000 edgecolor
newpath 1094.2 453.1 moveto
1103 459 lineto
1099.8 448.9 lineto
closepath fill
1 setlinewidth
solid
0.000 0.000 0.000 edgecolor
newpath 1094.2 453.1 moveto
1103 459 lineto
1099.8 448.9 lineto
closepath stroke
0.000 0.000 0.000 edgecolor
14 /Times-Roman set_font
1011.5 431.9 moveto 63 (</s>/8.030) alignedtext
grestore
% 4->5
gsave
1 setlinewidth
0.000 0.000 0.000 edgecolor
newpath 961 393 moveto
929 405 857 431 793 444 curveto
701 461 676 461 581 461 curveto
282 461 282 461 282 461 curveto
231 461 184 418 159 391 curveto
stroke
0.000 0.000 0.000 edgecolor
newpath 161.22 388.22 moveto
152 383 lineto
155.95 392.83 lineto
closepath fill
1 setlinewidth
solid
0.000 0.000 0.000 edgecolor
newpath 161.22 388.22 moveto
152 383 lineto
155.95 392.83 lineto
closepath stroke
0.000 0.000 0.000 edgecolor
14 /Times-Roman set_font
554.5 464.9 moveto 53 (eps/-5.29) alignedtext
grestore
% 6
gsave
1 setlinewidth
solid
0.000 0.000 0.000 nodecolor
682 285 18 18 ellipse_path stroke
0.000 0.000 0.000 nodecolor
14 /Times-Roman set_font
678 280.9 moveto 8 (6) alignedtext
grestore
% 6->4
gsave
1 setlinewidth
0.000 0.000 0.000 edgecolor
newpath 700 284 moveto
734 284 810 286 868 311 curveto
902 324 936 350 957 367 curveto
stroke
0.000 0.000 0.000 edgecolor
newpath 955.17 370.05 moveto
965 374 lineto
959.78 364.78 lineto
closepath fill
1 setlinewidth
solid
0.000 0.000 0.000 edgecolor
newpath 955.17 370.05 moveto
965 374 lineto
959.78 364.78 lineto
closepath stroke
0.000 0.000 0.000 edgecolor
14 /Times-Roman set_font
808 314.9 moveto 60 (shot/8.030) alignedtext
grestore
% 6->7
gsave
1 setlinewidth
0.000 0.000 0.000 edgecolor
newpath 700 287 moveto
723 290 763 297 793 314 curveto
803 318 812 326 819 333 curveto
stroke
0.000 0.000 0.000 edgecolor
newpath 816.78 335.78 moveto
826 341 lineto
822.05 331.17 lineto
closepath fill
1 setlinewidth
solid
0.000 0.000 0.000 edgecolor
newpath 816.78 335.78 moveto
826 341 lineto
822.05 331.17 lineto
closepath stroke
0.000 0.000 0.000 edgecolor
14 /Times-Roman set_font
734.5 317.9 moveto 53 (eps/-4.60) alignedtext
grestore
% 7->11
gsave
1 setlinewidth
0.000 0.000 0.000 edgecolor
newpath 820 357 moveto
812 357 802 358 793 359 curveto
614 369 569 368 389 371 curveto
362 371 353 381 327 371 curveto
317 367 309 359 302 352 curveto
stroke
0.000 0.000 0.000 edgecolor
newpath 304.55 349.6 moveto
295 345 lineto
299.6 354.55 lineto
closepath fill
1 setlinewidth
solid
0.000 0.000 0.000 edgecolor
newpath 304.55 349.6 moveto
295 345 lineto
299.6 354.55 lineto
closepath stroke
0.000 0.000 0.000 edgecolor
14 /Times-Roman set_font
553 371.9 moveto 56 (eps/4.316) alignedtext
grestore
% 7->4
gsave
1 setlinewidth
0.000 0.000 0.000 edgecolor
newpath 856 359 moveto
879 364 922 374 950 380 curveto
stroke
0.000 0.000 0.000 edgecolor
newpath 949.51 383.47 moveto
960 382 lineto
950.88 376.61 lineto
closepath fill
1 setlinewidth
solid
0.000 0.000 0.000 edgecolor
newpath 949.51 383.47 moveto
960 382 lineto
950.88 376.61 lineto
closepath stroke
0.000 0.000 0.000 edgecolor
14 /Times-Roman set_font
883.5 380.9 moveto 61 (shot/0.010) alignedtext
grestore
% 8
gsave
1 setlinewidth
solid
0.000 0.000 0.000 nodecolor
282 227 18 18 ellipse_path stroke
0.000 0.000 0.000 nodecolor
14 /Times-Roman set_font
278.5 222.9 moveto 7 (8) alignedtext
grestore
% 8->2
gsave
1 setlinewidth
0.000 0.000 0.000 edgecolor
newpath 286 209 moveto
292 189 305 156 327 138 curveto
426 61 589 77 654 87 curveto
stroke
0.000 0.000 0.000 edgecolor
newpath 653.51 90.47 moveto
664 89 lineto
654.88 83.61 lineto
closepath fill
1 setlinewidth
solid
0.000 0.000 0.000 edgecolor
newpath 653.51 90.47 moveto
664 89 lineto
654.88 83.61 lineto
closepath stroke
0.000 0.000 0.000 edgecolor
14 /Times-Roman set_font
404.5 105.9 moveto 107 (<unknown>/8.723) alignedtext
grestore
% 8->6
gsave
1 setlinewidth
0.000 0.000 0.000 edgecolor
newpath 299 233 moveto
323 241 366 255 404 263 curveto
494 280 603 284 654 285 curveto
stroke
0.000 0.000 0.000 edgecolor
newpath 654 288.5 moveto
664 285 lineto
654 281.5 lineto
closepath fill
1 setlinewidth
solid
0.000 0.000 0.000 edgecolor
newpath 654 288.5 moveto
664 285 lineto
654 281.5 lineto
closepath stroke
0.000 0.000 0.000 edgecolor
14 /Times-Roman set_font
421.5 279.9 moveto 73 (hunter/8.723) alignedtext
grestore
% 8->9
gsave
1 setlinewidth
0.000 0.000 0.000 edgecolor
newpath 300 226 moveto
308 225 318 224 327 224 curveto
355 224 362 222 389 224 curveto
403 225 418 227 430 230 curveto
stroke
0.000 0.000 0.000 edgecolor
newpath 429.51 233.47 moveto
440 232 lineto
430.88 226.61 lineto
closepath fill
1 setlinewidth
solid
0.000 0.000 0.000 edgecolor
newpath 429.51 233.47 moveto
440 232 lineto
430.88 226.61 lineto
closepath stroke
0.000 0.000 0.000 edgecolor
14 /Times-Roman set_font
331.5 229.9 moveto 53 (eps/-4.60) alignedtext
grestore
% 9->2
gsave
1 setlinewidth
0.000 0.000 0.000 edgecolor
newpath 463 218 moveto
471 191 490 139 527 113 curveto
547 99 615 95 654 93 curveto
stroke
0.000 0.000 0.000 edgecolor
newpath 654 96.5 moveto
664 93 lineto
654 89.5 lineto
closepath fill
1 setlinewidth
solid
0.000 0.000 0.000 edgecolor
newpath 654 96.5 moveto
664 93 lineto
654 89.5 lineto
closepath stroke
0.000 0.000 0.000 edgecolor
14 /Times-Roman set_font
527 117.9 moveto 108 (<unknown>/0.703) alignedtext
grestore
% 9->11
gsave
1 setlinewidth
0.000 0.000 0.000 edgecolor
newpath 441 241 moveto
415 249 365 266 327 289 curveto
319 293 311 300 304 306 curveto
stroke
0.000 0.000 0.000 edgecolor
newpath 301.6 303.45 moveto
297 313 lineto
306.55 308.4 lineto
closepath fill
1 setlinewidth
solid
0.000 0.000 0.000 edgecolor
newpath 301.6 303.45 moveto
297 313 lineto
306.55 308.4 lineto
closepath stroke
0.000 0.000 0.000 edgecolor
14 /Times-Roman set_font
330 292.9 moveto 56 (eps/4.316) alignedtext
grestore
% 9->6
gsave
1 setlinewidth
0.000 0.000 0.000 edgecolor
newpath 476 236 moveto
509 237 579 240 635 259 curveto
643 262 651 266 658 270 curveto
stroke
0.000 0.000 0.000 edgecolor
newpath 656.56 273.2 moveto
667 275 lineto
659.96 267.08 lineto
closepath fill
1 setlinewidth
solid
0.000 0.000 0.000 edgecolor
newpath 656.56 273.2 moveto
667 275 lineto
659.96 267.08 lineto
closepath stroke
0.000 0.000 0.000 edgecolor
14 /Times-Roman set_font
544 262.9 moveto 74 (hunter/0.703) alignedtext
grestore
% 10
gsave
2 setlinewidth
bold
0.000 0.000 0.000 nodecolor
141 262 21.04 21.04 ellipse_path stroke
0.000 0.000 0.000 nodecolor
14 /Times-Roman set_font
133.5 257.9 moveto 15 (10) alignedtext
grestore
% 10->11
gsave
1 setlinewidth
0.000 0.000 0.000 edgecolor
newpath 161 268 moveto
181 274 212 285 237 298 curveto
244 301 250 305 257 309 curveto
stroke
0.000 0.000 0.000 edgecolor
newpath 254.9 311.8 moveto
265 315 lineto
259.1 306.2 lineto
closepath fill
1 setlinewidth
solid
0.000 0.000 0.000 edgecolor
newpath 254.9 311.8 moveto
265 315 lineto
259.1 306.2 lineto
closepath stroke
0.000 0.000 0.000 edgecolor
14 /Times-Roman set_font
179.5 301.9 moveto 55 (eps/5.009) alignedtext
grestore
% 10->8
gsave
1 setlinewidth
0.000 0.000 0.000 edgecolor
newpath 159 251 moveto
165 248 171 245 177 243 curveto
203 234 233 230 254 229 curveto
stroke
0.000 0.000 0.000 edgecolor
newpath 254.4 232.48 moveto
264 228 lineto
253.7 225.51 lineto
closepath fill
1 setlinewidth
solid
0.000 0.000 0.000 edgecolor
newpath 254.4 232.48 moveto
264 228 lineto
253.7 225.51 lineto
closepath stroke
0.000 0.000 0.000 edgecolor
14 /Times-Roman set_font
180 246.9 moveto 54 (the/0.005) alignedtext
grestore
endpage
showpage
grestore
%%PageTrailer
%%EndPage: 1
%%Trailer
%%Pages: 1
%%BoundingBox: 153 90 459 702
end
restore
%%EOF
