%!PS-Adobe-3.0 EPSF-3.0
%%Creator: Graphviz version 2.20.3 (Tue Oct 14 12:23:50 UTC 2008)
%%For: (ashishdepankaj) Ashish Depankaj
%%Title: FSM
%%Pages: (atend)
%%BoundingBox: (atend)
%%EndComments
save
%%BeginProlog
/DotDict 200 dict def
DotDict begin

/setupLatin1 {
mark
/EncodingVector 256 array def
 EncodingVector 0

ISOLatin1Encoding 0 255 getinterval putinterval
EncodingVector 45 /hyphen put

% Set up ISO Latin 1 character encoding
/starnetISO {
        dup dup findfont dup length dict begin
        { 1 index /FID ne { def }{ pop pop } ifelse
        } forall
        /Encoding EncodingVector def
        currentdict end definefont
} def
/Times-Roman starnetISO def
/Times-Italic starnetISO def
/Times-Bold starnetISO def
/Times-BoldItalic starnetISO def
/Helvetica starnetISO def
/Helvetica-Oblique starnetISO def
/Helvetica-Bold starnetISO def
/Helvetica-BoldOblique starnetISO def
/Courier starnetISO def
/Courier-Oblique starnetISO def
/Courier-Bold starnetISO def
/Courier-BoldOblique starnetISO def
cleartomark
} bind def

%%BeginResource: procset graphviz 0 0
/coord-font-family /Times-Roman def
/default-font-family /Times-Roman def
/coordfont coord-font-family findfont 8 scalefont def

/InvScaleFactor 1.0 def
/set_scale {
       dup 1 exch div /InvScaleFactor exch def
       scale
} bind def

% styles
/solid { [] 0 setdash } bind def
/dashed { [9 InvScaleFactor mul dup ] 0 setdash } bind def
/dotted { [1 InvScaleFactor mul 6 InvScaleFactor mul] 0 setdash } bind def
/invis {/fill {newpath} def /stroke {newpath} def /show {pop newpath} def} bind def
/bold { 2 setlinewidth } bind def
/filled { } bind def
/unfilled { } bind def
/rounded { } bind def
/diagonals { } bind def

% hooks for setting color 
/nodecolor { sethsbcolor } bind def
/edgecolor { sethsbcolor } bind def
/graphcolor { sethsbcolor } bind def
/nopcolor {pop pop pop} bind def

/beginpage {	% i j npages
	/npages exch def
	/j exch def
	/i exch def
	/str 10 string def
	npages 1 gt {
		gsave
			coordfont setfont
			0 0 moveto
			(\() show i str cvs show (,) show j str cvs show (\)) show
		grestore
	} if
} bind def

/set_font {
	findfont exch
	scalefont setfont
} def

% draw text fitted to its expected width
/alignedtext {			% width text
	/text exch def
	/width exch def
	gsave
		width 0 gt {
			[] 0 setdash
			text stringwidth pop width exch sub text length div 0 text ashow
		} if
	grestore
} def

/boxprim {				% xcorner ycorner xsize ysize
		4 2 roll
		moveto
		2 copy
		exch 0 rlineto
		0 exch rlineto
		pop neg 0 rlineto
		closepath
} bind def

/ellipse_path {
	/ry exch def
	/rx exch def
	/y exch def
	/x exch def
	matrix currentmatrix
	newpath
	x y translate
	rx ry scale
	0 0 1 0 360 arc
	setmatrix
} bind def

/endpage { showpage } bind def
/showpage { } def

/layercolorseq
	[	% layer color sequence - darkest to lightest
		[0 0 0]
		[.2 .8 .8]
		[.4 .8 .8]
		[.6 .8 .8]
		[.8 .8 .8]
	]
def

/layerlen layercolorseq length def

/setlayer {/maxlayer exch def /curlayer exch def
	layercolorseq curlayer 1 sub layerlen mod get
	aload pop sethsbcolor
	/nodecolor {nopcolor} def
	/edgecolor {nopcolor} def
	/graphcolor {nopcolor} def
} bind def

/onlayer { curlayer ne {invis} if } def

/onlayers {
	/myupper exch def
	/mylower exch def
	curlayer mylower lt
	curlayer myupper gt
	or
	{invis} if
} def

/curlayer 0 def

%%EndResource
%%EndProlog
%%BeginSetup
14 default-font-family set_font
1 setmiterlimit
% /arrowlength 10 def
% /arrowwidth 5 def

% make sure pdfmark is harmless for PS-interpreters other than Distiller
/pdfmark where {pop} {userdict /pdfmark /cleartomark load put} ifelse
% make '<<' and '>>' safe on PS Level 1 devices
/languagelevel where {pop languagelevel}{1} ifelse
2 lt {
    userdict (<<) cvn ([) cvn load put
    userdict (>>) cvn ([) cvn load put
} if

%%EndSetup
setupLatin1
%%Page: 1 1
%%PageBoundingBox: 60 104 552 688
%%PageOrientation: Landscape
0 0 1 beginpage
gsave
60 104 492 584 boxprim clip newpath
1 1 set_scale 90 rotate 108 -548 translate
0.000 0.000 0.000 graphcolor
14 /Times-Roman set_font
232 7.9 moveto 112 (sample2.counts.fsm) alignedtext
% 0
gsave
2 setlinewidth
bold
0.000 0.000 0.000 nodecolor
28 196 23.89 23.89 ellipse_path stroke
2 setlinewidth
bold
0.000 0.000 0.000 nodecolor
28 196 27.82 27.82 ellipse_path stroke
0.000 0.000 0.000 nodecolor
14 /Times-Roman set_font
18.5 191.9 moveto 19 (0/0) alignedtext
grestore
% 2
gsave
1 setlinewidth
solid
0.000 0.000 0.000 nodecolor
198 405 23.89 23.89 ellipse_path stroke
1 setlinewidth
solid
0.000 0.000 0.000 nodecolor
198 405 27.82 27.82 ellipse_path stroke
0.000 0.000 0.000 nodecolor
14 /Times-Roman set_font
188.5 400.9 moveto 19 (2/0) alignedtext
grestore
% 0->2
gsave
1 setlinewidth
0.000 0.000 0.000 edgecolor
newpath 35 224 moveto
41 247 53 281 71 306 curveto
96 339 136 368 164 386 curveto
stroke
0.000 0.000 0.000 edgecolor
newpath 162.56 389.2 moveto
173 391 lineto
165.96 383.08 lineto
closepath fill
1 setlinewidth
solid
0.000 0.000 0.000 edgecolor
newpath 162.56 389.2 moveto
173 391 lineto
165.96 383.08 lineto
closepath stroke
0.000 0.000 0.000 edgecolor
14 /Times-Roman set_font
95.5 380.9 moveto 35 (<s>/1) alignedtext
grestore
% 4
gsave
1 setlinewidth
solid
0.000 0.000 0.000 nodecolor
198 305 23.89 23.89 ellipse_path stroke
1 setlinewidth
solid
0.000 0.000 0.000 nodecolor
198 305 27.82 27.82 ellipse_path stroke
0.000 0.000 0.000 nodecolor
14 /Times-Roman set_font
188.5 300.9 moveto 19 (4/0) alignedtext
grestore
% 0->4
gsave
1 setlinewidth
0.000 0.000 0.000 edgecolor
newpath 47 217 moveto
54 225 63 233 71 239 curveto
100 259 137 278 163 290 curveto
stroke
0.000 0.000 0.000 edgecolor
newpath 161.44 293.14 moveto
172 294 lineto
164.28 286.74 lineto
closepath fill
1 setlinewidth
solid
0.000 0.000 0.000 edgecolor
newpath 161.44 293.14 moveto
172 294 lineto
164.28 286.74 lineto
closepath stroke
0.000 0.000 0.000 edgecolor
14 /Times-Roman set_font
98.5 288.9 moveto 29 (the/2) alignedtext
grestore
% 6
gsave
1 setlinewidth
solid
0.000 0.000 0.000 nodecolor
198 229 23.89 23.89 ellipse_path stroke
1 setlinewidth
solid
0.000 0.000 0.000 nodecolor
198 229 27.82 27.82 ellipse_path stroke
0.000 0.000 0.000 nodecolor
14 /Times-Roman set_font
188.5 224.9 moveto 19 (6/0) alignedtext
grestore
% 0->6
gsave
1 setlinewidth
0.000 0.000 0.000 edgecolor
newpath 56 201 moveto
84 207 129 216 160 222 curveto
stroke
0.000 0.000 0.000 edgecolor
newpath 159.51 225.47 moveto
170 224 lineto
160.88 218.61 lineto
closepath fill
1 setlinewidth
solid
0.000 0.000 0.000 edgecolor
newpath 159.51 225.47 moveto
170 224 lineto
160.88 218.61 lineto
closepath stroke
0.000 0.000 0.000 edgecolor
14 /Times-Roman set_font
88.5 221.9 moveto 49 (hunter/1) alignedtext
grestore
% 8
gsave
1 setlinewidth
solid
0.000 0.000 0.000 nodecolor
198 156 23.2 23.2 ellipse_path stroke
1 setlinewidth
solid
0.000 0.000 0.000 nodecolor
198 156 27.12 27.12 ellipse_path stroke
0.000 0.000 0.000 nodecolor
14 /Times-Roman set_font
189 151.9 moveto 18 (8/0) alignedtext
grestore
% 0->8
gsave
1 setlinewidth
0.000 0.000 0.000 edgecolor
newpath 55 187 moveto
60 186 66 184 71 183 curveto
101 175 135 168 161 163 curveto
stroke
0.000 0.000 0.000 edgecolor
newpath 161.88 166.39 moveto
171 161 lineto
160.51 159.53 lineto
closepath fill
1 setlinewidth
solid
0.000 0.000 0.000 edgecolor
newpath 161.88 166.39 moveto
171 161 lineto
160.51 159.53 lineto
closepath stroke
0.000 0.000 0.000 edgecolor
14 /Times-Roman set_font
95.5 186.9 moveto 35 (shot/1) alignedtext
grestore
% 11
gsave
1 setlinewidth
solid
0.000 0.000 0.000 nodecolor
283 100 29.19 29.19 ellipse_path stroke
1 setlinewidth
solid
0.000 0.000 0.000 nodecolor
283 100 33.19 33.19 ellipse_path stroke
0.000 0.000 0.000 nodecolor
14 /Times-Roman set_font
270 95.9 moveto 26 (11/0) alignedtext
grestore
% 0->11
gsave
1 setlinewidth
0.000 0.000 0.000 edgecolor
newpath 42 172 moveto
49 161 59 149 71 142 curveto
123 110 195 101 240 99 curveto
stroke
0.000 0.000 0.000 edgecolor
newpath 240 102.5 moveto
250 99 lineto
240 95.5 lineto
closepath fill
1 setlinewidth
solid
0.000 0.000 0.000 edgecolor
newpath 240 102.5 moveto
250 99 lineto
240 95.5 lineto
closepath stroke
0.000 0.000 0.000 edgecolor
14 /Times-Roman set_font
71.5 145.9 moveto 83 (<unknown>/1) alignedtext
grestore
% 1
gsave
1 setlinewidth
solid
0.000 0.000 0.000 nodecolor
548 227 23.89 23.89 ellipse_path stroke
1 setlinewidth
solid
0.000 0.000 0.000 nodecolor
548 227 27.82 27.82 ellipse_path stroke
0.000 0.000 0.000 nodecolor
14 /Times-Roman set_font
538.5 222.9 moveto 19 (1/0) alignedtext
grestore
% 0->1
gsave
1 setlinewidth
0.000 0.000 0.000 edgecolor
newpath 35 169 moveto
42 149 53 122 71 105 curveto
157 27 210 23 325 41 curveto
409 55 446 40 505 99 curveto
529 123 540 161 544 189 curveto
stroke
0.000 0.000 0.000 edgecolor
newpath 540.61 189.88 moveto
546 199 lineto
547.47 188.51 lineto
closepath fill
1 setlinewidth
solid
0.000 0.000 0.000 edgecolor
newpath 540.61 189.88 moveto
546 199 lineto
547.47 188.51 lineto
closepath stroke
0.000 0.000 0.000 edgecolor
14 /Times-Roman set_font
264 45.9 moveto 38 (</s>/1) alignedtext
grestore
% 3
gsave
1 setlinewidth
solid
0.000 0.000 0.000 nodecolor
373 456 23.89 23.89 ellipse_path stroke
1 setlinewidth
solid
0.000 0.000 0.000 nodecolor
373 456 27.82 27.82 ellipse_path stroke
0.000 0.000 0.000 nodecolor
14 /Times-Roman set_font
363.5 451.9 moveto 19 (3/0) alignedtext
grestore
% 2->3
gsave
1 setlinewidth
0.000 0.000 0.000 edgecolor
newpath 225 413 moveto
255 421 303 435 336 445 curveto
stroke
0.000 0.000 0.000 edgecolor
newpath 335.42 448.48 moveto
346 448 lineto
337.43 441.77 lineto
closepath fill
1 setlinewidth
solid
0.000 0.000 0.000 edgecolor
newpath 335.42 448.48 moveto
346 448 lineto
337.43 441.77 lineto
closepath stroke
0.000 0.000 0.000 edgecolor
14 /Times-Roman set_font
268.5 443.9 moveto 29 (the/1) alignedtext
grestore
% 5
gsave
1 setlinewidth
solid
0.000 0.000 0.000 nodecolor
373 383 23.2 23.2 ellipse_path stroke
1 setlinewidth
solid
0.000 0.000 0.000 nodecolor
373 383 27.12 27.12 ellipse_path stroke
0.000 0.000 0.000 nodecolor
14 /Times-Roman set_font
364 378.9 moveto 18 (5/0) alignedtext
grestore
% 4->5
gsave
1 setlinewidth
0.000 0.000 0.000 edgecolor
newpath 224 318 moveto
229 320 235 323 241 326 curveto
274 340 312 357 339 368 curveto
stroke
0.000 0.000 0.000 edgecolor
newpath 337.44 371.14 moveto
348 372 lineto
340.28 364.74 lineto
closepath fill
1 setlinewidth
solid
0.000 0.000 0.000 edgecolor
newpath 337.44 371.14 moveto
348 372 lineto
340.28 364.74 lineto
closepath stroke
0.000 0.000 0.000 edgecolor
14 /Times-Roman set_font
258.5 363.9 moveto 49 (hunter/1) alignedtext
grestore
% 10
gsave
1 setlinewidth
solid
0.000 0.000 0.000 nodecolor
373 305 29.19 29.19 ellipse_path stroke
1 setlinewidth
solid
0.000 0.000 0.000 nodecolor
373 305 33.19 33.19 ellipse_path stroke
0.000 0.000 0.000 nodecolor
14 /Times-Roman set_font
360 300.9 moveto 26 (10/0) alignedtext
grestore
% 4->10
gsave
1 setlinewidth
0.000 0.000 0.000 edgecolor
newpath 226 305 moveto
254 305 297 305 330 305 curveto
stroke
0.000 0.000 0.000 edgecolor
newpath 330 308.5 moveto
340 305 lineto
330 301.5 lineto
closepath fill
1 setlinewidth
solid
0.000 0.000 0.000 edgecolor
newpath 330 308.5 moveto
340 305 lineto
330 301.5 lineto
closepath stroke
0.000 0.000 0.000 edgecolor
14 /Times-Roman set_font
241.5 308.9 moveto 83 (<unknown>/1) alignedtext
grestore
% 7
gsave
1 setlinewidth
solid
0.000 0.000 0.000 nodecolor
373 227 23.2 23.2 ellipse_path stroke
1 setlinewidth
solid
0.000 0.000 0.000 nodecolor
373 227 27.12 27.12 ellipse_path stroke
0.000 0.000 0.000 nodecolor
14 /Times-Roman set_font
364 222.9 moveto 18 (7/0) alignedtext
grestore
% 6->7
gsave
1 setlinewidth
0.000 0.000 0.000 edgecolor
newpath 226 229 moveto
256 228 303 228 336 227 curveto
stroke
0.000 0.000 0.000 edgecolor
newpath 336 230.5 moveto
346 227 lineto
336 223.5 lineto
closepath fill
1 setlinewidth
solid
0.000 0.000 0.000 edgecolor
newpath 336 230.5 moveto
346 227 lineto
336 223.5 lineto
closepath stroke
0.000 0.000 0.000 edgecolor
14 /Times-Roman set_font
265.5 230.9 moveto 35 (shot/1) alignedtext
grestore
% 9
gsave
1 setlinewidth
solid
0.000 0.000 0.000 nodecolor
373 154 23.89 23.89 ellipse_path stroke
1 setlinewidth
solid
0.000 0.000 0.000 nodecolor
373 154 27.82 27.82 ellipse_path stroke
0.000 0.000 0.000 nodecolor
14 /Times-Roman set_font
363.5 149.9 moveto 19 (9/0) alignedtext
grestore
% 8->9
gsave
1 setlinewidth
0.000 0.000 0.000 edgecolor
newpath 225 156 moveto
255 155 302 155 335 154 curveto
stroke
0.000 0.000 0.000 edgecolor
newpath 335 157.5 moveto
345 154 lineto
335 150.5 lineto
closepath fill
1 setlinewidth
solid
0.000 0.000 0.000 edgecolor
newpath 335 157.5 moveto
345 154 lineto
335 150.5 lineto
closepath stroke
0.000 0.000 0.000 edgecolor
14 /Times-Roman set_font
268.5 157.9 moveto 29 (the/1) alignedtext
grestore
% 11->1
gsave
1 setlinewidth
0.000 0.000 0.000 edgecolor
newpath 316 95 moveto
341 92 377 91 406 100 curveto
457 115 468 129 505 166 curveto
513 174 521 185 528 194 curveto
stroke
0.000 0.000 0.000 edgecolor
newpath 525.2 196.1 moveto
534 202 lineto
530.8 191.9 lineto
closepath fill
1 setlinewidth
solid
0.000 0.000 0.000 edgecolor
newpath 525.2 196.1 moveto
534 202 lineto
530.8 191.9 lineto
closepath stroke
0.000 0.000 0.000 edgecolor
14 /Times-Roman set_font
354 103.9 moveto 38 (</s>/1) alignedtext
grestore
% 3->1
gsave
1 setlinewidth
0.000 0.000 0.000 edgecolor
newpath 400 448 moveto
430 437 478 416 505 382 curveto
520 364 534 305 541 265 curveto
stroke
0.000 0.000 0.000 edgecolor
newpath 544.47 265.49 moveto
543 255 lineto
537.61 264.12 lineto
closepath fill
1 setlinewidth
solid
0.000 0.000 0.000 edgecolor
newpath 544.47 265.49 moveto
543 255 lineto
537.61 264.12 lineto
closepath stroke
0.000 0.000 0.000 edgecolor
14 /Times-Roman set_font
438.5 441.9 moveto 49 (hunter/1) alignedtext
grestore
% 5->1
gsave
1 setlinewidth
0.000 0.000 0.000 edgecolor
newpath 398 373 moveto
427 360 474 337 505 305 curveto
517 293 527 277 534 262 curveto
stroke
0.000 0.000 0.000 edgecolor
newpath 537.14 263.56 moveto
538 253 lineto
530.74 260.72 lineto
closepath fill
1 setlinewidth
solid
0.000 0.000 0.000 edgecolor
newpath 537.14 263.56 moveto
538 253 lineto
530.74 260.72 lineto
closepath stroke
0.000 0.000 0.000 edgecolor
14 /Times-Roman set_font
445.5 364.9 moveto 35 (shot/1) alignedtext
grestore
% 10->1
gsave
1 setlinewidth
0.000 0.000 0.000 edgecolor
newpath 404 292 moveto
430 281 471 263 505 248 curveto
508 247 511 245 514 244 curveto
stroke
0.000 0.000 0.000 edgecolor
newpath 515.28 247.26 moveto
523 240 lineto
512.44 240.86 lineto
closepath fill
1 setlinewidth
solid
0.000 0.000 0.000 edgecolor
newpath 515.28 247.26 moveto
523 240 lineto
512.44 240.86 lineto
closepath stroke
0.000 0.000 0.000 edgecolor
14 /Times-Roman set_font
444 287.9 moveto 38 (</s>/1) alignedtext
grestore
% 7->1
gsave
1 setlinewidth
0.000 0.000 0.000 edgecolor
newpath 400 227 moveto
430 227 477 227 510 227 curveto
stroke
0.000 0.000 0.000 edgecolor
newpath 510 230.5 moveto
520 227 lineto
510 223.5 lineto
closepath fill
1 setlinewidth
solid
0.000 0.000 0.000 edgecolor
newpath 510 230.5 moveto
520 227 lineto
510 223.5 lineto
closepath stroke
0.000 0.000 0.000 edgecolor
14 /Times-Roman set_font
448.5 230.9 moveto 29 (the/1) alignedtext
grestore
% 9->1
gsave
1 setlinewidth
0.000 0.000 0.000 edgecolor
newpath 399 164 moveto
426 173 469 190 505 206 curveto
508 207 511 208 514 210 curveto
stroke
0.000 0.000 0.000 edgecolor
newpath 512.44 213.14 moveto
523 214 lineto
515.28 206.74 lineto
closepath fill
1 setlinewidth
solid
0.000 0.000 0.000 edgecolor
newpath 512.44 213.14 moveto
523 214 lineto
515.28 206.74 lineto
closepath stroke
0.000 0.000 0.000 edgecolor
14 /Times-Roman set_font
421.5 209.9 moveto 83 (<unknown>/1) alignedtext
grestore
endpage
showpage
grestore
%%PageTrailer
%%EndPage: 1
%%Trailer
%%Pages: 1
%%BoundingBox: 60 104 552 688
end
restore
%%EOF
