%!PS-Adobe-3.0 EPSF-3.0
%%Creator: Graphviz version 2.20.3 (Tue Oct 14 12:23:50 UTC 2008)
%%For: (ashishdepankaj) Ashish Depankaj
%%Title: FSM
%%Pages: (atend)
%%BoundingBox: (atend)
%%EndComments
save
%%BeginProlog
/DotDict 200 dict def
DotDict begin

/setupLatin1 {
mark
/EncodingVector 256 array def
 EncodingVector 0

ISOLatin1Encoding 0 255 getinterval putinterval
EncodingVector 45 /hyphen put

% Set up ISO Latin 1 character encoding
/starnetISO {
        dup dup findfont dup length dict begin
        { 1 index /FID ne { def }{ pop pop } ifelse
        } forall
        /Encoding EncodingVector def
        currentdict end definefont
} def
/Times-Roman starnetISO def
/Times-Italic starnetISO def
/Times-Bold starnetISO def
/Times-BoldItalic starnetISO def
/Helvetica starnetISO def
/Helvetica-Oblique starnetISO def
/Helvetica-Bold starnetISO def
/Helvetica-BoldOblique starnetISO def
/Courier starnetISO def
/Courier-Oblique starnetISO def
/Courier-Bold starnetISO def
/Courier-BoldOblique starnetISO def
cleartomark
} bind def

%%BeginResource: procset graphviz 0 0
/coord-font-family /Times-Roman def
/default-font-family /Times-Roman def
/coordfont coord-font-family findfont 8 scalefont def

/InvScaleFactor 1.0 def
/set_scale {
       dup 1 exch div /InvScaleFactor exch def
       scale
} bind def

% styles
/solid { [] 0 setdash } bind def
/dashed { [9 InvScaleFactor mul dup ] 0 setdash } bind def
/dotted { [1 InvScaleFactor mul 6 InvScaleFactor mul] 0 setdash } bind def
/invis {/fill {newpath} def /stroke {newpath} def /show {pop newpath} def} bind def
/bold { 2 setlinewidth } bind def
/filled { } bind def
/unfilled { } bind def
/rounded { } bind def
/diagonals { } bind def

% hooks for setting color 
/nodecolor { sethsbcolor } bind def
/edgecolor { sethsbcolor } bind def
/graphcolor { sethsbcolor } bind def
/nopcolor {pop pop pop} bind def

/beginpage {	% i j npages
	/npages exch def
	/j exch def
	/i exch def
	/str 10 string def
	npages 1 gt {
		gsave
			coordfont setfont
			0 0 moveto
			(\() show i str cvs show (,) show j str cvs show (\)) show
		grestore
	} if
} bind def

/set_font {
	findfont exch
	scalefont setfont
} def

% draw text fitted to its expected width
/alignedtext {			% width text
	/text exch def
	/width exch def
	gsave
		width 0 gt {
			[] 0 setdash
			text stringwidth pop width exch sub text length div 0 text ashow
		} if
	grestore
} def

/boxprim {				% xcorner ycorner xsize ysize
		4 2 roll
		moveto
		2 copy
		exch 0 rlineto
		0 exch rlineto
		pop neg 0 rlineto
		closepath
} bind def

/ellipse_path {
	/ry exch def
	/rx exch def
	/y exch def
	/x exch def
	matrix currentmatrix
	newpath
	x y translate
	rx ry scale
	0 0 1 0 360 arc
	setmatrix
} bind def

/endpage { showpage } bind def
/showpage { } def

/layercolorseq
	[	% layer color sequence - darkest to lightest
		[0 0 0]
		[.2 .8 .8]
		[.4 .8 .8]
		[.6 .8 .8]
		[.8 .8 .8]
	]
def

/layerlen layercolorseq length def

/setlayer {/maxlayer exch def /curlayer exch def
	layercolorseq curlayer 1 sub layerlen mod get
	aload pop sethsbcolor
	/nodecolor {nopcolor} def
	/edgecolor {nopcolor} def
	/graphcolor {nopcolor} def
} bind def

/onlayer { curlayer ne {invis} if } def

/onlayers {
	/myupper exch def
	/mylower exch def
	curlayer mylower lt
	curlayer myupper gt
	or
	{invis} if
} def

/curlayer 0 def

%%EndResource
%%EndProlog
%%BeginSetup
14 default-font-family set_font
1 setmiterlimit
% /arrowlength 10 def
% /arrowwidth 5 def

% make sure pdfmark is harmless for PS-interpreters other than Distiller
/pdfmark where {pop} {userdict /pdfmark /cleartomark load put} ifelse
% make '<<' and '>>' safe on PS Level 1 devices
/languagelevel where {pop languagelevel}{1} ifelse
2 lt {
    userdict (<<) cvn ([) cvn load put
    userdict (>>) cvn ([) cvn load put
} if

%%EndSetup
setupLatin1
%%Page: 1 1
%%PageBoundingBox: 36 148 735 644
%%PageOrientation: Landscape
0 0 1 beginpage
gsave
36 148 699 496 boxprim clip newpath
1 1 set_scale 90 rotate 152 -731 translate
% 0
gsave
2 setlinewidth
bold
0.000 0.000 0.000 nodecolor
28 249 23.89 23.89 ellipse_path stroke
2 setlinewidth
bold
0.000 0.000 0.000 nodecolor
28 249 27.82 27.82 ellipse_path stroke
0.000 0.000 0.000 nodecolor
14 /Times-Roman set_font
18.5 244.9 moveto 19 (0/0) alignedtext
grestore
% 2
gsave
1 setlinewidth
solid
0.000 0.000 0.000 nodecolor
163 584 23.89 23.89 ellipse_path stroke
1 setlinewidth
solid
0.000 0.000 0.000 nodecolor
163 584 27.82 27.82 ellipse_path stroke
0.000 0.000 0.000 nodecolor
14 /Times-Roman set_font
153.5 579.9 moveto 19 (2/0) alignedtext
grestore
% 0->2
gsave
1 setlinewidth
0.000 0.000 0.000 edgecolor
newpath 33 277 moveto
39 311 52 371 71 421 curveto
90 469 121 520 142 552 curveto
stroke
0.000 0.000 0.000 edgecolor
newpath 139.08 553.96 moveto
147 561 lineto
145.2 550.56 lineto
closepath fill
1 setlinewidth
solid
0.000 0.000 0.000 edgecolor
newpath 139.08 553.96 moveto
147 561 lineto
145.2 550.56 lineto
closepath stroke
0.000 0.000 0.000 edgecolor
14 /Times-Roman set_font
75.5 504.9 moveto 35 (<s>/2) alignedtext
grestore
% 4
gsave
1 setlinewidth
solid
0.000 0.000 0.000 nodecolor
163 452 23.89 23.89 ellipse_path stroke
1 setlinewidth
solid
0.000 0.000 0.000 nodecolor
163 452 27.82 27.82 ellipse_path stroke
0.000 0.000 0.000 nodecolor
14 /Times-Roman set_font
153.5 447.9 moveto 19 (4/0) alignedtext
grestore
% 0->4
gsave
1 setlinewidth
0.000 0.000 0.000 edgecolor
newpath 37 276 moveto
45 296 57 325 71 348 curveto
90 376 115 405 135 425 curveto
stroke
0.000 0.000 0.000 edgecolor
newpath 132.45 427.4 moveto
142 432 lineto
137.4 422.45 lineto
closepath fill
1 setlinewidth
solid
0.000 0.000 0.000 edgecolor
newpath 132.45 427.4 moveto
142 432 lineto
137.4 422.45 lineto
closepath stroke
0.000 0.000 0.000 edgecolor
14 /Times-Roman set_font
78.5 403.9 moveto 29 (the/1) alignedtext
grestore
% 6
gsave
1 setlinewidth
solid
0.000 0.000 0.000 nodecolor
163 375 23.89 23.89 ellipse_path stroke
1 setlinewidth
solid
0.000 0.000 0.000 nodecolor
163 375 27.82 27.82 ellipse_path stroke
0.000 0.000 0.000 nodecolor
14 /Times-Roman set_font
153.5 370.9 moveto 19 (6/0) alignedtext
grestore
% 0->6
gsave
1 setlinewidth
0.000 0.000 0.000 edgecolor
newpath 49 268 moveto
56 275 64 283 71 290 curveto
93 310 117 332 134 349 curveto
stroke
0.000 0.000 0.000 edgecolor
newpath 132.17 352.05 moveto
142 356 lineto
136.78 346.78 lineto
closepath fill
1 setlinewidth
solid
0.000 0.000 0.000 edgecolor
newpath 132.17 352.05 moveto
142 356 lineto
136.78 346.78 lineto
closepath stroke
0.000 0.000 0.000 edgecolor
14 /Times-Roman set_font
76 330.9 moveto 34 (dog/2) alignedtext
grestore
% 8
gsave
1 setlinewidth
solid
0.000 0.000 0.000 nodecolor
163 282 23.2 23.2 ellipse_path stroke
1 setlinewidth
solid
0.000 0.000 0.000 nodecolor
163 282 27.12 27.12 ellipse_path stroke
0.000 0.000 0.000 nodecolor
14 /Times-Roman set_font
154 277.9 moveto 18 (8/0) alignedtext
grestore
% 0->8
gsave
1 setlinewidth
0.000 0.000 0.000 edgecolor
newpath 55 256 moveto
76 260 104 268 127 273 curveto
stroke
0.000 0.000 0.000 edgecolor
newpath 126.51 276.47 moveto
137 275 lineto
127.88 269.61 lineto
closepath fill
1 setlinewidth
solid
0.000 0.000 0.000 edgecolor
newpath 126.51 276.47 moveto
137 275 lineto
127.88 269.61 lineto
closepath stroke
0.000 0.000 0.000 edgecolor
14 /Times-Roman set_font
78 272.9 moveto 30 (ran/2) alignedtext
grestore
% 10
gsave
1 setlinewidth
solid
0.000 0.000 0.000 nodecolor
244 224 29.19 29.19 ellipse_path stroke
1 setlinewidth
solid
0.000 0.000 0.000 nodecolor
244 224 33.19 33.19 ellipse_path stroke
0.000 0.000 0.000 nodecolor
14 /Times-Roman set_font
231 219.9 moveto 26 (10/0) alignedtext
grestore
% 0->10
gsave
1 setlinewidth
0.000 0.000 0.000 edgecolor
newpath 55 241 moveto
60 239 66 238 71 237 curveto
114 229 165 226 201 224 curveto
stroke
0.000 0.000 0.000 edgecolor
newpath 201 227.5 moveto
211 224 lineto
201 220.5 lineto
closepath fill
1 setlinewidth
solid
0.000 0.000 0.000 edgecolor
newpath 201 227.5 moveto
211 224 lineto
201 220.5 lineto
closepath stroke
0.000 0.000 0.000 edgecolor
14 /Times-Roman set_font
77.5 240.9 moveto 31 (fast/1) alignedtext
grestore
% 1
gsave
1 setlinewidth
solid
0.000 0.000 0.000 nodecolor
460 354 23.89 23.89 ellipse_path stroke
1 setlinewidth
solid
0.000 0.000 0.000 nodecolor
460 354 27.82 27.82 ellipse_path stroke
0.000 0.000 0.000 nodecolor
14 /Times-Roman set_font
450.5 349.9 moveto 19 (1/0) alignedtext
grestore
% 0->1
gsave
1 setlinewidth
0.000 0.000 0.000 edgecolor
newpath 51 233 moveto
94 203 191 147 277 165 curveto
344 178 372 175 417 225 curveto
440 250 451 288 455 316 curveto
stroke
0.000 0.000 0.000 edgecolor
newpath 451.61 316.88 moveto
457 326 lineto
458.47 315.51 lineto
closepath fill
1 setlinewidth
solid
0.000 0.000 0.000 edgecolor
newpath 451.61 316.88 moveto
457 326 lineto
458.47 315.51 lineto
closepath stroke
0.000 0.000 0.000 edgecolor
14 /Times-Roman set_font
225 168.9 moveto 38 (</s>/2) alignedtext
grestore
% 12
gsave
1 setlinewidth
solid
0.000 0.000 0.000 nodecolor
163 107 29.19 29.19 ellipse_path stroke
1 setlinewidth
solid
0.000 0.000 0.000 nodecolor
163 107 33.19 33.19 ellipse_path stroke
0.000 0.000 0.000 nodecolor
14 /Times-Roman set_font
150 102.9 moveto 26 (12/0) alignedtext
grestore
% 0->12
gsave
1 setlinewidth
0.000 0.000 0.000 edgecolor
newpath 32 221 moveto
37 196 48 159 71 137 curveto
84 125 103 117 120 113 curveto
stroke
0.000 0.000 0.000 edgecolor
newpath 120.88 116.39 moveto
130 111 lineto
119.51 109.53 lineto
closepath fill
1 setlinewidth
solid
0.000 0.000 0.000 edgecolor
newpath 120.88 116.39 moveto
130 111 lineto
119.51 109.53 lineto
closepath stroke
0.000 0.000 0.000 edgecolor
14 /Times-Roman set_font
85.5 140.9 moveto 15 (i/1) alignedtext
grestore
% 15
gsave
1 setlinewidth
solid
0.000 0.000 0.000 nodecolor
244 41 29.19 29.19 ellipse_path stroke
1 setlinewidth
solid
0.000 0.000 0.000 nodecolor
244 41 33.19 33.19 ellipse_path stroke
0.000 0.000 0.000 nodecolor
14 /Times-Roman set_font
231 36.9 moveto 26 (15/0) alignedtext
grestore
% 0->15
gsave
1 setlinewidth
0.000 0.000 0.000 edgecolor
newpath 33 221 moveto
40 182 55 112 71 93 curveto
103 55 161 45 201 42 curveto
stroke
0.000 0.000 0.000 edgecolor
newpath 201.4 45.48 moveto
211 41 lineto
200.7 38.51 lineto
closepath fill
1 setlinewidth
solid
0.000 0.000 0.000 edgecolor
newpath 201.4 45.48 moveto
211 41 lineto
200.7 38.51 lineto
closepath stroke
0.000 0.000 0.000 edgecolor
14 /Times-Roman set_font
71 99.9 moveto 44 (home/1) alignedtext
grestore
% 3
gsave
1 setlinewidth
solid
0.000 0.000 0.000 nodecolor
325 663 23.89 23.89 ellipse_path stroke
1 setlinewidth
solid
0.000 0.000 0.000 nodecolor
325 663 27.82 27.82 ellipse_path stroke
0.000 0.000 0.000 nodecolor
14 /Times-Roman set_font
315.5 658.9 moveto 19 (3/0) alignedtext
grestore
% 2->3
gsave
1 setlinewidth
0.000 0.000 0.000 edgecolor
newpath 188 596 moveto
216 610 260 631 291 647 curveto
stroke
0.000 0.000 0.000 edgecolor
newpath 289.44 650.14 moveto
300 651 lineto
292.28 643.74 lineto
closepath fill
1 setlinewidth
solid
0.000 0.000 0.000 edgecolor
newpath 289.44 650.14 moveto
300 651 lineto
292.28 643.74 lineto
closepath stroke
0.000 0.000 0.000 edgecolor
14 /Times-Roman set_font
229.5 639.9 moveto 29 (the/1) alignedtext
grestore
% 11
gsave
1 setlinewidth
solid
0.000 0.000 0.000 nodecolor
325 584 29.19 29.19 ellipse_path stroke
1 setlinewidth
solid
0.000 0.000 0.000 nodecolor
325 584 33.19 33.19 ellipse_path stroke
0.000 0.000 0.000 nodecolor
14 /Times-Roman set_font
312 579.9 moveto 26 (11/0) alignedtext
grestore
% 2->11
gsave
1 setlinewidth
0.000 0.000 0.000 edgecolor
newpath 191 584 moveto
216 584 253 584 282 584 curveto
stroke
0.000 0.000 0.000 edgecolor
newpath 282 587.5 moveto
292 584 lineto
282 580.5 lineto
closepath fill
1 setlinewidth
solid
0.000 0.000 0.000 edgecolor
newpath 282 587.5 moveto
292 584 lineto
282 580.5 lineto
closepath stroke
0.000 0.000 0.000 edgecolor
14 /Times-Roman set_font
236.5 587.9 moveto 15 (i/1) alignedtext
grestore
% 5
gsave
1 setlinewidth
solid
0.000 0.000 0.000 nodecolor
325 506 23.2 23.2 ellipse_path stroke
1 setlinewidth
solid
0.000 0.000 0.000 nodecolor
325 506 27.12 27.12 ellipse_path stroke
0.000 0.000 0.000 nodecolor
14 /Times-Roman set_font
316 501.9 moveto 18 (5/0) alignedtext
grestore
% 4->5
gsave
1 setlinewidth
0.000 0.000 0.000 edgecolor
newpath 190 461 moveto
217 470 259 484 289 494 curveto
stroke
0.000 0.000 0.000 edgecolor
newpath 288.42 497.48 moveto
299 497 lineto
290.43 490.77 lineto
closepath fill
1 setlinewidth
solid
0.000 0.000 0.000 edgecolor
newpath 288.42 497.48 moveto
299 497 lineto
290.43 490.77 lineto
closepath stroke
0.000 0.000 0.000 edgecolor
14 /Times-Roman set_font
227 491.9 moveto 34 (dog/1) alignedtext
grestore
% 7
gsave
1 setlinewidth
solid
0.000 0.000 0.000 nodecolor
325 434 23.2 23.2 ellipse_path stroke
1 setlinewidth
solid
0.000 0.000 0.000 nodecolor
325 434 27.12 27.12 ellipse_path stroke
0.000 0.000 0.000 nodecolor
14 /Times-Roman set_font
316 429.9 moveto 18 (7/0) alignedtext
grestore
% 6->7
gsave
1 setlinewidth
0.000 0.000 0.000 edgecolor
newpath 189 385 moveto
217 395 260 411 290 422 curveto
stroke
0.000 0.000 0.000 edgecolor
newpath 289.42 425.48 moveto
300 425 lineto
291.43 418.77 lineto
closepath fill
1 setlinewidth
solid
0.000 0.000 0.000 edgecolor
newpath 289.42 425.48 moveto
300 425 lineto
291.43 418.77 lineto
closepath stroke
0.000 0.000 0.000 edgecolor
14 /Times-Roman set_font
229 417.9 moveto 30 (ran/2) alignedtext
grestore
% 9
gsave
1 setlinewidth
solid
0.000 0.000 0.000 nodecolor
325 361 23.89 23.89 ellipse_path stroke
1 setlinewidth
solid
0.000 0.000 0.000 nodecolor
325 361 27.82 27.82 ellipse_path stroke
0.000 0.000 0.000 nodecolor
14 /Times-Roman set_font
315.5 356.9 moveto 19 (9/0) alignedtext
grestore
% 8->9
gsave
1 setlinewidth
0.000 0.000 0.000 edgecolor
newpath 188 294 moveto
215 308 260 329 291 345 curveto
stroke
0.000 0.000 0.000 edgecolor
newpath 289.44 348.14 moveto
300 349 lineto
292.28 341.74 lineto
closepath fill
1 setlinewidth
solid
0.000 0.000 0.000 edgecolor
newpath 289.44 348.14 moveto
300 349 lineto
292.28 341.74 lineto
closepath stroke
0.000 0.000 0.000 edgecolor
14 /Times-Roman set_font
228.5 337.9 moveto 31 (fast/1) alignedtext
grestore
% 14
gsave
1 setlinewidth
solid
0.000 0.000 0.000 nodecolor
325 282 29.19 29.19 ellipse_path stroke
1 setlinewidth
solid
0.000 0.000 0.000 nodecolor
325 282 33.19 33.19 ellipse_path stroke
0.000 0.000 0.000 nodecolor
14 /Times-Roman set_font
312 277.9 moveto 26 (14/0) alignedtext
grestore
% 8->14
gsave
1 setlinewidth
0.000 0.000 0.000 edgecolor
newpath 190 282 moveto
215 282 253 282 282 282 curveto
stroke
0.000 0.000 0.000 edgecolor
newpath 282 285.5 moveto
292 282 lineto
282 278.5 lineto
closepath fill
1 setlinewidth
solid
0.000 0.000 0.000 edgecolor
newpath 282 285.5 moveto
292 282 lineto
282 278.5 lineto
closepath stroke
0.000 0.000 0.000 edgecolor
14 /Times-Roman set_font
222 285.9 moveto 44 (home/1) alignedtext
grestore
% 10->1
gsave
1 setlinewidth
0.000 0.000 0.000 edgecolor
newpath 276 216 moveto
300 212 333 210 358 223 curveto
399 243 428 288 444 319 curveto
stroke
0.000 0.000 0.000 edgecolor
newpath 441.08 320.96 moveto
449 328 lineto
447.2 317.56 lineto
closepath fill
1 setlinewidth
solid
0.000 0.000 0.000 edgecolor
newpath 441.08 320.96 moveto
449 328 lineto
447.2 317.56 lineto
closepath stroke
0.000 0.000 0.000 edgecolor
14 /Times-Roman set_font
306 226.9 moveto 38 (</s>/1) alignedtext
grestore
% 13
gsave
1 setlinewidth
solid
0.000 0.000 0.000 nodecolor
325 107 29.19 29.19 ellipse_path stroke
1 setlinewidth
solid
0.000 0.000 0.000 nodecolor
325 107 33.19 33.19 ellipse_path stroke
0.000 0.000 0.000 nodecolor
14 /Times-Roman set_font
312 102.9 moveto 26 (13/0) alignedtext
grestore
% 12->13
gsave
1 setlinewidth
0.000 0.000 0.000 edgecolor
newpath 196 107 moveto
221 107 255 107 282 107 curveto
stroke
0.000 0.000 0.000 edgecolor
newpath 282 110.5 moveto
292 107 lineto
282 103.5 lineto
closepath fill
1 setlinewidth
solid
0.000 0.000 0.000 edgecolor
newpath 282 110.5 moveto
292 107 lineto
282 103.5 lineto
closepath stroke
0.000 0.000 0.000 edgecolor
14 /Times-Roman set_font
227 110.9 moveto 34 (dog/1) alignedtext
grestore
% 15->1
gsave
1 setlinewidth
0.000 0.000 0.000 edgecolor
newpath 277 37 moveto
301 36 333 37 358 48 curveto
392 64 400 74 417 107 curveto
436 143 450 255 456 316 curveto
stroke
0.000 0.000 0.000 edgecolor
newpath 452.52 316.4 moveto
457 326 lineto
459.49 315.7 lineto
closepath fill
1 setlinewidth
solid
0.000 0.000 0.000 edgecolor
newpath 452.52 316.4 moveto
457 326 lineto
459.49 315.7 lineto
closepath stroke
0.000 0.000 0.000 edgecolor
14 /Times-Roman set_font
306 52.9 moveto 38 (</s>/1) alignedtext
grestore
% 3->1
gsave
1 setlinewidth
0.000 0.000 0.000 edgecolor
newpath 348 647 moveto
369 630 400 602 417 571 curveto
434 540 448 446 456 392 curveto
stroke
0.000 0.000 0.000 edgecolor
newpath 459.49 392.3 moveto
457 382 lineto
452.52 391.6 lineto
closepath fill
1 setlinewidth
solid
0.000 0.000 0.000 edgecolor
newpath 459.49 392.3 moveto
457 382 lineto
452.52 391.6 lineto
closepath stroke
0.000 0.000 0.000 edgecolor
14 /Times-Roman set_font
378 627.9 moveto 34 (dog/1) alignedtext
grestore
% 11->1
gsave
1 setlinewidth
0.000 0.000 0.000 edgecolor
newpath 353 566 moveto
374 551 401 529 417 503 curveto
439 469 450 423 455 392 curveto
stroke
0.000 0.000 0.000 edgecolor
newpath 458.47 392.49 moveto
457 382 lineto
451.61 391.12 lineto
closepath fill
1 setlinewidth
solid
0.000 0.000 0.000 edgecolor
newpath 458.47 392.49 moveto
457 382 lineto
451.61 391.12 lineto
closepath stroke
0.000 0.000 0.000 edgecolor
14 /Times-Roman set_font
378 553.9 moveto 34 (dog/1) alignedtext
grestore
% 5->1
gsave
1 setlinewidth
0.000 0.000 0.000 edgecolor
newpath 350 495 moveto
371 486 399 470 417 449 curveto
432 432 442 410 450 390 curveto
stroke
0.000 0.000 0.000 edgecolor
newpath 453.16 391.59 moveto
453 381 lineto
446.52 389.38 lineto
closepath fill
1 setlinewidth
solid
0.000 0.000 0.000 edgecolor
newpath 453.16 391.59 moveto
453 381 lineto
446.52 389.38 lineto
closepath stroke
0.000 0.000 0.000 edgecolor
14 /Times-Roman set_font
380 485.9 moveto 30 (ran/1) alignedtext
grestore
% 7->1
gsave
1 setlinewidth
0.000 0.000 0.000 edgecolor
newpath 352 432 moveto
372 430 398 425 417 412 curveto
427 406 435 397 442 388 curveto
stroke
0.000 0.000 0.000 edgecolor
newpath 445.2 389.44 moveto
447 379 lineto
439.08 386.04 lineto
closepath fill
1 setlinewidth
solid
0.000 0.000 0.000 edgecolor
newpath 445.2 389.44 moveto
447 379 lineto
439.08 386.04 lineto
closepath stroke
0.000 0.000 0.000 edgecolor
14 /Times-Roman set_font
379.5 431.9 moveto 31 (fast/1) alignedtext
grestore
% 7->1
gsave
1 setlinewidth
0.000 0.000 0.000 edgecolor
newpath 344 414 moveto
352 406 363 397 373 391 curveto
375 390 401 378 425 369 curveto
stroke
0.000 0.000 0.000 edgecolor
newpath 426.28 372.26 moveto
434 365 lineto
423.44 365.86 lineto
closepath fill
1 setlinewidth
solid
0.000 0.000 0.000 edgecolor
newpath 426.28 372.26 moveto
434 365 lineto
423.44 365.86 lineto
closepath stroke
0.000 0.000 0.000 edgecolor
14 /Times-Roman set_font
373 394.9 moveto 44 (home/1) alignedtext
grestore
% 9->1
gsave
1 setlinewidth
0.000 0.000 0.000 edgecolor
newpath 353 357 moveto
359 356 367 355 373 355 curveto
389 353 407 353 422 353 curveto
stroke
0.000 0.000 0.000 edgecolor
newpath 422 356.5 moveto
432 353 lineto
422 349.5 lineto
closepath fill
1 setlinewidth
solid
0.000 0.000 0.000 edgecolor
newpath 422 356.5 moveto
432 353 lineto
422 349.5 lineto
closepath stroke
0.000 0.000 0.000 edgecolor
14 /Times-Roman set_font
376 358.9 moveto 38 (</s>/1) alignedtext
grestore
% 14->1
gsave
1 setlinewidth
0.000 0.000 0.000 edgecolor
newpath 354 297 moveto
373 307 396 320 417 331 curveto
420 333 423 334 426 336 curveto
stroke
0.000 0.000 0.000 edgecolor
newpath 424.56 339.2 moveto
435 341 lineto
427.96 333.08 lineto
closepath fill
1 setlinewidth
solid
0.000 0.000 0.000 edgecolor
newpath 424.56 339.2 moveto
435 341 lineto
427.96 333.08 lineto
closepath stroke
0.000 0.000 0.000 edgecolor
14 /Times-Roman set_font
376 334.9 moveto 38 (</s>/1) alignedtext
grestore
% 13->1
gsave
1 setlinewidth
0.000 0.000 0.000 edgecolor
newpath 358 109 moveto
378 112 402 120 417 137 curveto
440 162 452 261 457 316 curveto
stroke
0.000 0.000 0.000 edgecolor
newpath 453.52 316.4 moveto
458 326 lineto
460.49 315.7 lineto
closepath fill
1 setlinewidth
solid
0.000 0.000 0.000 edgecolor
newpath 453.52 316.4 moveto
458 326 lineto
460.49 315.7 lineto
closepath stroke
0.000 0.000 0.000 edgecolor
14 /Times-Roman set_font
380 140.9 moveto 30 (ran/1) alignedtext
grestore
endpage
showpage
grestore
%%PageTrailer
%%EndPage: 1
%%Trailer
%%Pages: 1
%%BoundingBox: 36 148 735 644
end
restore
%%EOF
