%!PS-Adobe-3.0 EPSF-3.0
%%Creator: Graphviz version 2.20.3 (Tue Oct 14 12:23:50 UTC 2008)
%%For: (ashishdepankaj) Ashish Depankaj
%%Title: FSM
%%Pages: (atend)
%%BoundingBox: (atend)
%%EndComments
save
%%BeginProlog
/DotDict 200 dict def
DotDict begin

/setupLatin1 {
mark
/EncodingVector 256 array def
 EncodingVector 0

ISOLatin1Encoding 0 255 getinterval putinterval
EncodingVector 45 /hyphen put

% Set up ISO Latin 1 character encoding
/starnetISO {
        dup dup findfont dup length dict begin
        { 1 index /FID ne { def }{ pop pop } ifelse
        } forall
        /Encoding EncodingVector def
        currentdict end definefont
} def
/Times-Roman starnetISO def
/Times-Italic starnetISO def
/Times-Bold starnetISO def
/Times-BoldItalic starnetISO def
/Helvetica starnetISO def
/Helvetica-Oblique starnetISO def
/Helvetica-Bold starnetISO def
/Helvetica-BoldOblique starnetISO def
/Courier starnetISO def
/Courier-Oblique starnetISO def
/Courier-Bold starnetISO def
/Courier-BoldOblique starnetISO def
cleartomark
} bind def

%%BeginResource: procset graphviz 0 0
/coord-font-family /Times-Roman def
/default-font-family /Times-Roman def
/coordfont coord-font-family findfont 8 scalefont def

/InvScaleFactor 1.0 def
/set_scale {
       dup 1 exch div /InvScaleFactor exch def
       scale
} bind def

% styles
/solid { [] 0 setdash } bind def
/dashed { [9 InvScaleFactor mul dup ] 0 setdash } bind def
/dotted { [1 InvScaleFactor mul 6 InvScaleFactor mul] 0 setdash } bind def
/invis {/fill {newpath} def /stroke {newpath} def /show {pop newpath} def} bind def
/bold { 2 setlinewidth } bind def
/filled { } bind def
/unfilled { } bind def
/rounded { } bind def
/diagonals { } bind def

% hooks for setting color 
/nodecolor { sethsbcolor } bind def
/edgecolor { sethsbcolor } bind def
/graphcolor { sethsbcolor } bind def
/nopcolor {pop pop pop} bind def

/beginpage {	% i j npages
	/npages exch def
	/j exch def
	/i exch def
	/str 10 string def
	npages 1 gt {
		gsave
			coordfont setfont
			0 0 moveto
			(\() show i str cvs show (,) show j str cvs show (\)) show
		grestore
	} if
} bind def

/set_font {
	findfont exch
	scalefont setfont
} def

% draw text fitted to its expected width
/alignedtext {			% width text
	/text exch def
	/width exch def
	gsave
		width 0 gt {
			[] 0 setdash
			text stringwidth pop width exch sub text length div 0 text ashow
		} if
	grestore
} def

/boxprim {				% xcorner ycorner xsize ysize
		4 2 roll
		moveto
		2 copy
		exch 0 rlineto
		0 exch rlineto
		pop neg 0 rlineto
		closepath
} bind def

/ellipse_path {
	/ry exch def
	/rx exch def
	/y exch def
	/x exch def
	matrix currentmatrix
	newpath
	x y translate
	rx ry scale
	0 0 1 0 360 arc
	setmatrix
} bind def

/endpage { showpage } bind def
/showpage { } def

/layercolorseq
	[	% layer color sequence - darkest to lightest
		[0 0 0]
		[.2 .8 .8]
		[.4 .8 .8]
		[.6 .8 .8]
		[.8 .8 .8]
	]
def

/layerlen layercolorseq length def

/setlayer {/maxlayer exch def /curlayer exch def
	layercolorseq curlayer 1 sub layerlen mod get
	aload pop sethsbcolor
	/nodecolor {nopcolor} def
	/edgecolor {nopcolor} def
	/graphcolor {nopcolor} def
} bind def

/onlayer { curlayer ne {invis} if } def

/onlayers {
	/myupper exch def
	/mylower exch def
	curlayer mylower lt
	curlayer myupper gt
	or
	{invis} if
} def

/curlayer 0 def

%%EndResource
%%EndProlog
%%BeginSetup
14 default-font-family set_font
1 setmiterlimit
% /arrowlength 10 def
% /arrowwidth 5 def

% make sure pdfmark is harmless for PS-interpreters other than Distiller
/pdfmark where {pop} {userdict /pdfmark /cleartomark load put} ifelse
% make '<<' and '>>' safe on PS Level 1 devices
/languagelevel where {pop languagelevel}{1} ifelse
2 lt {
    userdict (<<) cvn ([) cvn load put
    userdict (>>) cvn ([) cvn load put
} if

%%EndSetup
setupLatin1
%%Page: 1 1
%%PageBoundingBox: 178 90 434 702
%%PageOrientation: Landscape
0 0 1 beginpage
gsave
178 90 256 612 boxprim clip newpath
0.713287 0.713287 set_scale 90 rotate 130.176 -604.5 translate
% 0
gsave
1 setlinewidth
solid
0.000 0.000 0.000 nodecolor
822 293 23.89 23.89 ellipse_path stroke
1 setlinewidth
solid
0.000 0.000 0.000 nodecolor
822 293 27.82 27.82 ellipse_path stroke
0.000 0.000 0.000 nodecolor
14 /Times-Roman set_font
812.5 288.9 moveto 19 (0/0) alignedtext
grestore
% 1
gsave
1 setlinewidth
solid
0.000 0.000 0.000 nodecolor
540 56 18 18 ellipse_path stroke
0.000 0.000 0.000 nodecolor
14 /Times-Roman set_font
536 51.9 moveto 8 (1) alignedtext
grestore
% 6
gsave
1 setlinewidth
solid
0.000 0.000 0.000 nodecolor
149 129 18 18 ellipse_path stroke
0.000 0.000 0.000 nodecolor
14 /Times-Roman set_font
145 124.9 moveto 8 (6) alignedtext
grestore
% 1->6
gsave
1 setlinewidth
0.000 0.000 0.000 edgecolor
newpath 522 54 moveto
478 49 360 37 262 49 curveto
230 52 218 47 191 66 curveto
178 75 168 90 161 103 curveto
stroke
0.000 0.000 0.000 edgecolor
newpath 157.8 101.56 moveto
156 112 lineto
163.92 104.96 lineto
closepath fill
1 setlinewidth
solid
0.000 0.000 0.000 edgecolor
newpath 157.8 101.56 moveto
156 112 lineto
163.92 104.96 lineto
closepath stroke
0.000 0.000 0.000 edgecolor
14 /Times-Roman set_font
288 52.9 moveto 56 (eps/4.316) alignedtext
grestore
% 2
gsave
1 setlinewidth
solid
0.000 0.000 0.000 nodecolor
682 199 18 18 ellipse_path stroke
0.000 0.000 0.000 nodecolor
14 /Times-Roman set_font
678 194.9 moveto 8 (2) alignedtext
grestore
% 1->2
gsave
1 setlinewidth
0.000 0.000 0.000 edgecolor
newpath 557 62 moveto
581 72 623 92 649 122 curveto
661 136 669 156 675 171 curveto
stroke
0.000 0.000 0.000 edgecolor
newpath 671.77 172.43 moveto
678 181 lineto
678.48 170.42 lineto
closepath fill
1 setlinewidth
solid
0.000 0.000 0.000 edgecolor
newpath 671.77 172.43 moveto
678 181 lineto
678.48 170.42 lineto
closepath stroke
0.000 0.000 0.000 edgecolor
14 /Times-Roman set_font
587.5 125.9 moveto 61 (shot/0.010) alignedtext
grestore
% 6->0
gsave
1 setlinewidth
0.000 0.000 0.000 edgecolor
newpath 154 147 moveto
169 196 220 335 316 335 curveto
316 335 316 335 682 335 curveto
720 335 760 321 788 309 curveto
stroke
0.000 0.000 0.000 edgecolor
newpath 789.28 312.26 moveto
797 305 lineto
786.44 305.86 lineto
closepath fill
1 setlinewidth
solid
0.000 0.000 0.000 edgecolor
newpath 789.28 312.26 moveto
797 305 lineto
786.44 305.86 lineto
closepath stroke
0.000 0.000 0.000 edgecolor
14 /Times-Roman set_font
508.5 338.9 moveto 63 (</s>/1.386) alignedtext
grestore
% 6->1
gsave
1 setlinewidth
0.000 0.000 0.000 edgecolor
newpath 157 113 moveto
169 89 189 47 191 45 curveto
217 23 230 26 262 21 curveto
364 4 394 13 493 39 curveto
500 40 507 42 514 45 curveto
stroke
0.000 0.000 0.000 edgecolor
newpath 512.44 48.14 moveto
523 49 lineto
515.28 41.74 lineto
closepath fill
1 setlinewidth
solid
0.000 0.000 0.000 edgecolor
newpath 512.44 48.14 moveto
523 49 lineto
515.28 41.74 lineto
closepath stroke
0.000 0.000 0.000 edgecolor
14 /Times-Roman set_font
262 24.9 moveto 108 (<unknown>/2.079) alignedtext
grestore
% 6->2
gsave
1 setlinewidth
0.000 0.000 0.000 edgecolor
newpath 155 146 moveto
162 163 174 189 191 207 curveto
217 233 227 239 262 249 curveto
349 272 597 238 649 220 curveto
653 219 656 217 659 215 curveto
stroke
0.000 0.000 0.000 edgecolor
newpath 660.96 217.92 moveto
668 210 lineto
657.56 211.8 lineto
closepath fill
1 setlinewidth
solid
0.000 0.000 0.000 edgecolor
newpath 660.96 217.92 moveto
668 210 lineto
657.56 211.8 lineto
closepath stroke
0.000 0.000 0.000 edgecolor
14 /Times-Roman set_font
409 258.9 moveto 60 (shot/1.386) alignedtext
grestore
% 3
gsave
1 setlinewidth
solid
0.000 0.000 0.000 nodecolor
540 199 18 18 ellipse_path stroke
0.000 0.000 0.000 nodecolor
14 /Times-Roman set_font
536 194.9 moveto 8 (3) alignedtext
grestore
% 6->3
gsave
1 setlinewidth
0.000 0.000 0.000 edgecolor
newpath 160 144 moveto
168 155 179 169 191 179 curveto
219 201 228 207 262 216 curveto
362 240 392 227 493 212 curveto
500 211 507 209 513 207 curveto
stroke
0.000 0.000 0.000 edgecolor
newpath 513.88 210.39 moveto
523 205 lineto
512.51 203.53 lineto
closepath fill
1 setlinewidth
solid
0.000 0.000 0.000 edgecolor
newpath 513.88 210.39 moveto
523 205 lineto
512.51 203.53 lineto
closepath stroke
0.000 0.000 0.000 edgecolor
14 /Times-Roman set_font
279 231.9 moveto 74 (hunter/2.079) alignedtext
grestore
% 4
gsave
1 setlinewidth
solid
0.000 0.000 0.000 nodecolor
316 93 18 18 ellipse_path stroke
0.000 0.000 0.000 nodecolor
14 /Times-Roman set_font
312 88.9 moveto 8 (4) alignedtext
grestore
% 6->4
gsave
1 setlinewidth
0.000 0.000 0.000 edgecolor
newpath 158 113 moveto
165 101 176 86 191 80 curveto
223 65 264 74 289 83 curveto
stroke
0.000 0.000 0.000 edgecolor
newpath 288.42 86.48 moveto
299 86 lineto
290.43 79.77 lineto
closepath fill
1 setlinewidth
solid
0.000 0.000 0.000 edgecolor
newpath 288.42 86.48 moveto
299 86 lineto
290.43 79.77 lineto
closepath stroke
0.000 0.000 0.000 edgecolor
14 /Times-Roman set_font
192 83.9 moveto 54 (the/1.386) alignedtext
grestore
% 2->0
gsave
1 setlinewidth
0.000 0.000 0.000 edgecolor
newpath 697 209 moveto
719 224 761 252 790 271 curveto
stroke
0.000 0.000 0.000 edgecolor
newpath 788.74 274.37 moveto
799 277 lineto
792.62 268.54 lineto
closepath fill
1 setlinewidth
solid
0.000 0.000 0.000 edgecolor
newpath 788.74 274.37 moveto
799 277 lineto
792.62 268.54 lineto
closepath stroke
0.000 0.000 0.000 edgecolor
14 /Times-Roman set_font
715.5 264.9 moveto 63 (</s>/0.005) alignedtext
grestore
% 2->6
gsave
1 setlinewidth
0.000 0.000 0.000 edgecolor
newpath 665 194 moveto
643 188 605 177 572 172 curveto
425 145 245 134 177 131 curveto
stroke
0.000 0.000 0.000 edgecolor
newpath 177.3 127.51 moveto
167 130 lineto
176.6 134.48 lineto
closepath fill
1 setlinewidth
solid
0.000 0.000 0.000 edgecolor
newpath 177.3 127.51 moveto
167 130 lineto
176.6 134.48 lineto
closepath stroke
0.000 0.000 0.000 edgecolor
14 /Times-Roman set_font
411.5 161.9 moveto 55 (eps/5.009) alignedtext
grestore
% 3->6
gsave
1 setlinewidth
0.000 0.000 0.000 edgecolor
newpath 522 200 moveto
469 202 311 205 191 159 curveto
184 156 177 152 170 147 curveto
stroke
0.000 0.000 0.000 edgecolor
newpath 172.1 144.2 moveto
162 141 lineto
167.9 149.8 lineto
closepath fill
1 setlinewidth
solid
0.000 0.000 0.000 edgecolor
newpath 172.1 144.2 moveto
162 141 lineto
167.9 149.8 lineto
closepath stroke
0.000 0.000 0.000 edgecolor
14 /Times-Roman set_font
288 198.9 moveto 56 (eps/4.316) alignedtext
grestore
% 3->2
gsave
1 setlinewidth
0.000 0.000 0.000 edgecolor
newpath 558 199 moveto
583 199 626 199 654 199 curveto
stroke
0.000 0.000 0.000 edgecolor
newpath 654 202.5 moveto
664 199 lineto
654 195.5 lineto
closepath fill
1 setlinewidth
solid
0.000 0.000 0.000 edgecolor
newpath 654 202.5 moveto
664 199 lineto
654 195.5 lineto
closepath stroke
0.000 0.000 0.000 edgecolor
14 /Times-Roman set_font
587.5 202.9 moveto 61 (shot/0.010) alignedtext
grestore
% 4->1
gsave
1 setlinewidth
0.000 0.000 0.000 edgecolor
newpath 333 87 moveto
347 83 367 77 385 74 curveto
430 65 481 60 512 58 curveto
stroke
0.000 0.000 0.000 edgecolor
newpath 512.4 61.48 moveto
522 57 lineto
511.7 54.51 lineto
closepath fill
1 setlinewidth
solid
0.000 0.000 0.000 edgecolor
newpath 512.4 61.48 moveto
522 57 lineto
511.7 54.51 lineto
closepath stroke
0.000 0.000 0.000 edgecolor
14 /Times-Roman set_font
385 77.9 moveto 108 (<unknown>/0.703) alignedtext
grestore
% 4->6
gsave
1 setlinewidth
0.000 0.000 0.000 edgecolor
newpath 298 95 moveto
274 98 229 104 191 114 curveto
186 115 181 117 176 118 curveto
stroke
0.000 0.000 0.000 edgecolor
newpath 173.98 115.04 moveto
166 122 lineto
176.58 121.54 lineto
closepath fill
1 setlinewidth
solid
0.000 0.000 0.000 edgecolor
newpath 173.98 115.04 moveto
166 122 lineto
176.58 121.54 lineto
closepath stroke
0.000 0.000 0.000 edgecolor
14 /Times-Roman set_font
191 117.9 moveto 56 (eps/4.316) alignedtext
grestore
% 4->3
gsave
1 setlinewidth
0.000 0.000 0.000 edgecolor
newpath 334 93 moveto
374 93 468 96 493 114 curveto
513 128 525 152 533 171 curveto
stroke
0.000 0.000 0.000 edgecolor
newpath 529.77 172.43 moveto
536 181 lineto
536.48 170.42 lineto
closepath fill
1 setlinewidth
solid
0.000 0.000 0.000 edgecolor
newpath 529.77 172.43 moveto
536 181 lineto
536.48 170.42 lineto
closepath stroke
0.000 0.000 0.000 edgecolor
14 /Times-Roman set_font
402 117.9 moveto 74 (hunter/0.703) alignedtext
grestore
% 5
gsave
2 setlinewidth
bold
0.000 0.000 0.000 nodecolor
18 47 18 18 ellipse_path stroke
0.000 0.000 0.000 nodecolor
14 /Times-Roman set_font
14.5 42.9 moveto 7 (5) alignedtext
grestore
% 5->6
gsave
1 setlinewidth
0.000 0.000 0.000 edgecolor
newpath 33 57 moveto
55 70 98 97 124 113 curveto
stroke
0.000 0.000 0.000 edgecolor
newpath 122.74 116.37 moveto
133 119 lineto
126.62 110.54 lineto
closepath fill
1 setlinewidth
solid
0.000 0.000 0.000 edgecolor
newpath 122.74 116.37 moveto
133 119 lineto
126.62 110.54 lineto
closepath stroke
0.000 0.000 0.000 edgecolor
14 /Times-Roman set_font
51.5 102.9 moveto 55 (eps/5.009) alignedtext
grestore
% 5->4
gsave
1 setlinewidth
0.000 0.000 0.000 edgecolor
newpath 36 47 moveto
75 46 170 47 247 66 curveto
262 69 278 75 291 81 curveto
stroke
0.000 0.000 0.000 edgecolor
newpath 289.44 84.14 moveto
300 85 lineto
292.28 77.74 lineto
closepath fill
1 setlinewidth
solid
0.000 0.000 0.000 edgecolor
newpath 289.44 84.14 moveto
300 85 lineto
292.28 77.74 lineto
closepath stroke
0.000 0.000 0.000 edgecolor
14 /Times-Roman set_font
122 55.9 moveto 54 (the/0.005) alignedtext
grestore
endpage
showpage
grestore
%%PageTrailer
%%EndPage: 1
%%Trailer
%%Pages: 1
%%BoundingBox: 178 90 434 702
end
restore
%%EOF
