%!PS-Adobe-3.0 EPSF-3.0
%%Creator: Graphviz version 2.20.3 (Tue Oct 14 12:23:50 UTC 2008)
%%For: (ashishdepankaj) Ashish Depankaj
%%Title: FSM
%%Pages: (atend)
%%BoundingBox: (atend)
%%EndComments
save
%%BeginProlog
/DotDict 200 dict def
DotDict begin

/setupLatin1 {
mark
/EncodingVector 256 array def
 EncodingVector 0

ISOLatin1Encoding 0 255 getinterval putinterval
EncodingVector 45 /hyphen put

% Set up ISO Latin 1 character encoding
/starnetISO {
        dup dup findfont dup length dict begin
        { 1 index /FID ne { def }{ pop pop } ifelse
        } forall
        /Encoding EncodingVector def
        currentdict end definefont
} def
/Times-Roman starnetISO def
/Times-Italic starnetISO def
/Times-Bold starnetISO def
/Times-BoldItalic starnetISO def
/Helvetica starnetISO def
/Helvetica-Oblique starnetISO def
/Helvetica-Bold starnetISO def
/Helvetica-BoldOblique starnetISO def
/Courier starnetISO def
/Courier-Oblique starnetISO def
/Courier-Bold starnetISO def
/Courier-BoldOblique starnetISO def
cleartomark
} bind def

%%BeginResource: procset graphviz 0 0
/coord-font-family /Times-Roman def
/default-font-family /Times-Roman def
/coordfont coord-font-family findfont 8 scalefont def

/InvScaleFactor 1.0 def
/set_scale {
       dup 1 exch div /InvScaleFactor exch def
       scale
} bind def

% styles
/solid { [] 0 setdash } bind def
/dashed { [9 InvScaleFactor mul dup ] 0 setdash } bind def
/dotted { [1 InvScaleFactor mul 6 InvScaleFactor mul] 0 setdash } bind def
/invis {/fill {newpath} def /stroke {newpath} def /show {pop newpath} def} bind def
/bold { 2 setlinewidth } bind def
/filled { } bind def
/unfilled { } bind def
/rounded { } bind def
/diagonals { } bind def

% hooks for setting color 
/nodecolor { sethsbcolor } bind def
/edgecolor { sethsbcolor } bind def
/graphcolor { sethsbcolor } bind def
/nopcolor {pop pop pop} bind def

/beginpage {	% i j npages
	/npages exch def
	/j exch def
	/i exch def
	/str 10 string def
	npages 1 gt {
		gsave
			coordfont setfont
			0 0 moveto
			(\() show i str cvs show (,) show j str cvs show (\)) show
		grestore
	} if
} bind def

/set_font {
	findfont exch
	scalefont setfont
} def

% draw text fitted to its expected width
/alignedtext {			% width text
	/text exch def
	/width exch def
	gsave
		width 0 gt {
			[] 0 setdash
			text stringwidth pop width exch sub text length div 0 text ashow
		} if
	grestore
} def

/boxprim {				% xcorner ycorner xsize ysize
		4 2 roll
		moveto
		2 copy
		exch 0 rlineto
		0 exch rlineto
		pop neg 0 rlineto
		closepath
} bind def

/ellipse_path {
	/ry exch def
	/rx exch def
	/y exch def
	/x exch def
	matrix currentmatrix
	newpath
	x y translate
	rx ry scale
	0 0 1 0 360 arc
	setmatrix
} bind def

/endpage { showpage } bind def
/showpage { } def

/layercolorseq
	[	% layer color sequence - darkest to lightest
		[0 0 0]
		[.2 .8 .8]
		[.4 .8 .8]
		[.6 .8 .8]
		[.8 .8 .8]
	]
def

/layerlen layercolorseq length def

/setlayer {/maxlayer exch def /curlayer exch def
	layercolorseq curlayer 1 sub layerlen mod get
	aload pop sethsbcolor
	/nodecolor {nopcolor} def
	/edgecolor {nopcolor} def
	/graphcolor {nopcolor} def
} bind def

/onlayer { curlayer ne {invis} if } def

/onlayers {
	/myupper exch def
	/mylower exch def
	curlayer mylower lt
	curlayer myupper gt
	or
	{invis} if
} def

/curlayer 0 def

%%EndResource
%%EndProlog
%%BeginSetup
14 default-font-family set_font
1 setmiterlimit
% /arrowlength 10 def
% /arrowwidth 5 def

% make sure pdfmark is harmless for PS-interpreters other than Distiller
/pdfmark where {pop} {userdict /pdfmark /cleartomark load put} ifelse
% make '<<' and '>>' safe on PS Level 1 devices
/languagelevel where {pop languagelevel}{1} ifelse
2 lt {
    userdict (<<) cvn ([) cvn load put
    userdict (>>) cvn ([) cvn load put
} if

%%EndSetup
setupLatin1
%%Page: 1 1
%%PageBoundingBox: 90 174 522 618
%%PageOrientation: Landscape
0 0 1 beginpage
gsave
90 174 432 444 boxprim clip newpath
1 1 set_scale 90 rotate 178 -518 translate
% 0
gsave
2 setlinewidth
bold
0.000 0.000 0.000 nodecolor
28 165 23.89 23.89 ellipse_path stroke
2 setlinewidth
bold
0.000 0.000 0.000 nodecolor
28 165 27.82 27.82 ellipse_path stroke
0.000 0.000 0.000 nodecolor
14 /Times-Roman set_font
18.5 160.9 moveto 19 (0/0) alignedtext
grestore
% 2
gsave
1 setlinewidth
solid
0.000 0.000 0.000 nodecolor
156 323 23.89 23.89 ellipse_path stroke
1 setlinewidth
solid
0.000 0.000 0.000 nodecolor
156 323 27.82 27.82 ellipse_path stroke
0.000 0.000 0.000 nodecolor
14 /Times-Roman set_font
146.5 318.9 moveto 19 (2/0) alignedtext
grestore
% 0->2
gsave
1 setlinewidth
0.000 0.000 0.000 edgecolor
newpath 46 187 moveto
68 215 107 262 132 293 curveto
stroke
0.000 0.000 0.000 edgecolor
newpath 129.2 295.1 moveto
138 301 lineto
134.8 290.9 lineto
closepath fill
1 setlinewidth
solid
0.000 0.000 0.000 edgecolor
newpath 129.2 295.1 moveto
138 301 lineto
134.8 290.9 lineto
closepath stroke
0.000 0.000 0.000 edgecolor
14 /Times-Roman set_font
74.5 269.9 moveto 35 (<s>/4) alignedtext
grestore
% 4
gsave
1 setlinewidth
solid
0.000 0.000 0.000 nodecolor
156 199 23.89 23.89 ellipse_path stroke
1 setlinewidth
solid
0.000 0.000 0.000 nodecolor
156 199 27.82 27.82 ellipse_path stroke
0.000 0.000 0.000 nodecolor
14 /Times-Roman set_font
146.5 194.9 moveto 19 (4/0) alignedtext
grestore
% 0->4
gsave
1 setlinewidth
0.000 0.000 0.000 edgecolor
newpath 55 172 moveto
74 177 99 184 119 189 curveto
stroke
0.000 0.000 0.000 edgecolor
newpath 118.42 192.48 moveto
129 192 lineto
120.43 185.77 lineto
closepath fill
1 setlinewidth
solid
0.000 0.000 0.000 edgecolor
newpath 118.42 192.48 moveto
129 192 lineto
120.43 185.77 lineto
closepath stroke
0.000 0.000 0.000 edgecolor
14 /Times-Roman set_font
71.5 189.9 moveto 41 (hello/2) alignedtext
grestore
% 1
gsave
1 setlinewidth
solid
0.000 0.000 0.000 nodecolor
408 255 23.89 23.89 ellipse_path stroke
1 setlinewidth
solid
0.000 0.000 0.000 nodecolor
408 255 27.82 27.82 ellipse_path stroke
0.000 0.000 0.000 nodecolor
14 /Times-Roman set_font
398.5 250.9 moveto 19 (1/0) alignedtext
grestore
% 0->1
gsave
1 setlinewidth
0.000 0.000 0.000 edgecolor
newpath 56 159 moveto
108 149 223 132 312 162 curveto
344 173 370 201 387 223 curveto
stroke
0.000 0.000 0.000 edgecolor
newpath 384.2 225.1 moveto
393 231 lineto
389.8 220.9 lineto
closepath fill
1 setlinewidth
solid
0.000 0.000 0.000 edgecolor
newpath 384.2 225.1 moveto
393 231 lineto
389.8 220.9 lineto
closepath stroke
0.000 0.000 0.000 edgecolor
14 /Times-Roman set_font
201 151.9 moveto 38 (</s>/4) alignedtext
grestore
% 6
gsave
1 setlinewidth
solid
0.000 0.000 0.000 nodecolor
156 87 23.89 23.89 ellipse_path stroke
1 setlinewidth
solid
0.000 0.000 0.000 nodecolor
156 87 27.82 27.82 ellipse_path stroke
0.000 0.000 0.000 nodecolor
14 /Times-Roman set_font
146.5 82.9 moveto 19 (6/0) alignedtext
grestore
% 0->6
gsave
1 setlinewidth
0.000 0.000 0.000 edgecolor
newpath 43 141 moveto
50 131 60 120 71 112 curveto
85 103 103 97 118 93 curveto
stroke
0.000 0.000 0.000 edgecolor
newpath 118.88 96.39 moveto
128 91 lineto
117.51 89.53 lineto
closepath fill
1 setlinewidth
solid
0.000 0.000 0.000 edgecolor
newpath 118.88 96.39 moveto
128 91 lineto
117.51 89.53 lineto
closepath stroke
0.000 0.000 0.000 edgecolor
14 /Times-Roman set_font
76 119.9 moveto 32 (bye/4) alignedtext
grestore
% 3
gsave
1 setlinewidth
solid
0.000 0.000 0.000 nodecolor
284 396 23.89 23.89 ellipse_path stroke
1 setlinewidth
solid
0.000 0.000 0.000 nodecolor
284 396 27.82 27.82 ellipse_path stroke
0.000 0.000 0.000 nodecolor
14 /Times-Roman set_font
274.5 391.9 moveto 19 (3/0) alignedtext
grestore
% 2->3
gsave
1 setlinewidth
0.000 0.000 0.000 edgecolor
newpath 180 337 moveto
200 348 229 364 250 377 curveto
stroke
0.000 0.000 0.000 edgecolor
newpath 248.56 380.2 moveto
259 382 lineto
251.96 374.08 lineto
closepath fill
1 setlinewidth
solid
0.000 0.000 0.000 edgecolor
newpath 248.56 380.2 moveto
259 382 lineto
251.96 374.08 lineto
closepath stroke
0.000 0.000 0.000 edgecolor
14 /Times-Roman set_font
199.5 372.9 moveto 41 (hello/2) alignedtext
grestore
% 5
gsave
1 setlinewidth
solid
0.000 0.000 0.000 nodecolor
284 323 23.2 23.2 ellipse_path stroke
1 setlinewidth
solid
0.000 0.000 0.000 nodecolor
284 323 27.12 27.12 ellipse_path stroke
0.000 0.000 0.000 nodecolor
14 /Times-Roman set_font
275 318.9 moveto 18 (5/0) alignedtext
grestore
% 2->5
gsave
1 setlinewidth
0.000 0.000 0.000 edgecolor
newpath 184 323 moveto
203 323 227 323 247 323 curveto
stroke
0.000 0.000 0.000 edgecolor
newpath 247 326.5 moveto
257 323 lineto
247 319.5 lineto
closepath fill
1 setlinewidth
solid
0.000 0.000 0.000 edgecolor
newpath 247 326.5 moveto
257 323 lineto
247 319.5 lineto
closepath stroke
0.000 0.000 0.000 edgecolor
14 /Times-Roman set_font
204 326.9 moveto 32 (bye/2) alignedtext
grestore
% 4->1
gsave
1 setlinewidth
0.000 0.000 0.000 edgecolor
newpath 182 211 moveto
187 214 193 217 199 219 curveto
256 239 327 249 370 252 curveto
stroke
0.000 0.000 0.000 edgecolor
newpath 369.7 255.49 moveto
380 253 lineto
370.4 248.52 lineto
closepath fill
1 setlinewidth
solid
0.000 0.000 0.000 edgecolor
newpath 369.7 255.49 moveto
380 253 lineto
370.4 248.52 lineto
closepath stroke
0.000 0.000 0.000 edgecolor
14 /Times-Roman set_font
265 247.9 moveto 38 (</s>/1) alignedtext
grestore
% 7
gsave
1 setlinewidth
solid
0.000 0.000 0.000 nodecolor
284 198 23.2 23.2 ellipse_path stroke
1 setlinewidth
solid
0.000 0.000 0.000 nodecolor
284 198 27.12 27.12 ellipse_path stroke
0.000 0.000 0.000 nodecolor
14 /Times-Roman set_font
275 193.9 moveto 18 (7/0) alignedtext
grestore
% 4->7
gsave
1 setlinewidth
0.000 0.000 0.000 edgecolor
newpath 184 199 moveto
203 198 227 198 247 198 curveto
stroke
0.000 0.000 0.000 edgecolor
newpath 247 201.5 moveto
257 198 lineto
247 194.5 lineto
closepath fill
1 setlinewidth
solid
0.000 0.000 0.000 edgecolor
newpath 247 201.5 moveto
257 198 lineto
247 194.5 lineto
closepath stroke
0.000 0.000 0.000 edgecolor
14 /Times-Roman set_font
204 201.9 moveto 32 (bye/1) alignedtext
grestore
% 6->1
gsave
1 setlinewidth
0.000 0.000 0.000 edgecolor
newpath 184 89 moveto
235 93 340 104 365 129 curveto
389 152 400 189 404 217 curveto
stroke
0.000 0.000 0.000 edgecolor
newpath 400.61 217.88 moveto
406 227 lineto
407.47 216.51 lineto
closepath fill
1 setlinewidth
solid
0.000 0.000 0.000 edgecolor
newpath 400.61 217.88 moveto
406 227 lineto
407.47 216.51 lineto
closepath stroke
0.000 0.000 0.000 edgecolor
14 /Times-Roman set_font
265 112.9 moveto 38 (</s>/3) alignedtext
grestore
% 8
gsave
1 setlinewidth
solid
0.000 0.000 0.000 nodecolor
284 35 23.2 23.2 ellipse_path stroke
1 setlinewidth
solid
0.000 0.000 0.000 nodecolor
284 35 27.12 27.12 ellipse_path stroke
0.000 0.000 0.000 nodecolor
14 /Times-Roman set_font
275 30.9 moveto 18 (8/0) alignedtext
grestore
% 6->8
gsave
1 setlinewidth
0.000 0.000 0.000 edgecolor
newpath 182 75 moveto
187 73 193 70 199 67 curveto
215 60 234 54 249 48 curveto
stroke
0.000 0.000 0.000 edgecolor
newpath 250.28 51.26 moveto
258 44 lineto
247.44 44.86 lineto
closepath fill
1 setlinewidth
solid
0.000 0.000 0.000 edgecolor
newpath 250.28 51.26 moveto
258 44 lineto
247.44 44.86 lineto
closepath stroke
0.000 0.000 0.000 edgecolor
14 /Times-Roman set_font
204 74.9 moveto 32 (bye/1) alignedtext
grestore
% 3->1
gsave
1 setlinewidth
0.000 0.000 0.000 edgecolor
newpath 312 400 moveto
329 400 350 398 365 386 curveto
379 373 392 327 401 293 curveto
stroke
0.000 0.000 0.000 edgecolor
newpath 404.47 293.49 moveto
403 283 lineto
397.61 292.12 lineto
closepath fill
1 setlinewidth
solid
0.000 0.000 0.000 edgecolor
newpath 404.47 293.49 moveto
403 283 lineto
397.61 292.12 lineto
closepath stroke
0.000 0.000 0.000 edgecolor
14 /Times-Roman set_font
327 401.9 moveto 38 (</s>/1) alignedtext
grestore
% 3->1
gsave
1 setlinewidth
0.000 0.000 0.000 edgecolor
newpath 307 379 moveto
313 375 320 369 327 365 curveto
344 353 352 354 365 339 curveto
377 325 387 307 394 291 curveto
stroke
0.000 0.000 0.000 edgecolor
newpath 397.54 291.58 moveto
398 281 lineto
391.04 288.98 lineto
closepath fill
1 setlinewidth
solid
0.000 0.000 0.000 edgecolor
newpath 397.54 291.58 moveto
398 281 lineto
391.04 288.98 lineto
closepath stroke
0.000 0.000 0.000 edgecolor
14 /Times-Roman set_font
330 368.9 moveto 32 (bye/1) alignedtext
grestore
% 5->1
gsave
1 setlinewidth
0.000 0.000 0.000 edgecolor
newpath 311 321 moveto
328 320 349 315 365 306 curveto
373 301 381 294 387 287 curveto
stroke
0.000 0.000 0.000 edgecolor
newpath 389.8 289.1 moveto
393 279 lineto
384.2 284.9 lineto
closepath fill
1 setlinewidth
solid
0.000 0.000 0.000 edgecolor
newpath 389.8 289.1 moveto
393 279 lineto
384.2 284.9 lineto
closepath stroke
0.000 0.000 0.000 edgecolor
14 /Times-Roman set_font
327 321.9 moveto 38 (</s>/1) alignedtext
grestore
% 5->1
gsave
1 setlinewidth
0.000 0.000 0.000 edgecolor
newpath 303 304 moveto
310 297 319 290 327 285 curveto
341 277 357 270 371 265 curveto
stroke
0.000 0.000 0.000 edgecolor
newpath 372.43 268.23 moveto
381 262 lineto
370.42 261.52 lineto
closepath fill
1 setlinewidth
solid
0.000 0.000 0.000 edgecolor
newpath 372.43 268.23 moveto
381 262 lineto
370.42 261.52 lineto
closepath stroke
0.000 0.000 0.000 edgecolor
14 /Times-Roman set_font
330 288.9 moveto 32 (bye/1) alignedtext
grestore
% 7->1
gsave
1 setlinewidth
0.000 0.000 0.000 edgecolor
newpath 311 204 moveto
327 208 348 215 365 224 curveto
370 226 374 228 379 231 curveto
stroke
0.000 0.000 0.000 edgecolor
newpath 376.9 233.8 moveto
387 237 lineto
381.1 228.2 lineto
closepath fill
1 setlinewidth
solid
0.000 0.000 0.000 edgecolor
newpath 376.9 233.8 moveto
387 237 lineto
381.1 228.2 lineto
closepath stroke
0.000 0.000 0.000 edgecolor
14 /Times-Roman set_font
327 227.9 moveto 38 (</s>/1) alignedtext
grestore
% 8->1
gsave
1 setlinewidth
0.000 0.000 0.000 edgecolor
newpath 311 39 moveto
329 43 351 51 365 67 curveto
385 89 397 169 404 217 curveto
stroke
0.000 0.000 0.000 edgecolor
newpath 400.52 217.4 moveto
405 227 lineto
407.49 216.7 lineto
closepath fill
1 setlinewidth
solid
0.000 0.000 0.000 edgecolor
newpath 400.52 217.4 moveto
405 227 lineto
407.49 216.7 lineto
closepath stroke
0.000 0.000 0.000 edgecolor
14 /Times-Roman set_font
327 71.9 moveto 38 (</s>/1) alignedtext
grestore
endpage
showpage
grestore
%%PageTrailer
%%EndPage: 1
%%Trailer
%%Pages: 1
%%BoundingBox: 90 174 522 618
end
restore
%%EOF
